<svg xmlns="http://www.w3.org/2000/svg" width="22" height="22" viewBox="0 0 22 22">
 <defs>
  <style id="current-color-scheme" type="text/css">
   .ColorScheme-Text { color:#e6e6fa; } .ColorScheme-Highlight { color:#5294e2; }
  </style>
 </defs>
 <path style="fill:currentColor" class="ColorScheme-Text" d="m7 1.002v0.0019h-4v2h4v11.998h2v-11.998l4-0.0001v-2h-4v-0.0019h-2z" transform="translate(3 3)"/>
</svg>
