<svg xmlns="http://www.w3.org/2000/svg" width="22" height="22" viewBox="0 0 22 22">
 <defs>
  <style id="current-color-scheme" type="text/css">
   .ColorScheme-Text { color:#e6e6fa; } .ColorScheme-Highlight { color:#5294e2; }
  </style>
 </defs>
 <path style="fill:currentColor" class="ColorScheme-Text" d="M 1 0.98046875 L 1 14.980469 L 15 14.980469 L 15 0.98046875 L 1 0.98046875 z M 3 2.9804688 L 13 2.9804688 L 13 12.980469 L 3 12.980469 L 3 8.9804688 L 6.2773438 8.9804688 C 6.6236938 9.5761187 7.261325 9.9804688 8 9.9804688 C 9.1046 9.9804688 10 9.0850688 10 7.9804688 C 10 6.8758687 9.1046 5.9804688 8 5.9804688 C 7.261325 5.9804688 6.6236937 6.3848188 6.2773438 6.9804688 L 3 6.9804688 L 3 2.9804688 z" transform="translate(3 3)"/>
</svg>
