<svg xmlns="http://www.w3.org/2000/svg" width="22" height="22" viewBox="0 0 22 22">
 <defs>
  <style id="current-color-scheme" type="text/css">
   .ColorScheme-Text { color:#e6e6fa; } .ColorScheme-Highlight { color:#5294e2; }
  </style>
 </defs>
 <path style="fill:currentColor" class="ColorScheme-Text" d="M 12.949219 1.6367188 L 11.074219 3.5117188 C 10.462219 3.2932187 9.8274813 3.1346125 9.1757812 3.0703125 C 8.7858812 3.0248125 8.3925 3.0039063 8 3.0039062 C 6.4492 3.0190062 4.8879094 3.3732719 3.5371094 4.1386719 C 2.9987094 4.4892719 2.3524344 4.9422375 1.8652344 5.3984375 C 1.0987344 6.1489375 0.4427 7.0244062 0 8.0039062 C 0.65287 9.4438062 1.7335687 10.664969 3.0429688 11.542969 L 1.6367188 12.949219 L 3.0507812 14.363281 L 4.9199219 12.494141 C 5.5340219 12.714141 6.1706187 12.8725 6.8242188 12.9375 C 8.7516187 13.1555 10.768891 12.823141 12.462891 11.869141 C 13.000891 11.519141 13.647766 11.066375 14.134766 10.609375 C 14.900766 9.859375 15.557 8.9834063 16 8.0039062 C 15.346 6.5625063 14.264125 5.3391375 12.953125 4.4609375 L 14.363281 3.0507812 L 12.949219 1.6367188 z M 8 5.0039062 C 8.4529 4.9939063 8.88595 5.1100875 9.28125 5.3046875 L 5.3125 9.2734375 C 4.9908 8.6067375 4.8873187 7.8375875 5.1367188 7.1171875 C 5.5059188 5.8877875 6.7125 4.9886063 8 5.0039062 z M 10.695312 6.71875 C 10.891312 7.11575 11.009 7.5513062 11 8.0039062 C 11.052 9.7703062 9.2909813 11.294844 7.5507812 10.964844 C 7.2514813 10.929844 6.9753906 10.828172 6.7128906 10.701172 L 8.6445312 8.7675781 A 1 1 0 0 0 8.6796875 8.734375 L 8.7167969 8.6992188 A 1 1 0 0 0 8.734375 8.6796875 L 10.695312 6.71875 z" transform="translate(3 3)"/>
</svg>
