<svg xmlns="http://www.w3.org/2000/svg" width="22" height="22" version="1.1" viewBox="0 0 22 22">
 <defs>
  <style id="current-color-scheme" type="text/css">
   .ColorScheme-Text { color:#e6e6fa; } .ColorScheme-Highlight { color:#5294e2; }
  </style>
 </defs>
 <path style="fill:currentColor" class="ColorScheme-Text" d="m 13,3 c 0.004,0.003 0,1.3332999 0,2.0000001 H 9.9999999 V 10 H 13 v 2 L 18.5,7.5 Z M 8.9999999,9 3.5,13.5 9,18 C 8.996,17.997 9,16.6667 9,16 h 3 V 11 H 9 Z"/>
</svg>
