<svg xmlns="http://www.w3.org/2000/svg" width="22" height="22" viewBox="0 0 22 22">
 <defs>
  <style id="current-color-scheme" type="text/css">
   .ColorScheme-Text { color:#e6e6fa; } .ColorScheme-Highlight { color:#5294e2; }
  </style>
 </defs>
 <path style="fill:currentColor" class="ColorScheme-Text" d="M 7.9804688 0.001953125 L 7.9804688 2.0019531 C 4.6667688 2.0019531 1.9804688 4.6882531 1.9804688 8.0019531 C 1.9804688 11.315653 4.6667688 14.001953 7.9804688 14.001953 C 11.260569 14.001953 13.920809 11.368762 13.974609 8.1015625 A 1 1 0 0 0 13.980469 8.0019531 A 1 1 0 0 0 12.980469 7.0019531 A 1 1 0 0 0 11.980469 8.0019531 C 11.980469 10.211053 10.189569 12.001953 7.9804688 12.001953 C 5.7713688 12.001953 3.9804688 10.211053 3.9804688 8.0019531 C 3.9804688 5.7928531 5.7713688 4.0019531 7.9804688 4.0019531 L 7.9804688 6.0019531 L 11.980469 3.0019531 L 7.9804688 0.001953125 z" transform="translate(3 3)"/>
</svg>
