<svg xmlns="http://www.w3.org/2000/svg" width="22" height="22" viewBox="0 0 22 22">
 <defs>
  <style id="current-color-scheme" type="text/css">
   .ColorScheme-Text { color:#e6e6fa; } .ColorScheme-Highlight { color:#5294e2; }
  </style>
 </defs>
 <path style="fill:currentColor" class="ColorScheme-Text" d="M 3.21875 2 C 2.54885 2 2 2.5248 2 3.1875 L 2 7 L 4 7 L 4 4 L 7 4 L 7 2 L 3.21875 2 z M 9 2 L 9 4 L 12 4 L 12 7 L 14 7 L 14 3.1875 C 14 2.5248 13.45125 2 12.78125 2 L 9 2 z M 8 5 L 8 7 L 5 7 L 5 9 L 8 9 L 8 11 L 11 8 L 8 5 z M 2 9 L 2 12.8125 C 2 13.4755 2.54895 14 3.21875 14 L 7 14 L 7 12 L 4 12 L 4 9 L 2 9 z M 12 9 L 12 12 L 9 12 L 9 14 L 12.78125 14 C 13.45125 14 14 13.4755 14 12.8125 L 14 9 L 12 9 z" transform="translate(3 3)"/>
</svg>
