<svg xmlns="http://www.w3.org/2000/svg" width="16" height="16" version="1.1" viewBox="0 0 16 16" style="isolation:isolate">
<defs>
  <style id="current-color-scheme" type="text/css">
   .ColorScheme-Text { color:#e6e6fa; } .ColorScheme-Highlight { color:#5294e2; }
  </style>
  <linearGradient id="arrongin" x1="0%" x2="0%" y1="0%" y2="100%">
   <stop offset="0%" style="stop-color:#dd9b44; stop-opacity:1"/>
   <stop offset="100%" style="stop-color:#ad6c16; stop-opacity:1"/>
  </linearGradient>
  <linearGradient id="aurora" x1="0%" x2="0%" y1="0%" y2="100%">
   <stop offset="0%" style="stop-color:#09D4DF; stop-opacity:1"/>
   <stop offset="100%" style="stop-color:#9269F4; stop-opacity:1"/>
  </linearGradient>
  <linearGradient id="fitdance" x1="0%" x2="0%" y1="0%" y2="100%">
   <stop offset="0%" style="stop-color:#1AD6AB; stop-opacity:1"/>
   <stop offset="100%" style="stop-color:#329DB6; stop-opacity:1"/>
  </linearGradient>
  <linearGradient id="oomox" x1="0%" x2="0%" y1="0%" y2="100%">
   <stop offset="0%" style="stop-color:#efefe7; stop-opacity:1"/>
   <stop offset="100%" style="stop-color:#8f8f8b; stop-opacity:1"/>
  </linearGradient>
  <linearGradient id="rainblue" x1="0%" x2="0%" y1="0%" y2="100%">
   <stop offset="0%" style="stop-color:#00F260; stop-opacity:1"/>
   <stop offset="100%" style="stop-color:#0575E6; stop-opacity:1"/>
  </linearGradient>
  <linearGradient id="sunrise" x1="0%" x2="0%" y1="0%" y2="100%">
   <stop offset="0%" style="stop-color: #FF8501; stop-opacity:1"/>
   <stop offset="100%" style="stop-color: #FFCB01; stop-opacity:1"/>
  </linearGradient>
  <linearGradient id="telinkrin" x1="0%" x2="0%" y1="0%" y2="100%">
   <stop offset="0%" style="stop-color: #b2ced6; stop-opacity:1"/>
   <stop offset="100%" style="stop-color: #6da5b7; stop-opacity:1"/>
  </linearGradient>
  <linearGradient id="60spsycho" x1="0%" x2="0%" y1="0%" y2="100%">
   <stop offset="0%" style="stop-color: #df5940; stop-opacity:1"/>
   <stop offset="25%" style="stop-color: #d8d15f; stop-opacity:1"/>
   <stop offset="50%" style="stop-color: #e9882a; stop-opacity:1"/>
   <stop offset="100%" style="stop-color: #279362; stop-opacity:1"/>
  </linearGradient>
  <linearGradient id="90ssummer" x1="0%" x2="0%" y1="0%" y2="100%">
   <stop offset="0%" style="stop-color: #f618c7; stop-opacity:1"/>
   <stop offset="20%" style="stop-color: #94ffab; stop-opacity:1"/>
   <stop offset="50%" style="stop-color: #fbfd54; stop-opacity:1"/>
   <stop offset="100%" style="stop-color: #0f83ae; stop-opacity:1"/>
  </linearGradient>
  <linearGradient id="cyberneon" x1="0%" x2="0%" y1="0%" y2="100%">
    <stop offset="0" style="stop-color:#0abdc6; stop-opacity:1"/>
    <stop offset="1" style="stop-color:#ea00d9; stop-opacity:1"/>
  </linearGradient>
 </defs>
 <path style="fill:currentColor" class="ColorScheme-Text" d="M 5.333331 0.66667 C 4.466665 0.66667 3.734665 1.22667 3.457998 2.000003 L 2.708666 2.000003 L 0.23 9.999999 C 0.077668 10.428025 -0.000126 10.879007 0 11.333332 C 0 13.53333 1.799999 15.33333 3.999998 15.33333 C 5.465026 15.330568 6.813117 14.532844 7.520663 13.249997 C 7.66933 13.307331 7.830663 13.333331 7.999996 13.333331 C 8.169329 13.333331 8.330663 13.306664 8.479329 13.249997 C 9.186876 14.532844 10.534966 15.330568 11.999994 15.33333 C 14.199993 15.33333 15.999992 13.53333 15.999992 11.333332 C 16.001367 10.6302 15.814204 9.939558 15.457993 9.333333 L 13.291327 2.000003 L 12.541328 2.000003 C 12.261151 1.203935 11.510587 0.670106 10.666662 0.66667 C 9.799995 0.66667 9.067996 1.22667 8.791329 2.000003 L 7.208663 2.000003 C 6.928405 1.203706 6.177501 0.669825 5.333331 0.66667 Z M 3.999998 8.666666 C 5.481997 8.666666 6.666664 9.851333 6.666664 11.333332 C 6.666664 12.815331 5.481997 13.999997 3.999998 13.999997 C 2.517999 13.999997 1.333333 12.815331 1.333333 11.333332 C 1.333333 9.851333 2.517999 8.666666 3.999998 8.666666 Z M 11.999994 8.666666 C 13.481993 8.666666 14.66666 9.851333 14.66666 11.333332 C 14.66666 12.815331 13.481993 13.999997 11.999994 13.999997 C 10.517995 13.999997 9.333329 12.815331 9.333329 11.333332 C 9.333329 9.851333 10.517995 8.666666 11.999994 8.666666 Z"/>
</svg>
