<svg xmlns="http://www.w3.org/2000/svg" style="isolation:isolate" width="16" height="16" viewBox="0 0 16 16">
 <defs>
  <style id="current-color-scheme" type="text/css">
   .ColorScheme-Text { color:#e6e6fa; } .ColorScheme-Highlight { color:#5294e2; }
  </style>
  <linearGradient id="arrongin" x1="0%" x2="0%" y1="0%" y2="100%">
   <stop offset="0%" style="stop-color:#dd9b44; stop-opacity:1"/>
   <stop offset="100%" style="stop-color:#ad6c16; stop-opacity:1"/>
  </linearGradient>
  <linearGradient id="aurora" x1="0%" x2="0%" y1="0%" y2="100%">
   <stop offset="0%" style="stop-color:#09D4DF; stop-opacity:1"/>
   <stop offset="100%" style="stop-color:#9269F4; stop-opacity:1"/>
  </linearGradient>
  <linearGradient id="fitdance" x1="0%" x2="0%" y1="0%" y2="100%">
   <stop offset="0%" style="stop-color:#1AD6AB; stop-opacity:1"/>
   <stop offset="100%" style="stop-color:#329DB6; stop-opacity:1"/>
  </linearGradient>
  <linearGradient id="oomox" x1="0%" x2="0%" y1="0%" y2="100%">
   <stop offset="0%" style="stop-color:#efefe7; stop-opacity:1"/>
   <stop offset="100%" style="stop-color:#8f8f8b; stop-opacity:1"/>
  </linearGradient>
  <linearGradient id="rainblue" x1="0%" x2="0%" y1="0%" y2="100%">
   <stop offset="0%" style="stop-color:#00F260; stop-opacity:1"/>
   <stop offset="100%" style="stop-color:#0575E6; stop-opacity:1"/>
  </linearGradient>
  <linearGradient id="sunrise" x1="0%" x2="0%" y1="0%" y2="100%">
   <stop offset="0%" style="stop-color: #FF8501; stop-opacity:1"/>
   <stop offset="100%" style="stop-color: #FFCB01; stop-opacity:1"/>
  </linearGradient>
  <linearGradient id="telinkrin" x1="0%" x2="0%" y1="0%" y2="100%">
   <stop offset="0%" style="stop-color: #b2ced6; stop-opacity:1"/>
   <stop offset="100%" style="stop-color: #6da5b7; stop-opacity:1"/>
  </linearGradient>
  <linearGradient id="60spsycho" x1="0%" x2="0%" y1="0%" y2="100%">
   <stop offset="0%" style="stop-color: #df5940; stop-opacity:1"/>
   <stop offset="25%" style="stop-color: #d8d15f; stop-opacity:1"/>
   <stop offset="50%" style="stop-color: #e9882a; stop-opacity:1"/>
   <stop offset="100%" style="stop-color: #279362; stop-opacity:1"/>
  </linearGradient>
  <linearGradient id="90ssummer" x1="0%" x2="0%" y1="0%" y2="100%">
   <stop offset="0%" style="stop-color: #f618c7; stop-opacity:1"/>
   <stop offset="20%" style="stop-color: #94ffab; stop-opacity:1"/>
   <stop offset="50%" style="stop-color: #fbfd54; stop-opacity:1"/>
   <stop offset="100%" style="stop-color: #0f83ae; stop-opacity:1"/>
  </linearGradient>
  <linearGradient id="cyberneon" x1="0%" x2="0%" y1="0%" y2="100%">
    <stop offset="0" style="stop-color:#0abdc6; stop-opacity:1"/>
    <stop offset="1" style="stop-color:#ea00d9; stop-opacity:1"/>
  </linearGradient>
 </defs>
 <path style="fill:currentColor" class="ColorScheme-Text" fill-rule="evenodd" d="M 12.501 13.959 C 12.633 13.863 12.687 13.436 12.662 12.696 C 12.638 11.993 12.576 11.708 12.428 11.621 C 12.359 11.581 12.326 11.595 12.237 11.702 C 12.075 11.897 11.802 12.629 11.797 12.884 C 11.796 12.913 11.856 12.877 11.931 12.805 C 12.026 12.712 12.111 12.673 12.22 12.673 C 12.361 12.673 12.384 12.694 12.483 12.905 C 12.608 13.17 12.603 13.527 12.472 13.654 C 12.315 13.807 11.834 13.696 11.782 13.495 C 11.77 13.451 11.768 13.483 11.776 13.566 C 11.795 13.755 11.864 13.836 12.096 13.939 C 12.316 14.036 12.392 14.04 12.501 13.959 L 12.501 13.959 L 12.501 13.959 L 12.501 13.959 L 12.501 13.959 L 12.501 13.959 Z M 9.453 13.523 C 9.774 13.381 9.72 12.763 9.387 12.763 C 9.227 12.763 8.975 13.043 8.976 13.22 C 8.977 13.392 9.006 13.447 9.137 13.519 C 9.255 13.584 9.314 13.585 9.453 13.523 L 9.453 13.523 L 9.453 13.523 L 9.453 13.523 Z M 9.782 12.268 C 9.883 12.268 9.9 12.288 9.9 12.407 C 9.9 12.507 9.874 12.553 9.811 12.569 C 9.73 12.59 9.728 12.603 9.788 12.743 C 9.868 12.929 9.874 13.39 9.798 13.551 C 9.696 13.77 9.319 13.879 8.998 13.782 C 8.776 13.716 8.699 13.588 8.698 13.283 C 8.697 12.739 9.198 12.268 9.782 12.268 L 9.782 12.268 L 9.782 12.268 L 9.782 12.268 L 9.782 12.268 L 9.782 12.268 L 9.782 12.268 L 9.782 12.268 L 9.782 12.268 L 9.782 12.268 Z M 9.313 11.209 C 9.252 11.208 9.19 11.214 9.129 11.226 C 8.616 11.327 8.007 11.698 7.682 12.109 C 7.441 12.412 7.309 12.766 7.277 13.192 L 7.253 13.509 L 7.496 13.767 C 7.906 14.203 8.335 14.341 9.206 14.319 C 9.595 14.309 9.73 14.288 9.884 14.211 C 10.142 14.081 10.254 13.931 10.319 13.629 C 10.387 13.308 10.351 12.284 10.261 11.973 C 10.129 11.518 9.737 11.213 9.313 11.209 L 9.313 11.209 L 9.313 11.209 L 9.313 11.209 L 9.313 11.209 L 9.313 11.209 L 9.313 11.209 L 9.313 11.209 L 9.313 11.209 L 9.313 11.209 Z M 7.495 15.91 C 7.444 15.861 7.402 15.788 7.402 15.748 C 7.402 15.696 7.38 15.686 7.321 15.711 C 7.277 15.73 7.06 15.755 6.839 15.765 L 6.438 15.784 L 6.365 15.646 C 6.299 15.523 6.278 15.513 6.173 15.552 C 5.885 15.658 5.599 15.575 5.599 15.385 C 5.599 15.268 5.598 15.268 5.303 15.298 C 5.134 15.315 4.955 15.308 4.884 15.282 C 4.78 15.243 4.763 15.213 4.775 15.09 L 4.789 14.944 L 4.507 14.922 C 4.177 14.895 4.061 14.823 4.101 14.669 C 4.126 14.572 4.114 14.562 3.974 14.561 C 3.781 14.558 3.661 14.474 3.615 14.308 C 3.586 14.203 3.558 14.182 3.459 14.194 C 3.271 14.215 3.17 14.028 3.18 13.677 C 3.188 13.395 3.166 13.348 3.07 13.441 C 3.042 13.468 2.97 13.484 2.91 13.475 C 2.771 13.456 2.74 13.236 2.841 12.989 C 2.923 12.791 2.905 12.759 2.735 12.792 C 2.511 12.835 2.457 12.677 2.573 12.317 C 2.603 12.223 2.596 12.213 2.519 12.244 C 2.335 12.317 2.293 12.296 2.278 12.126 C 2.269 12.023 2.3 11.891 2.36 11.777 C 2.459 11.588 2.455 11.579 2.281 11.592 C 2.112 11.606 2.106 11.476 2.263 11.23 C 2.343 11.105 2.408 10.988 2.408 10.969 C 2.408 10.95 2.356 10.911 2.292 10.883 C 2.145 10.818 2.146 10.72 2.297 10.509 C 2.424 10.33 2.414 10.245 2.265 10.245 C 2.071 10.245 2.094 9.999 2.312 9.732 C 2.422 9.598 2.445 9.534 2.424 9.421 C 2.41 9.343 2.358 9.245 2.31 9.204 C 2.262 9.163 2.223 9.091 2.223 9.044 C 2.223 8.953 2.409 8.762 2.581 8.676 C 2.704 8.614 2.713 8.529 2.611 8.378 C 2.542 8.276 2.542 8.258 2.613 8.153 C 2.655 8.09 2.759 8.007 2.843 7.968 C 2.927 7.929 3.032 7.837 3.076 7.764 C 3.153 7.638 3.153 7.628 3.073 7.542 C 2.941 7.4 3.061 7.24 3.378 7.135 C 3.708 7.026 3.791 6.949 3.711 6.825 C 3.595 6.644 3.713 6.528 4.096 6.446 C 4.298 6.403 4.35 6.344 4.32 6.196 C 4.297 6.087 4.313 6.058 4.419 6.011 C 4.53 5.962 4.541 5.938 4.517 5.796 C 4.448 5.402 4.434 5.175 4.476 5.15 C 4.501 5.135 4.586 5.146 4.665 5.175 C 4.744 5.204 4.821 5.217 4.835 5.203 C 4.849 5.189 4.837 5.024 4.808 4.836 C 4.779 4.647 4.769 4.422 4.786 4.334 C 4.814 4.189 4.83 4.176 4.977 4.176 C 5.162 4.176 5.156 4.199 5.068 3.793 C 4.979 3.386 4.98 3.338 5.084 3.237 C 5.253 3.073 5.28 2.662 5.161 2.06 C 5.064 1.566 5.087 1.298 5.228 1.298 C 5.275 1.298 5.355 1.349 5.405 1.41 C 5.51 1.54 5.577 1.553 5.617 1.452 C 5.669 1.319 5.646 1.206 5.512 0.948 C 5.364 0.662 5.229 0.258 5.229 0.098 C 5.229 -0.062 5.335 -0.029 5.611 0.216 C 5.872 0.448 6.087 0.794 6.222 1.196 C 6.348 1.577 6.427 1.511 6.456 1.003 C 6.475 0.657 6.497 0.578 6.572 0.578 C 6.658 0.578 6.756 0.854 6.851 1.372 C 6.937 1.836 6.946 1.996 6.918 2.609 C 6.9 2.996 6.9 3.36 6.919 3.416 L 6.952 3.519 L 7.059 3.389 L 7.165 3.259 L 7.198 3.387 C 7.216 3.456 7.22 3.829 7.207 4.215 C 7.194 4.601 7.193 4.942 7.205 4.973 C 7.257 5.115 7.512 4.977 7.548 4.787 C 7.581 4.616 7.704 4.598 7.914 4.734 C 8.022 4.803 8.175 4.878 8.253 4.9 C 8.375 4.934 8.408 4.924 8.475 4.839 C 8.548 4.745 8.564 4.742 8.706 4.799 C 8.995 4.913 9.046 4.896 9.033 4.687 C 9.025 4.565 9.045 4.482 9.091 4.445 C 9.131 4.413 9.161 4.31 9.163 4.204 C 9.165 4.101 9.182 3.979 9.202 3.931 C 9.224 3.875 9.182 3.693 9.083 3.414 C 8.83 2.708 8.896 2.258 9.206 2.579 C 9.359 2.737 9.438 2.723 9.438 2.538 C 9.438 2.439 9.339 2.199 9.16 1.86 C 8.784 1.148 8.787 0.968 9.17 1.204 C 9.433 1.366 9.687 1.658 9.923 2.07 C 10.181 2.519 10.245 2.526 10.212 2.1 C 10.169 1.547 10.322 1.447 10.547 1.882 C 10.768 2.307 10.826 2.6 10.875 3.545 C 10.901 4.027 10.94 4.44 10.963 4.463 C 10.988 4.487 11.038 4.437 11.086 4.338 C 11.241 4.021 11.319 4.204 11.36 4.985 C 11.395 5.638 11.391 5.628 11.546 5.559 C 11.654 5.511 11.678 5.517 11.755 5.609 C 11.803 5.667 11.842 5.77 11.842 5.838 C 11.842 6.03 11.956 6.097 12.119 6.004 C 12.238 5.936 12.258 5.935 12.322 5.997 C 12.362 6.035 12.406 6.142 12.422 6.234 C 12.464 6.49 12.526 6.603 12.622 6.603 C 12.743 6.603 12.804 6.688 12.839 6.903 C 12.884 7.175 12.927 7.224 13.035 7.129 C 13.237 6.951 13.371 7.177 13.255 7.497 C 13.216 7.605 13.183 7.703 13.183 7.713 C 13.183 7.724 13.277 7.719 13.392 7.703 C 13.587 7.674 13.6 7.679 13.6 7.775 C 13.6 7.831 13.568 7.911 13.53 7.953 C 13.422 8.069 13.487 8.312 13.627 8.312 C 13.689 8.312 13.757 8.351 13.786 8.404 C 13.827 8.478 13.814 8.536 13.718 8.702 C 13.571 8.957 13.571 8.968 13.723 9.04 C 13.893 9.12 13.901 9.177 13.763 9.336 C 13.622 9.499 13.616 9.553 13.738 9.584 C 13.843 9.61 13.866 9.789 13.777 9.876 C 13.735 9.916 13.742 9.95 13.807 10.02 C 13.877 10.095 13.883 10.13 13.839 10.224 C 13.81 10.286 13.734 10.36 13.67 10.388 C 13.537 10.447 13.521 10.523 13.625 10.606 C 13.679 10.65 13.688 10.712 13.665 10.87 C 13.63 11.108 13.577 11.189 13.458 11.189 C 13.329 11.189 13.314 11.257 13.415 11.382 C 13.574 11.578 13.494 11.75 13.291 11.649 C 13.185 11.595 13.091 11.626 13.091 11.713 C 13.091 11.75 13.145 11.869 13.21 11.978 C 13.356 12.22 13.346 12.375 13.183 12.396 C 13.003 12.42 12.979 12.475 13.085 12.62 C 13.212 12.793 13.214 12.972 13.091 13.01 C 12.973 13.047 12.974 13.143 13.094 13.307 C 13.211 13.466 13.195 13.59 13.056 13.609 C 12.927 13.627 12.925 13.67 13.049 13.779 C 13.23 13.938 13.252 14.027 13.133 14.115 C 13.038 14.185 13.032 14.207 13.082 14.312 C 13.203 14.572 13.118 14.828 12.941 14.736 C 12.835 14.681 12.844 14.671 12.775 14.906 C 12.733 15.049 12.688 15.103 12.585 15.138 C 12.501 15.167 12.445 15.221 12.436 15.284 C 12.412 15.437 12.283 15.496 12.177 15.403 C 12.054 15.295 12.039 15.303 12.004 15.507 C 11.974 15.679 11.881 15.821 11.796 15.821 C 11.774 15.821 11.714 15.768 11.661 15.703 C 11.554 15.57 11.441 15.584 11.418 15.735 C 11.41 15.789 11.366 15.856 11.321 15.883 C 11.254 15.924 11.22 15.909 11.129 15.798 L 11.017 15.663 L 10.884 15.787 C 10.736 15.924 10.605 15.947 10.564 15.843 C 10.527 15.748 10.466 15.759 10.308 15.888 C 10.233 15.949 10.141 16 10.103 16 C 10.067 16 10.017 15.949 9.993 15.888 C 9.968 15.826 9.94 15.775 9.93 15.775 C 9.92 15.775 9.791 15.827 9.645 15.89 C 9.332 16.024 9.156 16.02 9.091 15.876 C 9.061 15.809 9.021 15.784 8.975 15.803 C 8.624 15.951 8.51 15.975 8.419 15.92 C 8.343 15.874 8.276 15.876 8.054 15.932 C 7.697 16.021 7.606 16.018 7.495 15.91 L 7.495 15.91 L 7.495 15.91 L 7.495 15.91 L 7.495 15.91 L 7.495 15.91 L 7.495 15.91 L 7.495 15.91 Z M 12.324 13.457 C 12.428 13.356 12.414 13.192 12.29 13.052 C 12.152 12.896 11.998 12.933 11.942 13.137 C 11.882 13.357 11.96 13.528 12.121 13.528 C 12.193 13.528 12.284 13.496 12.324 13.457 L 12.324 13.457 Z"/>
</svg>
