<svg xmlns="http://www.w3.org/2000/svg" style="isolation:isolate" width="16" height="16" viewBox="0 0 16 16">
 <defs>
  <style id="current-color-scheme" type="text/css">
   .ColorScheme-Text { color:#e6e6fa; } .ColorScheme-Highlight { color:#5294e2; }
  </style>
  <linearGradient id="arrongin" x1="0%" x2="0%" y1="0%" y2="100%">
   <stop offset="0%" style="stop-color:#dd9b44; stop-opacity:1"/>
   <stop offset="100%" style="stop-color:#ad6c16; stop-opacity:1"/>
  </linearGradient>
  <linearGradient id="aurora" x1="0%" x2="0%" y1="0%" y2="100%">
   <stop offset="0%" style="stop-color:#09D4DF; stop-opacity:1"/>
   <stop offset="100%" style="stop-color:#9269F4; stop-opacity:1"/>
  </linearGradient>
  <linearGradient id="fitdance" x1="0%" x2="0%" y1="0%" y2="100%">
   <stop offset="0%" style="stop-color:#1AD6AB; stop-opacity:1"/>
   <stop offset="100%" style="stop-color:#329DB6; stop-opacity:1"/>
  </linearGradient>
  <linearGradient id="oomox" x1="0%" x2="0%" y1="0%" y2="100%">
   <stop offset="0%" style="stop-color:#efefe7; stop-opacity:1"/>
   <stop offset="100%" style="stop-color:#8f8f8b; stop-opacity:1"/>
  </linearGradient>
  <linearGradient id="rainblue" x1="0%" x2="0%" y1="0%" y2="100%">
   <stop offset="0%" style="stop-color:#00F260; stop-opacity:1"/>
   <stop offset="100%" style="stop-color:#0575E6; stop-opacity:1"/>
  </linearGradient>
  <linearGradient id="sunrise" x1="0%" x2="0%" y1="0%" y2="100%">
   <stop offset="0%" style="stop-color: #FF8501; stop-opacity:1"/>
   <stop offset="100%" style="stop-color: #FFCB01; stop-opacity:1"/>
  </linearGradient>
  <linearGradient id="telinkrin" x1="0%" x2="0%" y1="0%" y2="100%">
   <stop offset="0%" style="stop-color: #b2ced6; stop-opacity:1"/>
   <stop offset="100%" style="stop-color: #6da5b7; stop-opacity:1"/>
  </linearGradient>
  <linearGradient id="60spsycho" x1="0%" x2="0%" y1="0%" y2="100%">
   <stop offset="0%" style="stop-color: #df5940; stop-opacity:1"/>
   <stop offset="25%" style="stop-color: #d8d15f; stop-opacity:1"/>
   <stop offset="50%" style="stop-color: #e9882a; stop-opacity:1"/>
   <stop offset="100%" style="stop-color: #279362; stop-opacity:1"/>
  </linearGradient>
  <linearGradient id="90ssummer" x1="0%" x2="0%" y1="0%" y2="100%">
   <stop offset="0%" style="stop-color: #f618c7; stop-opacity:1"/>
   <stop offset="20%" style="stop-color: #94ffab; stop-opacity:1"/>
   <stop offset="50%" style="stop-color: #fbfd54; stop-opacity:1"/>
   <stop offset="100%" style="stop-color: #0f83ae; stop-opacity:1"/>
  </linearGradient>
  <linearGradient id="cyberneon" x1="0%" x2="0%" y1="0%" y2="100%">
    <stop offset="0" style="stop-color:#0abdc6; stop-opacity:1"/>
    <stop offset="1" style="stop-color:#ea00d9; stop-opacity:1"/>
  </linearGradient>
 </defs>
 <path style="fill:currentColor" class="ColorScheme-Text" fill-rule="evenodd" d="M 5.6 8 L 2.4 8 L 2.4 1.6 L 5.6 1.6 L 5.6 8 L 5.6 8 L 5.6 8 L 5.6 8 Z M 3.2 12.8 C 3.2 12.358 3.558 12 4 12 C 4.442 12 4.8 12.358 4.8 12.8 C 4.8 13.242 4.442 13.6 4 13.6 C 3.558 13.6 3.2 13.242 3.2 12.8 L 3.2 12.8 L 3.2 12.8 Z M 12 14.4 C 11.42 14.413 10.878 14.111 10.584 13.611 C 10.29 13.111 10.29 12.491 10.584 11.99 C 10.878 11.49 11.419 11.188 11.999 11.201 C 12.869 11.22 13.564 11.93 13.564 12.8 C 13.564 13.67 12.869 14.38 12 14.4 L 12 14.4 L 12 14.4 Z M 13.6 8 L 10.4 8 L 10.4 1.6 L 13.6 1.6 L 13.6 8 L 13.6 8 L 13.6 8 Z M 4 14.4 C 3.42 14.413 2.878 14.111 2.584 13.611 C 2.29 13.111 2.29 12.491 2.584 11.99 C 2.878 11.49 3.419 11.188 3.999 11.201 C 4.869 11.22 5.564 11.93 5.564 12.8 C 5.564 13.67 4.869 14.38 4 14.4 L 4 14.4 L 4 14.4 L 4 14.4 Z M 13.6 0 L 10.4 0 C 9.516 0 8.8 0.716 8.8 1.6 L 8.8 14.4 C 8.8 15.284 9.516 16 10.4 16 L 13.6 16 C 14.484 16 15.2 15.284 15.2 14.4 L 15.2 1.6 C 15.2 0.716 14.484 0 13.6 0 L 13.6 0 L 13.6 0 Z M 5.6 0 L 2.4 0 C 1.516 0 0.8 0.716 0.8 1.6 L 0.8 14.4 C 0.8 15.284 1.516 16 2.4 16 L 5.6 16 C 6.484 16 7.2 15.284 7.2 14.4 L 7.2 1.6 C 7.2 0.716 6.484 0 5.6 0 L 5.6 0 L 5.6 0 L 5.6 0 Z M 11.2 12.8 C 11.2 12.358 11.558 12 12 12 C 12.442 12 12.8 12.358 12.8 12.8 C 12.8 13.242 12.442 13.6 12 13.6 C 11.558 13.6 11.2 13.242 11.2 12.8 Z"/>
</svg>
