<svg xmlns="http://www.w3.org/2000/svg" style="isolation:isolate" width="16" height="16" viewBox="0 0 16 16">
 <defs>
  <style id="current-color-scheme" type="text/css">
   .ColorScheme-Text { color:#e6e6fa; } .ColorScheme-Highlight { color:#5294e2; }
  </style>
  <linearGradient id="arrongin" x1="0%" x2="0%" y1="0%" y2="100%">
   <stop offset="0%" style="stop-color:#dd9b44; stop-opacity:1"/>
   <stop offset="100%" style="stop-color:#ad6c16; stop-opacity:1"/>
  </linearGradient>
  <linearGradient id="aurora" x1="0%" x2="0%" y1="0%" y2="100%">
   <stop offset="0%" style="stop-color:#09D4DF; stop-opacity:1"/>
   <stop offset="100%" style="stop-color:#9269F4; stop-opacity:1"/>
  </linearGradient>
  <linearGradient id="fitdance" x1="0%" x2="0%" y1="0%" y2="100%">
   <stop offset="0%" style="stop-color:#1AD6AB; stop-opacity:1"/>
   <stop offset="100%" style="stop-color:#329DB6; stop-opacity:1"/>
  </linearGradient>
  <linearGradient id="oomox" x1="0%" x2="0%" y1="0%" y2="100%">
   <stop offset="0%" style="stop-color:#efefe7; stop-opacity:1"/>
   <stop offset="100%" style="stop-color:#8f8f8b; stop-opacity:1"/>
  </linearGradient>
  <linearGradient id="rainblue" x1="0%" x2="0%" y1="0%" y2="100%">
   <stop offset="0%" style="stop-color:#00F260; stop-opacity:1"/>
   <stop offset="100%" style="stop-color:#0575E6; stop-opacity:1"/>
  </linearGradient>
  <linearGradient id="sunrise" x1="0%" x2="0%" y1="0%" y2="100%">
   <stop offset="0%" style="stop-color: #FF8501; stop-opacity:1"/>
   <stop offset="100%" style="stop-color: #FFCB01; stop-opacity:1"/>
  </linearGradient>
  <linearGradient id="telinkrin" x1="0%" x2="0%" y1="0%" y2="100%">
   <stop offset="0%" style="stop-color: #b2ced6; stop-opacity:1"/>
   <stop offset="100%" style="stop-color: #6da5b7; stop-opacity:1"/>
  </linearGradient>
  <linearGradient id="60spsycho" x1="0%" x2="0%" y1="0%" y2="100%">
   <stop offset="0%" style="stop-color: #df5940; stop-opacity:1"/>
   <stop offset="25%" style="stop-color: #d8d15f; stop-opacity:1"/>
   <stop offset="50%" style="stop-color: #e9882a; stop-opacity:1"/>
   <stop offset="100%" style="stop-color: #279362; stop-opacity:1"/>
  </linearGradient>
  <linearGradient id="90ssummer" x1="0%" x2="0%" y1="0%" y2="100%">
   <stop offset="0%" style="stop-color: #f618c7; stop-opacity:1"/>
   <stop offset="20%" style="stop-color: #94ffab; stop-opacity:1"/>
   <stop offset="50%" style="stop-color: #fbfd54; stop-opacity:1"/>
   <stop offset="100%" style="stop-color: #0f83ae; stop-opacity:1"/>
  </linearGradient>
  <linearGradient id="cyberneon" x1="0%" x2="0%" y1="0%" y2="100%">
    <stop offset="0" style="stop-color:#0abdc6; stop-opacity:1"/>
    <stop offset="1" style="stop-color:#ea00d9; stop-opacity:1"/>
  </linearGradient>
 </defs>
 <path style="fill:currentColor" class="ColorScheme-Text" d="M 14.476 0 C 13.696 0 13.066 0.589 12.976 1.345 C 11.988 1.536 11.327 2.253 10.881 3.024 C 9.982 2.558 9.005 2.286 8 2.286 C 6.995 2.286 6.018 2.558 5.119 3.024 C 4.893 2.696 4.574 2.443 4.202 2.298 C 3.848 2.16 3.451 2.128 3.024 2.095 C 2.93 1.345 2.299 0.762 1.524 0.762 C 0.683 0.762 0 1.445 0 2.286 C 0 3.126 0.683 3.81 1.524 3.81 C 2.149 3.81 2.711 3.427 2.941 2.845 C 3.35 2.878 3.692 2.921 3.929 3.012 C 4.144 3.095 4.307 3.21 4.452 3.417 C 2.304 4.834 0.762 7.412 0.762 10.166 C 0.762 13.762 3.536 16 8 16 C 12.464 16 15.238 13.762 15.238 10.166 C 15.238 7.406 13.692 4.822 11.536 3.405 C 11.9 2.761 12.374 2.244 13.072 2.095 C 13.301 2.67 13.857 3.047 14.476 3.048 C 15.317 3.048 16 2.365 16 1.524 C 16 0.683 15.317 0 14.476 0 Z M 8 6.095 C 9.473 6.095 10.667 7.289 10.667 8.762 C 10.667 10.235 9.473 11.429 8 11.429 C 6.527 11.429 5.333 10.235 5.333 8.762 C 5.333 7.289 6.527 6.095 8 6.095 Z M 8 7.619 C 7.352 7.619 6.857 8.114 6.857 8.762 C 6.857 9.41 7.352 9.905 8 9.905 C 8.648 9.905 9.143 9.41 9.143 8.762 L 9.143 8.69 C 9.067 8.729 8.992 8.762 8.917 8.762 C 8.65 8.762 8.453 8.576 8.453 8.309 C 8.453 8.119 8.574 7.957 8.726 7.881 C 8.536 7.73 8.267 7.619 8 7.619 Z M 10.786 12.643 C 10.938 12.63 11.084 12.71 11.155 12.845 C 11.253 13.031 11.186 13.271 11 13.369 C 10.944 13.399 9.6 14.095 8 14.095 C 6.4 14.095 5.056 13.399 5 13.369 C 4.814 13.271 4.747 13.031 4.845 12.845 C 4.892 12.757 4.973 12.69 5.069 12.661 C 5.165 12.632 5.269 12.643 5.357 12.69 C 5.37 12.698 6.595 13.333 8 13.333 C 9.413 13.333 10.631 12.696 10.643 12.69 C 10.687 12.665 10.736 12.649 10.786 12.643 Z"/>
</svg>
