<svg xmlns="http://www.w3.org/2000/svg" fill="none" width="16" height="16" viewBox="0 0 16 16">
 <defs>
  <style id="current-color-scheme" type="text/css">
   .ColorScheme-Text { color:#e6e6fa; } .ColorScheme-Highlight { color:#5294e2; }
  </style>
  <linearGradient id="arrongin" x1="0%" x2="0%" y1="0%" y2="100%">
   <stop offset="0%" style="stop-color:#dd9b44"/>
   <stop offset="100%" style="stop-color:#ad6c16"/>
  </linearGradient>
  <linearGradient id="aurora" x1="0%" x2="0%" y1="0%" y2="100%">
   <stop offset="0%" style="stop-color:#09D4DF"/>
   <stop offset="100%" style="stop-color:#9269F4"/>
  </linearGradient>
  <linearGradient id="fitdance" x1="0%" x2="0%" y1="0%" y2="100%">
   <stop offset="0%" style="stop-color:#1AD6AB"/>
   <stop offset="100%" style="stop-color:#329DB6"/>
  </linearGradient>
  <linearGradient id="oomox" x1="0%" x2="0%" y1="0%" y2="100%">
   <stop offset="0%" style="stop-color:#efefe7"/>
   <stop offset="100%" style="stop-color:#8f8f8b"/>
  </linearGradient>
  <linearGradient id="rainblue" x1="0%" x2="0%" y1="0%" y2="100%">
   <stop offset="0%" style="stop-color:#00F260"/>
   <stop offset="100%" style="stop-color:#0575E6"/>
  </linearGradient>
  <linearGradient id="sunrise" x1="0%" x2="0%" y1="0%" y2="100%">
   <stop offset="0%" style="stop-color:#FF8501"/>
   <stop offset="100%" style="stop-color:#FFCB01"/>
  </linearGradient>
  <linearGradient id="telinkrin" x1="0%" x2="0%" y1="0%" y2="100%">
   <stop offset="0%" style="stop-color:#b2ced6"/>
   <stop offset="100%" style="stop-color:#6da5b7"/>
  </linearGradient>
  <linearGradient id="60spsycho" x1="0%" x2="0%" y1="0%" y2="100%">
   <stop offset="0%" style="stop-color:#df5940"/>
   <stop offset="25%" style="stop-color:#d8d15f"/>
   <stop offset="50%" style="stop-color:#e9882a"/>
   <stop offset="100%" style="stop-color:#279362"/>
  </linearGradient>
  <linearGradient id="90ssummer" x1="0%" x2="0%" y1="0%" y2="100%">
   <stop offset="0%" style="stop-color:#f618c7"/>
   <stop offset="20%" style="stop-color:#94ffab"/>
   <stop offset="50%" style="stop-color:#fbfd54"/>
   <stop offset="100%" style="stop-color:#0f83ae"/>
  </linearGradient>
  <clipPath id="clip0">
   <rect fill="#fff" width="16" height="16"/>
  </clipPath>
 </defs>
 <g clip-path="url(#clip0)">
  <path fill="currentColor" class="ColorScheme-Text" d="M6.64766 1C5.31374 1 5.31326 1.8888 5.31022 2.77776C5.30094 3.32704 5.30334 4.4736 5.31374 6.16496C5.33022 8.86849 5.32526 9.71713 5.29294 9.83329C4.37134 9.73617 2.97726 9.36385 2.35358 8.87025C1.94606 8.54689 1.54158 8.25041 1.45566 8.21233C1.09774 8.05329 0.590058 8.15345 0.298858 8.44145C0.0975776 8.64065 0.0230176 8.81825 0.00541755 9.13761C-0.00818246 9.38177 -2.15388e-05 9.43953 0.0748585 9.60113C0.122059 9.70305 0.207498 9.83985 0.264138 9.90497C0.320939 9.97025 1.09694 10.9766 1.98894 12.1429C3.64078 14.3026 5.28414 15.1034 5.56734 15.184C5.74046 15.2335 14.6683 15.2349 14.8475 15.1858C14.9289 15.1635 15.0465 15.0885 15.1305 15.0053C15.2485 14.8885 15.2926 14.8032 15.3842 14.5208C15.6462 13.7127 15.9077 12.4834 15.9818 11.8003C16.0139 11.0067 15.9968 10.9766 15.9818 10.3334C15.9814 10.3213 15.9787 10.3107 15.9782 10.2987C15.9795 9.72705 15.983 9.24385 15.9782 9.00001C15.981 8.11105 15.9829 7.22225 14.6512 7.22225C13.4498 7.22225 13.3381 7.95041 13.3243 8.74481C13.3222 8.76625 13.3158 8.78769 13.3155 8.80913C13.316 8.59425 13.3181 8.24225 13.3155 8.11121C13.3182 7.22225 13.3185 6.33344 11.9869 6.33344C10.7933 6.33344 10.6749 7.05216 10.6598 7.84033C10.6563 7.84225 10.6529 7.84353 10.6494 7.84561C10.6494 7.84097 10.648 7.79777 10.6477 7.78833C10.6478 7.62849 10.6497 7.32865 10.6477 7.22225C10.6504 6.33329 10.6505 5.44448 9.31887 5.44448C8.30686 5.44448 8.06382 5.95888 8.00414 6.59552C8.00254 6.59584 7.98174 6.6008 7.98158 6.6008C7.96254 6.60768 7.97807 5.5208 7.97807 4.35088C7.97807 3.54944 7.98383 3.07328 7.97807 2.77792C7.98079 1.88893 7.98159 1.00013 6.64766 1.00013V1Z"/>
 </g>
</svg>
