<svg xmlns="http://www.w3.org/2000/svg" style="isolation:isolate" width="16" height="16" viewBox="0 0 16 16">
 <defs>
  <style id="current-color-scheme" type="text/css">
   .ColorScheme-Text { color:#e6e6fa; } .ColorScheme-Highlight { color:#5294e2; }
  </style>
  <linearGradient id="arrongin" x1="0%" x2="0%" y1="0%" y2="100%">
   <stop offset="0%" style="stop-color:#dd9b44; stop-opacity:1"/>
   <stop offset="100%" style="stop-color:#ad6c16; stop-opacity:1"/>
  </linearGradient>
  <linearGradient id="aurora" x1="0%" x2="0%" y1="0%" y2="100%">
   <stop offset="0%" style="stop-color:#09D4DF; stop-opacity:1"/>
   <stop offset="100%" style="stop-color:#9269F4; stop-opacity:1"/>
  </linearGradient>
  <linearGradient id="fitdance" x1="0%" x2="0%" y1="0%" y2="100%">
   <stop offset="0%" style="stop-color:#1AD6AB; stop-opacity:1"/>
   <stop offset="100%" style="stop-color:#329DB6; stop-opacity:1"/>
  </linearGradient>
  <linearGradient id="oomox" x1="0%" x2="0%" y1="0%" y2="100%">
   <stop offset="0%" style="stop-color:#efefe7; stop-opacity:1"/>
   <stop offset="100%" style="stop-color:#8f8f8b; stop-opacity:1"/>
  </linearGradient>
  <linearGradient id="rainblue" x1="0%" x2="0%" y1="0%" y2="100%">
   <stop offset="0%" style="stop-color:#00F260; stop-opacity:1"/>
   <stop offset="100%" style="stop-color:#0575E6; stop-opacity:1"/>
  </linearGradient>
  <linearGradient id="sunrise" x1="0%" x2="0%" y1="0%" y2="100%">
   <stop offset="0%" style="stop-color: #FF8501; stop-opacity:1"/>
   <stop offset="100%" style="stop-color: #FFCB01; stop-opacity:1"/>
  </linearGradient>
  <linearGradient id="telinkrin" x1="0%" x2="0%" y1="0%" y2="100%">
   <stop offset="0%" style="stop-color: #b2ced6; stop-opacity:1"/>
   <stop offset="100%" style="stop-color: #6da5b7; stop-opacity:1"/>
  </linearGradient>
  <linearGradient id="60spsycho" x1="0%" x2="0%" y1="0%" y2="100%">
   <stop offset="0%" style="stop-color: #df5940; stop-opacity:1"/>
   <stop offset="25%" style="stop-color: #d8d15f; stop-opacity:1"/>
   <stop offset="50%" style="stop-color: #e9882a; stop-opacity:1"/>
   <stop offset="100%" style="stop-color: #279362; stop-opacity:1"/>
  </linearGradient>
  <linearGradient id="90ssummer" x1="0%" x2="0%" y1="0%" y2="100%">
   <stop offset="0%" style="stop-color: #f618c7; stop-opacity:1"/>
   <stop offset="20%" style="stop-color: #94ffab; stop-opacity:1"/>
   <stop offset="50%" style="stop-color: #fbfd54; stop-opacity:1"/>
   <stop offset="100%" style="stop-color: #0f83ae; stop-opacity:1"/>
  </linearGradient>
  <linearGradient id="cyberneon" x1="0%" x2="0%" y1="0%" y2="100%">
    <stop offset="0" style="stop-color:#0abdc6; stop-opacity:1"/>
    <stop offset="1" style="stop-color:#ea00d9; stop-opacity:1"/>
  </linearGradient>
 </defs>
 <path style="fill:currentColor" class="ColorScheme-Text" fill-rule="evenodd" d="M 1.067 2.133 L 10.667 2.133 C 13.019 2.133 14.933 3.692 14.933 6.044 L 14.933 13.867 L 6.756 13.867 C 4.622 13.867 3.2 11.733 3.2 9.6 L 3.2 5.689 C 3.2 4.635 2.79 4.267 1.778 4.267 L 1.067 4.267 L 1.067 2.133 L 1.067 2.133 Z M 0 1.067 L 0 5.333 L 2.133 5.333 L 2.133 9.6 C 2.133 12.444 3.911 14.933 6.756 14.933 L 16 14.933 L 16 6.044 C 16 3.12 13.591 1.081 10.667 1.067 L 0 1.067 L 0 1.067 Z M 4.622 3.2 L 4.622 10.311 C 4.622 11.733 5.689 12.444 6.756 12.444 L 11.733 12.444 C 12.915 12.444 13.511 11.849 13.511 10.667 L 13.511 6.044 C 13.511 5.156 12.598 4.622 11.733 4.622 C 11.21 4.622 10.817 4.856 10.478 5.203 C 10.139 4.856 9.768 4.622 9.244 4.622 C 8.307 4.622 7.467 5.169 7.467 6.044 L 7.467 9.6 L 8.533 9.6 L 8.533 6.4 C 8.533 5.958 8.803 5.689 9.244 5.689 C 9.686 5.689 9.956 5.958 9.956 6.4 L 9.956 9.6 L 11.022 9.6 L 11.022 6.4 C 11.022 5.958 11.292 5.689 11.733 5.689 C 12.175 5.689 12.444 5.958 12.444 6.4 L 12.444 10.667 C 12.444 11.258 12.324 11.378 11.733 11.378 L 6.756 11.378 C 6.044 11.378 5.689 10.667 5.689 9.956 L 5.689 3.2 L 4.622 3.2 Z"/>
</svg>
