<svg xmlns="http://www.w3.org/2000/svg" width="16" height="16" version="1.1">
<defs>
  <style id="current-color-scheme" type="text/css">
   .ColorScheme-Text { color:#e6e6fa; } .ColorScheme-Highlight { color:#5294e2; }
  </style>
  <linearGradient id="arrongin" x1="0%" x2="0%" y1="0%" y2="100%">
   <stop offset="0%" style="stop-color:#dd9b44; stop-opacity:1"/>
   <stop offset="100%" style="stop-color:#ad6c16; stop-opacity:1"/>
  </linearGradient>
  <linearGradient id="aurora" x1="0%" x2="0%" y1="0%" y2="100%">
   <stop offset="0%" style="stop-color:#09D4DF; stop-opacity:1"/>
   <stop offset="100%" style="stop-color:#9269F4; stop-opacity:1"/>
  </linearGradient>
  <linearGradient id="fitdance" x1="0%" x2="0%" y1="0%" y2="100%">
   <stop offset="0%" style="stop-color:#1AD6AB; stop-opacity:1"/>
   <stop offset="100%" style="stop-color:#329DB6; stop-opacity:1"/>
  </linearGradient>
  <linearGradient id="oomox" x1="0%" x2="0%" y1="0%" y2="100%">
   <stop offset="0%" style="stop-color:#efefe7; stop-opacity:1"/>
   <stop offset="100%" style="stop-color:#8f8f8b; stop-opacity:1"/>
  </linearGradient>
  <linearGradient id="rainblue" x1="0%" x2="0%" y1="0%" y2="100%">
   <stop offset="0%" style="stop-color:#00F260; stop-opacity:1"/>
   <stop offset="100%" style="stop-color:#0575E6; stop-opacity:1"/>
  </linearGradient>
  <linearGradient id="sunrise" x1="0%" x2="0%" y1="0%" y2="100%">
   <stop offset="0%" style="stop-color: #FF8501; stop-opacity:1"/>
   <stop offset="100%" style="stop-color: #FFCB01; stop-opacity:1"/>
  </linearGradient>
  <linearGradient id="telinkrin" x1="0%" x2="0%" y1="0%" y2="100%">
   <stop offset="0%" style="stop-color: #b2ced6; stop-opacity:1"/>
   <stop offset="100%" style="stop-color: #6da5b7; stop-opacity:1"/>
  </linearGradient>
  <linearGradient id="60spsycho" x1="0%" x2="0%" y1="0%" y2="100%">
   <stop offset="0%" style="stop-color: #df5940; stop-opacity:1"/>
   <stop offset="25%" style="stop-color: #d8d15f; stop-opacity:1"/>
   <stop offset="50%" style="stop-color: #e9882a; stop-opacity:1"/>
   <stop offset="100%" style="stop-color: #279362; stop-opacity:1"/>
  </linearGradient>
  <linearGradient id="90ssummer" x1="0%" x2="0%" y1="0%" y2="100%">
   <stop offset="0%" style="stop-color: #f618c7; stop-opacity:1"/>
   <stop offset="20%" style="stop-color: #94ffab; stop-opacity:1"/>
   <stop offset="50%" style="stop-color: #fbfd54; stop-opacity:1"/>
   <stop offset="100%" style="stop-color: #0f83ae; stop-opacity:1"/>
  </linearGradient>
  <linearGradient id="cyberneon" x1="0%" x2="0%" y1="0%" y2="100%">
    <stop offset="0" style="stop-color:#0abdc6; stop-opacity:1"/>
    <stop offset="1" style="stop-color:#ea00d9; stop-opacity:1"/>
  </linearGradient>
 </defs>
 <g transform="translate(-271.99997,-319.99994)">
  <g transform="matrix(0.09694117,0,0,0.09694117,273.02783,320.73237)" style="fill:currentColor" class="ColorScheme-Text">
   <path style="fill:currentColor" class="ColorScheme-Text" d="M 10.703125,1.9921875 C 6.4428974,1.9210031 1.7434418,4.1003755 -0.25976562,8.9863281 -2.058128,13.371177 -0.64572338,17.704541 1.2011719,20.894531 c 1.8468952,3.189991 4.2592744,5.767628 5.1816406,7.044922 a 3.1267863,3.1267863 0 0 0 0.00195,0.002 c 1.7412379,2.409856 3.7129814,4.883466 4.6289064,6.878906 0.501277,1.09091 0.643096,2.685463 1.482422,4.945313 1.580265,4.257131 3.008809,9.151963 5.318359,13.597656 1.085781,2.091848 2.316897,4.38486 3.845703,6.46875 0.649002,0.884757 1.127924,1.215597 1.464844,1.501953 -1.171634,2.548766 -1.235817,5.010705 -1.701172,6.478516 -3.80213,11.988957 -2.55978,26.281498 3.246094,35.5957 h -0.002 c 0.835194,1.34026 2.274551,3.60025 4.548828,5.42188 2.274277,1.82162 5.950806,3.14637 9.611328,1.6543 3.338217,-1.35982 4.874389,-4.59856 5.425781,-7.25782 0.06083,-0.29338 0.07466,-0.50498 0.125,-0.79492 a 3.1267863,3.1267863 0 0 0 0.04102,0.0723 c 3.349489,5.39503 8.825965,10.51148 13.564453,14.08984 1.578853,1.19226 3.627357,4.78696 8.058594,6.30078 a 3.1267863,3.1267863 0 0 0 4.136719,-2.95898 v -0.22461 a 3.1267863,3.1267863 0 0 0 -1.708985,-2.78711 3.1267863,3.1267863 0 0 0 -0.002,-0.002 c -0.80964,-0.81609 -1.541417,-1.31189 -1.695312,-1.4629 a 3.1267863,3.1267863 0 0 0 -0.002,0 C 65.11289,113.83343 63.239966,111.76789 61.939453,110.00195 57.973746,104.61771 54.43621,98.677729 51.197266,92.455078 49.716572,89.611827 48.36915,86.341416 47.027344,83.230469 47.000521,83.16824 46.848778,82.5074 46.582031,81.587891 46.315285,80.668382 45.824429,79.135363 44.150391,78.169922 a 3.1267863,3.1267863 0 0 0 -4.191407,1.015625 c -1.109499,1.721482 -3.488999,3.70846 -4.966796,7.208984 -1.291342,3.05723 -1.820626,6.270091 -2.208985,9.5 -0.187262,-0.437423 -0.355756,-0.711778 -0.556641,-1.189453 a 3.1267863,3.1267863 0 0 0 -0.002,0 c -2.527134,-6.003901 -3.089097,-16.985944 -0.802734,-24.091797 0.207072,-0.643533 1.196513,-3.004461 1.945313,-5.335937 0.374399,-1.165738 0.707278,-2.360814 0.871093,-3.59375 0.163815,-1.232937 0.364765,-2.606429 -0.6875,-4.257813 l 0.353516,0.769531 C 32.85896,54.763951 30.310334,53.400434 29.839844,52.761719 a 3.1267863,3.1267863 0 0 0 -0.002,-0.002 C 28.690895,51.204147 27.419675,48.944124 26.589844,47.066406 24.389111,42.084515 23.264586,35.947764 20.511719,29.964844 19.076424,26.844086 16.905925,24.090427 15.271484,21.816406 13.18975,18.91831 11.350919,17.233714 10.185547,14.701172 a 3.1267863,3.1267863 0 0 0 0,-0.002 c -0.1955856,-0.424455 -0.353634,-0.87298 -0.4296876,-1.179688 0.1579076,-0.01981 0.4849596,-0.08693 0.9218746,0.01172 0.934916,0.211099 2.073861,0.633464 2.650391,0.873047 3.519447,1.461646 6.302118,2.789039 9.126953,4.660156 0.726306,0.482992 2.290495,2.799843 5.558594,3.759766 a 3.1267863,3.1267863 0 0 0 0.880859,0.126953 h 1.992188 c 3.66136,0.706543 6.914485,0.423716 8.769531,0.986328 4.852175,1.474808 9.277892,3.796062 13.380859,6.386719 12.455901,7.864604 22.660867,19.071217 29.650391,32.470703 h -0.002 c 0.958204,1.838533 1.449652,3.877848 2.597656,6.53125 2.138553,4.937999 4.748485,9.861407 6.740235,14.382812 2.043295,4.636908 4.100012,9.559776 7.316406,13.857422 a 3.1267863,3.1267863 0 0 0 0.002,0.002 c 1.760083,2.35024 3.985623,2.844831 6.128903,3.562501 2.14328,0.71766 4.34336,1.3207 5.25782,1.70703 v -0.002 c 2.28821,0.96743 5.31223,1.8758 6.33593,2.49218 3.22268,1.94423 6.46067,4.33943 9.69141,6.61524 0.13091,0.0922 0.30492,0.18949 0.44336,0.28125 -4.45485,0.37064 -8.5869,1.06088 -12.20313,2.58594 -0.19215,0.0811 -1.15482,0.25913 -2.40039,0.74414 -0.62278,0.2425 -1.36905,0.59651 -2.08398,1.29492 -0.71493,0.69841 -1.29753,1.80102 -1.44141,2.90625 a 3.1267863,3.1267863 0 0 0 0.83789,2.5625 c -0.15626,-0.16383 0.0321,0.77964 1.16992,2.625 a 3.1267863,3.1267863 0 0 0 0.002,0.004 c 1.40137,2.26769 3.45495,5.03552 5.9375,6.91015 a 3.1267863,3.1267863 0 0 0 0.002,0.002 c 1.99429,1.50506 4.15365,3.20759 6.54297,4.66406 4.29485,2.61938 8.59724,3.96915 11.84766,6.03125 1.97992,1.25642 4.11629,2.96404 6.33398,4.59179 0.35018,0.25709 1.36124,1.98109 3.94922,2.89649 a 3.1267863,3.1267863 0 0 0 4.16992,-2.94727 v -0.22461 a 3.1267863,3.1267863 0 0 0 -0.66797,-1.93164 c -0.0242,-0.0308 -0.22343,-1.19925 -1.45898,-2.98828 a 3.1267863,3.1267863 0 0 0 -0.36133,-0.43359 l -2.91797,-2.91797 0.28711,0.33008 c -3.08827,-4.0993 -6.93803,-7.61921 -10.99805,-10.53321 l -0.002,-0.002 c -1.89071,-1.35701 -4.31535,-2.59101 -6.4043,-3.94531 -0.35404,-0.22953 -0.55981,-0.45138 -0.875,-0.6875 0.47279,-0.13283 1.14028,-0.24697 1.55274,-0.35742 a 3.1267863,3.1267863 0 0 0 0.002,0 c 2.79421,-0.74926 5.81228,-0.52037 9.84766,-1.5625 a 3.1267863,3.1267863 0 0 0 0.0781,-0.0215 c 1.57332,-0.44966 3.14277,-0.90075 4.71094,-1.34765 a 3.1267863,3.1267863 0 0 0 2.26953,-3.00586 v -0.89844 a 3.1267863,3.1267863 0 0 0 -0.88867,-2.18164 c -1.31853,-1.35296 -2.59648,-3.86015 -5.15039,-6.03516 -5.09839,-4.34164 -10.68906,-8.70462 -16.51953,-12.384763 -3.59994,-2.272341 -7.56561,-3.559445 -10.58594,-5.083985 -1.02033,-0.51473 -1.82619,-0.70058 -2.39453,-0.90625 -0.2626,-0.09503 -0.41563,-0.199899 -0.49414,-0.248046 -1.22399,-1.654856 -2.15697,-4.147864 -3.59961,-6.925782 -2.77461,-5.342147 -5.515757,-11.210357 -7.990236,-16.86914 a 3.1267863,3.1267863 0 0 0 0,-0.002 C 95.701775,62.272278 94.569301,58.282764 92.169922,54.335938 81.750621,37.205429 70.206572,26.561221 52.919922,16.449219 48.668917,13.963743 44.008401,13.137568 39.490234,12.066406 a 3.1267863,3.1267863 0 0 0 -0.53125,-0.07813 c -2.214743,-0.134069 -4.431447,-0.268027 -6.648437,-0.402343 -0.23067,-0.14146 -0.609,-0.381686 -1.189453,-0.88086 C 30.415171,10.098004 29.629424,9.3369168 28.542969,8.6503906 24.830181,6.304891 17.802925,2.1108185 10.703125,1.9921875 Z M 10.152344,13.095703 c -0.4436454,0.342067 -0.4884136,0.375039 -0.4121096,0.378906 -0.00461,-0.01991 -0.025727,-0.06194 -0.029297,-0.08008 C 9.6528115,13.099235 9.7777877,13.279489 9.5,13.697266 a 3.1267863,3.1267863 0 0 0 0.1777344,-0.304688 3.1267863,3.1267863 0 0 0 0.4746096,-0.296875 z"/>
  </g>
  <g transform="matrix(0.09694117,0,0,0.09694117,276.77468,324.38371)" style="fill:currentColor;fill-rule:evenodd">
   <path d="m 4.1030539,-2.5582057 c -2.5496732,-0.046935 -4.35272281,0.2783573 -6.2595561,0.6944218 v 0.3479081 h 0.3485276 C -0.59200047,0.98298981 1.5549297,2.5910189 3.0590201,4.7436803 4.2176808,7.1776424 5.3763415,9.6116041 6.5365512,12.044017 6.6511781,11.928926 6.7689029,11.812595 6.8835298,11.697503 9.036656,10.180247 10.023377,7.7524806 10.012534,4.0478643 9.1497337,3.1401434 9.0227153,2.0011552 8.2745423,0.91793132 7.2800768,-0.52512796 5.3562043,-1.3450198 4.1030539,-2.5582057 Z" style="fill:currentColor" class="ColorScheme-Text"/>
  </g>
 </g>
</svg>
