<svg xmlns="http://www.w3.org/2000/svg" style="isolation:isolate" width="16" height="16" viewBox="0 0 16 16">
 <defs>
  <style id="current-color-scheme" type="text/css">
   .ColorScheme-Text { color:#e6e6fa; } .ColorScheme-Highlight { color:#5294e2; }
  </style>
  <linearGradient id="arrongin" x1="0%" x2="0%" y1="0%" y2="100%">
   <stop offset="0%" style="stop-color:#dd9b44; stop-opacity:1"/>
   <stop offset="100%" style="stop-color:#ad6c16; stop-opacity:1"/>
  </linearGradient>
  <linearGradient id="aurora" x1="0%" x2="0%" y1="0%" y2="100%">
   <stop offset="0%" style="stop-color:#09D4DF; stop-opacity:1"/>
   <stop offset="100%" style="stop-color:#9269F4; stop-opacity:1"/>
  </linearGradient>
  <linearGradient id="fitdance" x1="0%" x2="0%" y1="0%" y2="100%">
   <stop offset="0%" style="stop-color:#1AD6AB; stop-opacity:1"/>
   <stop offset="100%" style="stop-color:#329DB6; stop-opacity:1"/>
  </linearGradient>
  <linearGradient id="oomox" x1="0%" x2="0%" y1="0%" y2="100%">
   <stop offset="0%" style="stop-color:#efefe7; stop-opacity:1"/>
   <stop offset="100%" style="stop-color:#8f8f8b; stop-opacity:1"/>
  </linearGradient>
  <linearGradient id="rainblue" x1="0%" x2="0%" y1="0%" y2="100%">
   <stop offset="0%" style="stop-color:#00F260; stop-opacity:1"/>
   <stop offset="100%" style="stop-color:#0575E6; stop-opacity:1"/>
  </linearGradient>
  <linearGradient id="sunrise" x1="0%" x2="0%" y1="0%" y2="100%">
   <stop offset="0%" style="stop-color: #FF8501; stop-opacity:1"/>
   <stop offset="100%" style="stop-color: #FFCB01; stop-opacity:1"/>
  </linearGradient>
  <linearGradient id="telinkrin" x1="0%" x2="0%" y1="0%" y2="100%">
   <stop offset="0%" style="stop-color: #b2ced6; stop-opacity:1"/>
   <stop offset="100%" style="stop-color: #6da5b7; stop-opacity:1"/>
  </linearGradient>
  <linearGradient id="60spsycho" x1="0%" x2="0%" y1="0%" y2="100%">
   <stop offset="0%" style="stop-color: #df5940; stop-opacity:1"/>
   <stop offset="25%" style="stop-color: #d8d15f; stop-opacity:1"/>
   <stop offset="50%" style="stop-color: #e9882a; stop-opacity:1"/>
   <stop offset="100%" style="stop-color: #279362; stop-opacity:1"/>
  </linearGradient>
  <linearGradient id="90ssummer" x1="0%" x2="0%" y1="0%" y2="100%">
   <stop offset="0%" style="stop-color: #f618c7; stop-opacity:1"/>
   <stop offset="20%" style="stop-color: #94ffab; stop-opacity:1"/>
   <stop offset="50%" style="stop-color: #fbfd54; stop-opacity:1"/>
   <stop offset="100%" style="stop-color: #0f83ae; stop-opacity:1"/>
  </linearGradient>
  <linearGradient id="cyberneon" x1="0%" x2="0%" y1="0%" y2="100%">
    <stop offset="0" style="stop-color:#0abdc6; stop-opacity:1"/>
    <stop offset="1" style="stop-color:#ea00d9; stop-opacity:1"/>
  </linearGradient>
 </defs>
 <path style="fill:currentColor" class="ColorScheme-Text" fill-rule="evenodd" d="M 10.367 4.569 L 10.367 4.147 C 10.367 4.146 10.367 4.145 10.367 4.144 C 10.369 3.794 10.312 3.447 10.199 3.116 C 10.098 2.819 9.94 2.546 9.736 2.309 C 9.539 2.084 9.294 1.904 9.02 1.782 C 8.871 1.716 8.715 1.666 8.555 1.634 C 8.372 1.597 8.186 1.578 8 1.579 C 7.814 1.578 7.628 1.597 7.445 1.634 C 7.285 1.666 7.129 1.716 6.98 1.782 C 6.706 1.904 6.461 2.084 6.264 2.309 C 6.06 2.546 5.902 2.819 5.801 3.116 C 5.688 3.447 5.631 3.794 5.633 4.144 C 5.633 4.145 5.633 4.146 5.633 4.147 L 5.633 4.569 C 6.613 4.741 7.488 5.354 8 6.27 C 8.512 5.354 9.387 4.741 10.367 4.569 L 10.367 4.569 L 10.367 4.569 Z M 4.054 4.682 L 4.054 4.149 C 4.052 3.624 4.136 3.102 4.306 2.605 C 4.473 2.115 4.734 1.663 5.072 1.271 C 5.422 0.873 5.854 0.554 6.338 0.338 C 6.593 0.226 6.858 0.141 7.13 0.086 C 7.417 0.028 7.708 -0.001 8 0 C 8.292 -0.001 8.583 0.028 8.87 0.086 C 9.142 0.141 9.407 0.226 9.662 0.338 C 10.146 0.554 10.578 0.873 10.928 1.271 C 11.266 1.663 11.527 2.115 11.694 2.605 C 11.864 3.102 11.948 3.624 11.946 4.149 L 11.946 4.682 C 12.937 5.005 13.745 5.787 14.11 6.823 C 14.559 8.101 14.252 9.533 13.323 10.495 L 8 16 L 2.677 10.495 C 1.748 9.533 1.441 8.101 1.89 6.823 C 2.255 5.787 3.063 5.005 4.054 4.682 L 4.054 4.682 L 4.054 4.682 Z M 7.619 10.196 C 7.173 10.038 6.852 9.612 6.852 9.112 C 6.852 8.479 7.366 7.964 8 7.964 C 8.634 7.964 9.148 8.479 9.148 9.112 C 9.148 9.621 8.816 10.053 8.357 10.204 L 9.148 12.556 L 6.852 12.556 L 7.619 10.196 Z"/>
</svg>
