<svg xmlns="http://www.w3.org/2000/svg" width="16.015" height="16.079" version="1.1">
<defs>
  <style id="current-color-scheme" type="text/css">
   .ColorScheme-Text { color:#e6e6fa; } .ColorScheme-Highlight { color:#5294e2; }
  </style>
  <linearGradient id="arrongin" x1="0%" x2="0%" y1="0%" y2="100%">
   <stop offset="0%" style="stop-color:#dd9b44; stop-opacity:1"/>
   <stop offset="100%" style="stop-color:#ad6c16; stop-opacity:1"/>
  </linearGradient>
  <linearGradient id="aurora" x1="0%" x2="0%" y1="0%" y2="100%">
   <stop offset="0%" style="stop-color:#09D4DF; stop-opacity:1"/>
   <stop offset="100%" style="stop-color:#9269F4; stop-opacity:1"/>
  </linearGradient>
  <linearGradient id="fitdance" x1="0%" x2="0%" y1="0%" y2="100%">
   <stop offset="0%" style="stop-color:#1AD6AB; stop-opacity:1"/>
   <stop offset="100%" style="stop-color:#329DB6; stop-opacity:1"/>
  </linearGradient>
  <linearGradient id="oomox" x1="0%" x2="0%" y1="0%" y2="100%">
   <stop offset="0%" style="stop-color:#efefe7; stop-opacity:1"/>
   <stop offset="100%" style="stop-color:#8f8f8b; stop-opacity:1"/>
  </linearGradient>
  <linearGradient id="rainblue" x1="0%" x2="0%" y1="0%" y2="100%">
   <stop offset="0%" style="stop-color:#00F260; stop-opacity:1"/>
   <stop offset="100%" style="stop-color:#0575E6; stop-opacity:1"/>
  </linearGradient>
  <linearGradient id="sunrise" x1="0%" x2="0%" y1="0%" y2="100%">
   <stop offset="0%" style="stop-color: #FF8501; stop-opacity:1"/>
   <stop offset="100%" style="stop-color: #FFCB01; stop-opacity:1"/>
  </linearGradient>
  <linearGradient id="telinkrin" x1="0%" x2="0%" y1="0%" y2="100%">
   <stop offset="0%" style="stop-color: #b2ced6; stop-opacity:1"/>
   <stop offset="100%" style="stop-color: #6da5b7; stop-opacity:1"/>
  </linearGradient>
  <linearGradient id="60spsycho" x1="0%" x2="0%" y1="0%" y2="100%">
   <stop offset="0%" style="stop-color: #df5940; stop-opacity:1"/>
   <stop offset="25%" style="stop-color: #d8d15f; stop-opacity:1"/>
   <stop offset="50%" style="stop-color: #e9882a; stop-opacity:1"/>
   <stop offset="100%" style="stop-color: #279362; stop-opacity:1"/>
  </linearGradient>
  <linearGradient id="90ssummer" x1="0%" x2="0%" y1="0%" y2="100%">
   <stop offset="0%" style="stop-color: #f618c7; stop-opacity:1"/>
   <stop offset="20%" style="stop-color: #94ffab; stop-opacity:1"/>
   <stop offset="50%" style="stop-color: #fbfd54; stop-opacity:1"/>
   <stop offset="100%" style="stop-color: #0f83ae; stop-opacity:1"/>
  </linearGradient>
  <linearGradient id="cyberneon" x1="0%" x2="0%" y1="0%" y2="100%">
    <stop offset="0" style="stop-color:#0abdc6; stop-opacity:1"/>
    <stop offset="1" style="stop-color:#ea00d9; stop-opacity:1"/>
  </linearGradient>
 </defs>
 <g transform="matrix(-0.49050796,0,0,-0.49047643,19.630021,19.992798)">
  <path style="fill:currentColor" class="ColorScheme-Text" d="m -16.725,11.189 c -0.828427,0 -1.5,0.671573 -1.5,1.5 5.32e-4,0.404804 0.164654,0.792208 0.45508,1.0742 l -1.8164,3.9336 c -0.04608,-0.0047 -0.09235,-0.0073 -0.13867,-0.0078 -0.450398,0.0013 -0.876357,0.204986 -1.1602,0.55469 l -4.2422,-1.5137 c -0.01455,-0.376179 -0.170024,-0.733133 -0.43555,-1 -0.585761,-0.58564 -1.535339,-0.58564 -2.1211,0 -0.58564,0.585761 -0.58564,1.535339 0,2.1211 0.266562,0.266242 0.623552,0.422425 1,0.4375 l 1.5137,4.2383 c -0.350219,0.284263 -0.553925,0.711036 -0.55469,1.1621 h -1 l -1.123,0.13477 -3.877,0.4668 v 4.8008 l 3.873,0.46484 c 0.269904,1.044525 0.685444,2.045876 1.2344,2.9746 l -2.4102,3.0703 3.3926,3.3926 3.0703,-2.4102 c 0.928939,0.547599 1.93028,0.961823 2.9746,1.2305 l 0.46484,3.877 h 4.8008 v -0.002 l 0.46484,-3.873 c 1.04442,-0.269275 2.045766,-0.68414 2.9746,-1.2324 l 3.0705,2.41 3.0716774,-3.394 -2.4101,-3.071 -0.6992,-0.89 -0.7676,-0.768 c 0.3628794,-0.284646 0.5746426,-0.720401 0.57422,-1.1816 -4.608e-4,-0.04632 -0.00307,-0.09259 -0.00781,-0.13867 l 4.3328759,-1.8164 c 0.2824754,0.290923 0.6707018,0.455088 1.0762,0.45508 0.8284271,0 1.5,-0.671573 1.5,-1.5 0,-0.828427 -0.6715729,-1.5 -1.5,-1.5 -0.404804,5.32e-4 -0.7922082,0.164654 -1.0742,0.45508 l -4.3348759,-1.8145 c 0.0048,-0.04672 0.00741,-0.09365 0.00781,-0.14062 -2.848e-4,-0.450737 -0.203244,-0.877453 -0.55273,-1.1621 l 1.9148244,-4.2402 c 0.3754972,-0.01504 0.731672,-0.170471 0.99805,-0.43555 0.5856396,-0.585761 0.5856396,-1.535339 0,-2.1211 -0.5857612,-0.58564 -1.5353388,-0.58564 -2.1211,0 -0.2662415,0.266562 -0.4224247,0.623552 -0.4375,1 l -4.3181018,1.512 c -0.284645,-0.34949 -0.711361,-0.552453 -1.1621,-0.55274 -0.04632,4.57e-4 -0.09259,0.0031 -0.13867,0.0078 l -1.8145,-3.9336 c 0.289705,-0.28232 0.453103,-0.669683 0.45312,-1.0742 0,-0.828427 -0.671573,-1.5 -1.5,-1.5 z m 0.13867,2.9922 1.8145,3.9336 c -0.164132,0.160896 -0.289094,0.357359 -0.36524,0.57422 h -3.1758 c -0.07671,-0.217047 -0.202352,-0.413525 -0.36719,-0.57422 l 1.8145,-3.9316 c 0.04675,0.0042 0.09368,0.0061 0.14062,0.0059 0.04632,-4.57e-4 0.09259,-0.0031 0.13867,-0.0078 z m -8.8359,3.5039 4.1973,1.5 v 0.0039 c 9.08e-4,0.223212 0.05162,0.443407 0.14844,0.64453 l -2.5039,2.5039 c -0.201123,-0.09682 -0.421318,-0.147532 -0.64453,-0.14844 h -0.0039 l -1.5,-4.1973 c 0.05867,-0.0428 0.114157,-0.0898 0.16602,-0.14063 0.05083,-0.05186 0.09783,-0.107349 0.14062,-0.16602 z m 17.4752018,0 c 0.042793,0.05867 0.08979,0.114157 0.14062,0.16602 0.051795,0.05151 0.1072823,0.09916 0.16602,0.14258 l -1.9011244,4.1953 h -0.00391 c -0.2232118,9.08e-4 -0.4434074,0.05162 -0.6445304,0.14844 l -2.182977,-2.5039 c 0.09682,-0.201123 0.147532,-0.421318 0.14844,-0.64453 v -0.0039 l 4.2775018,-1.5 z M -18.31223,19.689 h 3.1738 c 0.211878,0.59928 0.778467,0.999952 1.4141,1 0.223062,-2.96e-4 0.443251,-0.05034 0.64453,-0.14648 l 2.182977,2.502 c -0.09682,0.201123 -0.147532,0.421318 -0.14844,0.64453 4.8e-5,0.635633 0.40072,1.202222 1,1.4141 v 3.1738 c -0.598589,0.211632 -0.999105,0.777201 -1,1.4121 5.69e-4,0.353204 0.12576,0.694879 0.35352,0.96484 -1.366864,2.194805 -3.44695,3.808403 -6.032577,3.812834 -5.368608,0 -7.855606,-3.635498 -7.855606,-7.777634 0.0015,-0.507322 0.05454,-1.013179 0.1582,-1.5098 1.048888,-0.01914 1.696673,-0.723562 1.697406,-1.4902 -6.17e-4,-0.22387 -0.05134,-0.444764 -0.14844,-0.64648 l 2.502,-2.502 c 0.201716,0.0971 0.42261,0.147823 0.64648,0.14844 0.634899,-8.95e-4 1.200468,-0.401411 1.4121,-1 z m 9.8390774,5.0449 4.3367759,1.8164 c -0.00474,0.04608 -0.00735,0.09235 -0.00781,0.13867 4.608e-4,0.04632 0.00307,0.09259 0.00781,0.13867 l -4.3348759,1.8145 c -0.1608975,-0.164128 -0.3573598,-0.289087 -0.57422,-0.36523 v -3.1758 c 0.2163485,-0.07698 0.4121347,-0.202602 0.57227,-0.36719 z" transform="rotate(180,3.6377,25.345)"/>
 </g>
</svg>
