<svg xmlns="http://www.w3.org/2000/svg" style="isolation:isolate" width="16" height="16" viewBox="0 0 16 16">
 <defs>
  <style id="current-color-scheme" type="text/css">
   .ColorScheme-Text { color:#e6e6fa; } .ColorScheme-Highlight { color:#5294e2; }
  </style>
  <linearGradient id="arrongin" x1="0%" x2="0%" y1="0%" y2="100%">
   <stop offset="0%" style="stop-color:#dd9b44; stop-opacity:1"/>
   <stop offset="100%" style="stop-color:#ad6c16; stop-opacity:1"/>
  </linearGradient>
  <linearGradient id="aurora" x1="0%" x2="0%" y1="0%" y2="100%">
   <stop offset="0%" style="stop-color:#09D4DF; stop-opacity:1"/>
   <stop offset="100%" style="stop-color:#9269F4; stop-opacity:1"/>
  </linearGradient>
  <linearGradient id="fitdance" x1="0%" x2="0%" y1="0%" y2="100%">
   <stop offset="0%" style="stop-color:#1AD6AB; stop-opacity:1"/>
   <stop offset="100%" style="stop-color:#329DB6; stop-opacity:1"/>
  </linearGradient>
  <linearGradient id="oomox" x1="0%" x2="0%" y1="0%" y2="100%">
   <stop offset="0%" style="stop-color:#efefe7; stop-opacity:1"/>
   <stop offset="100%" style="stop-color:#8f8f8b; stop-opacity:1"/>
  </linearGradient>
  <linearGradient id="rainblue" x1="0%" x2="0%" y1="0%" y2="100%">
   <stop offset="0%" style="stop-color:#00F260; stop-opacity:1"/>
   <stop offset="100%" style="stop-color:#0575E6; stop-opacity:1"/>
  </linearGradient>
  <linearGradient id="sunrise" x1="0%" x2="0%" y1="0%" y2="100%">
   <stop offset="0%" style="stop-color: #FF8501; stop-opacity:1"/>
   <stop offset="100%" style="stop-color: #FFCB01; stop-opacity:1"/>
  </linearGradient>
  <linearGradient id="telinkrin" x1="0%" x2="0%" y1="0%" y2="100%">
   <stop offset="0%" style="stop-color: #b2ced6; stop-opacity:1"/>
   <stop offset="100%" style="stop-color: #6da5b7; stop-opacity:1"/>
  </linearGradient>
  <linearGradient id="60spsycho" x1="0%" x2="0%" y1="0%" y2="100%">
   <stop offset="0%" style="stop-color: #df5940; stop-opacity:1"/>
   <stop offset="25%" style="stop-color: #d8d15f; stop-opacity:1"/>
   <stop offset="50%" style="stop-color: #e9882a; stop-opacity:1"/>
   <stop offset="100%" style="stop-color: #279362; stop-opacity:1"/>
  </linearGradient>
  <linearGradient id="90ssummer" x1="0%" x2="0%" y1="0%" y2="100%">
   <stop offset="0%" style="stop-color: #f618c7; stop-opacity:1"/>
   <stop offset="20%" style="stop-color: #94ffab; stop-opacity:1"/>
   <stop offset="50%" style="stop-color: #fbfd54; stop-opacity:1"/>
   <stop offset="100%" style="stop-color: #0f83ae; stop-opacity:1"/>
  </linearGradient>
  <linearGradient id="cyberneon" x1="0%" x2="0%" y1="0%" y2="100%">
    <stop offset="0" style="stop-color:#0abdc6; stop-opacity:1"/>
    <stop offset="1" style="stop-color:#ea00d9; stop-opacity:1"/>
  </linearGradient>
 </defs>
 <g opacity=".6">
  <path style="fill:currentColor" class="ColorScheme-Text" d="M 16 12.762 L 16 3.238 C 16 2.712 15.573 2.285 15.048 2.285 L 0.952 2.285 C 0.427 2.285 0 2.712 0 3.238 L 0 12.762 C 0 13.287 0.427 13.714 0.952 13.714 L 15.048 13.714 C 15.573 13.714 16 13.287 16 12.762 Z"/>
 </g>
 <path style="fill:currentColor" class="ColorScheme-Text" fill-rule="evenodd" d="M 4.707 4.166 L 2.986 1.297 C 2.869 1.103 2.834 0.868 2.889 0.648 C 2.943 0.428 3.086 0.24 3.28 0.123 C 3.474 0.005 3.709 -0.029 3.929 0.025 C 4.149 0.08 4.34 0.22 4.454 0.417 L 6.205 3.335 L 6.948 2.923 C 7.106 2.835 7.301 2.835 7.459 2.922 C 7.617 3.01 7.714 3.172 7.714 3.348 L 7.714 5 L 7.714 6.652 C 7.714 6.827 7.616 6.989 7.459 7.077 C 7.301 7.164 7.106 7.164 6.948 7.077 L 5.459 6.251 L 3.97 5.425 C 3.812 5.337 3.714 5.175 3.714 5 C 3.714 4.824 3.812 4.662 3.97 4.575 L 4.707 4.166 Z M 9.85 13.023 L 8.129 10.154 C 8.011 9.96 7.977 9.725 8.031 9.505 C 8.086 9.285 8.229 9.097 8.423 8.98 C 8.617 8.863 8.851 8.828 9.071 8.883 C 9.291 8.937 9.483 9.077 9.597 9.274 L 11.348 12.192 L 12.09 11.78 C 12.248 11.692 12.443 11.692 12.601 11.78 C 12.76 11.867 12.857 12.029 12.857 12.205 L 12.857 13.857 L 12.857 15.509 C 12.857 15.684 12.759 15.846 12.601 15.934 C 12.443 16.022 12.249 16.022 12.091 15.934 L 10.602 15.108 L 9.112 14.282 C 8.954 14.194 8.857 14.032 8.857 13.857 C 8.857 13.681 8.955 13.519 9.113 13.432 L 9.85 13.023 Z"/>
</svg>
