<svg xmlns="http://www.w3.org/2000/svg" style="isolation:isolate" width="16" height="16" viewBox="0 0 16 16">
 <defs>
  <style id="current-color-scheme" type="text/css">
   .ColorScheme-Text { color:#e6e6fa; } .ColorScheme-Highlight { color:#5294e2; }
  </style>
  <linearGradient id="arrongin" x1="0%" x2="0%" y1="0%" y2="100%">
   <stop offset="0%" style="stop-color:#dd9b44; stop-opacity:1"/>
   <stop offset="100%" style="stop-color:#ad6c16; stop-opacity:1"/>
  </linearGradient>
  <linearGradient id="aurora" x1="0%" x2="0%" y1="0%" y2="100%">
   <stop offset="0%" style="stop-color:#09D4DF; stop-opacity:1"/>
   <stop offset="100%" style="stop-color:#9269F4; stop-opacity:1"/>
  </linearGradient>
  <linearGradient id="fitdance" x1="0%" x2="0%" y1="0%" y2="100%">
   <stop offset="0%" style="stop-color:#1AD6AB; stop-opacity:1"/>
   <stop offset="100%" style="stop-color:#329DB6; stop-opacity:1"/>
  </linearGradient>
  <linearGradient id="oomox" x1="0%" x2="0%" y1="0%" y2="100%">
   <stop offset="0%" style="stop-color:#efefe7; stop-opacity:1"/>
   <stop offset="100%" style="stop-color:#8f8f8b; stop-opacity:1"/>
  </linearGradient>
  <linearGradient id="rainblue" x1="0%" x2="0%" y1="0%" y2="100%">
   <stop offset="0%" style="stop-color:#00F260; stop-opacity:1"/>
   <stop offset="100%" style="stop-color:#0575E6; stop-opacity:1"/>
  </linearGradient>
  <linearGradient id="sunrise" x1="0%" x2="0%" y1="0%" y2="100%">
   <stop offset="0%" style="stop-color: #FF8501; stop-opacity:1"/>
   <stop offset="100%" style="stop-color: #FFCB01; stop-opacity:1"/>
  </linearGradient>
  <linearGradient id="telinkrin" x1="0%" x2="0%" y1="0%" y2="100%">
   <stop offset="0%" style="stop-color: #b2ced6; stop-opacity:1"/>
   <stop offset="100%" style="stop-color: #6da5b7; stop-opacity:1"/>
  </linearGradient>
  <linearGradient id="60spsycho" x1="0%" x2="0%" y1="0%" y2="100%">
   <stop offset="0%" style="stop-color: #df5940; stop-opacity:1"/>
   <stop offset="25%" style="stop-color: #d8d15f; stop-opacity:1"/>
   <stop offset="50%" style="stop-color: #e9882a; stop-opacity:1"/>
   <stop offset="100%" style="stop-color: #279362; stop-opacity:1"/>
  </linearGradient>
  <linearGradient id="90ssummer" x1="0%" x2="0%" y1="0%" y2="100%">
   <stop offset="0%" style="stop-color: #f618c7; stop-opacity:1"/>
   <stop offset="20%" style="stop-color: #94ffab; stop-opacity:1"/>
   <stop offset="50%" style="stop-color: #fbfd54; stop-opacity:1"/>
   <stop offset="100%" style="stop-color: #0f83ae; stop-opacity:1"/>
  </linearGradient>
  <linearGradient id="cyberneon" x1="0%" x2="0%" y1="0%" y2="100%">
    <stop offset="0" style="stop-color:#0abdc6; stop-opacity:1"/>
    <stop offset="1" style="stop-color:#ea00d9; stop-opacity:1"/>
  </linearGradient>
 </defs>
 <path style="fill:currentColor" class="ColorScheme-Text" fill-rule="evenodd" d="M 4.281 5.035 C 4.294 4.68 3.987 4.361 3.622 4.35 C 3.248 4.339 2.941 4.625 2.93 4.993 C 2.919 5.366 3.204 5.665 3.581 5.675 C 3.954 5.684 4.267 5.399 4.281 5.035 L 4.281 5.035 Z M 7.847 4.35 C 7.481 4.357 7.171 4.669 7.178 5.025 C 7.184 5.394 7.488 5.683 7.865 5.678 C 8.243 5.673 8.529 5.382 8.525 5.005 C 8.522 4.635 8.22 4.343 7.847 4.35 L 7.847 4.35 Z M 11.116 5.639 C 9.631 5.717 8.34 6.167 7.291 7.184 C 6.232 8.211 5.748 9.47 5.88 11.031 C 5.3 10.959 4.771 10.88 4.239 10.835 C 4.055 10.82 3.837 10.842 3.682 10.93 C 3.165 11.221 2.67 11.55 2.084 11.917 C 2.191 11.43 2.261 11.003 2.384 10.593 C 2.475 10.292 2.433 10.124 2.156 9.928 C 0.373 8.67 -0.379 6.786 0.183 4.847 C 0.704 3.053 1.982 1.965 3.718 1.398 C 6.088 0.624 8.751 1.414 10.192 3.295 C 10.713 3.975 11.032 4.737 11.116 5.639 L 11.116 5.639 Z M 9.1 9.714 C 9.399 9.715 9.646 9.48 9.657 9.185 C 9.669 8.872 9.417 8.609 9.104 8.608 C 8.793 8.607 8.533 8.873 8.544 9.181 C 8.554 9.476 8.802 9.714 9.1 9.714 L 9.1 9.714 Z M 12.551 8.609 C 12.26 8.607 12.013 8.845 12.002 9.138 C 11.989 9.452 12.233 9.71 12.544 9.711 C 12.844 9.712 13.081 9.485 13.092 9.186 C 13.104 8.871 12.86 8.611 12.551 8.609 L 12.551 8.609 L 12.551 8.609 Z M 14.453 14.897 C 13.983 14.687 13.551 14.373 13.092 14.325 C 12.634 14.277 12.153 14.541 11.675 14.59 C 10.217 14.739 8.91 14.333 7.833 13.337 C 5.785 11.443 6.077 8.538 8.448 6.986 C 10.554 5.606 13.643 6.066 15.128 7.98 C 16.425 9.651 16.272 11.868 14.69 13.272 C 14.232 13.678 14.067 14.012 14.361 14.548 C 14.415 14.646 14.422 14.772 14.453 14.897 L 14.453 14.897 L 14.453 14.897 Z"/>
</svg>
