<svg xmlns="http://www.w3.org/2000/svg" width="16" height="16" version="1.1" viewBox="0 0 4.23 4.23">
 <defs>
  <style id="current-color-scheme" type="text/css">
   .ColorScheme-Text { color:#e6e6fa; } .ColorScheme-Highlight { color:#5294e2; }
  </style>
  <linearGradient id="arrongin" x1="0%" x2="0%" y1="0%" y2="100%">
   <stop offset="0%" style="stop-color:#dd9b44"/>
   <stop offset="100%" style="stop-color:#ad6c16"/>
  </linearGradient>
  <linearGradient id="aurora" x1="0%" x2="0%" y1="0%" y2="100%">
   <stop offset="0%" style="stop-color:#09D4DF"/>
   <stop offset="100%" style="stop-color:#9269F4"/>
  </linearGradient>
  <linearGradient id="fitdance" x1="0%" x2="0%" y1="0%" y2="100%">
   <stop offset="0%" style="stop-color:#1AD6AB"/>
   <stop offset="100%" style="stop-color:#329DB6"/>
  </linearGradient>
  <linearGradient id="oomox" x1="0%" x2="0%" y1="0%" y2="100%">
   <stop offset="0%" style="stop-color:#efefe7"/>
   <stop offset="100%" style="stop-color:#8f8f8b"/>
  </linearGradient>
  <linearGradient id="rainblue" x1="0%" x2="0%" y1="0%" y2="100%">
   <stop offset="0%" style="stop-color:#00F260"/>
   <stop offset="100%" style="stop-color:#0575E6"/>
  </linearGradient>
  <linearGradient id="sunrise" x1="0%" x2="0%" y1="0%" y2="100%">
   <stop offset="0%" style="stop-color:#FF8501"/>
   <stop offset="100%" style="stop-color:#FFCB01"/>
  </linearGradient>
  <linearGradient id="telinkrin" x1="0%" x2="0%" y1="0%" y2="100%">
   <stop offset="0%" style="stop-color:#b2ced6"/>
   <stop offset="100%" style="stop-color:#6da5b7"/>
  </linearGradient>
  <linearGradient id="60spsycho" x1="0%" x2="0%" y1="0%" y2="100%">
   <stop offset="0%" style="stop-color:#df5940"/>
   <stop offset="25%" style="stop-color:#d8d15f"/>
   <stop offset="50%" style="stop-color:#e9882a"/>
   <stop offset="100%" style="stop-color:#279362"/>
  </linearGradient>
  <linearGradient id="90ssummer" x1="0%" x2="0%" y1="0%" y2="100%">
   <stop offset="0%" style="stop-color:#f618c7"/>
   <stop offset="20%" style="stop-color:#94ffab"/>
   <stop offset="50%" style="stop-color:#fbfd54"/>
   <stop offset="100%" style="stop-color:#0f83ae"/>
  </linearGradient>
 </defs>
 <path id="xda_logo" fill="currentColor" class="ColorScheme-Text" d="m 2.5326797,1.145799 v 0.4407557 h -0.585804 c -0.139279,0 -0.258466,0.038036 -0.344963,0.1183537 -0.08757,0.081312 -0.129515,0.2003192 -0.129515,0.340474 v 0.58167 c -0.0016,0.017439 -0.0027,0.034504 -0.0027,0.050909 0,0.08832 0.02622,0.1718879 0.07648,0.244267 0.05091,0.073312 0.122708,0.1247273 0.207474,0.1474699 0.0493,0.013412 0.111841,0.017836 0.195721,0.017836 h 0.303267 c 0.151467,0 0.275452,-0.034281 0.362266,-0.1126251 0.08681,-0.078345 0.127744,-0.1959459 0.127744,-0.3358083 V 1.1457998 Z M 0.00998367,1.5865547 0.59661467,2.3403217 2.675e-6,3.0875335 h 0.134712995 0.140206 l 0.455697,-0.5769452 0.45091403,0.5769452 h 0.274033 L 0.86491867,2.3377823 1.4434587,1.5865547 H 1.1706657 L 0.73050067,2.1643856 0.28318967,1.5865547 Z m 2.96853003,0 V 1.799048 h 0.816606 c 0.08713,0 0.141169,0.020453 0.174519,0.052917 0.03335,0.032465 0.05368,0.083531 0.05368,0.1674909 v 0.023269 h -0.624782 c -0.123265,0 -0.230919,0.039047 -0.307874,0.1178811 -0.07694,0.077135 -0.114692,0.1844161 -0.114692,0.3073421 v 0.2048156 c 0,0.103801 0.03216,0.1974366 0.09597,0.2699579 0.07974,0.095681 0.197567,0.144812 0.334272,0.144812 h 0.412289 c 0.126326,0 0.234451,-0.03886 0.307106,-0.1198303 0.07314,-0.079608 0.107723,-0.1888254 0.107723,-0.3157283 V 2.0350471 c 0,-0.1395706 -0.03961,-0.2567638 -0.124555,-0.3353356 -0.08494,-0.078572 -0.206806,-0.1131567 -0.355061,-0.1131567 z m -1.034296,0.215033 h 0.588462 v 0.8323154 c 0,0.07839 -0.02021,0.1288016 -0.05835,0.1663095 -0.03788,0.037248 -0.09999,0.064316 -0.1933,0.074709 h -0.02516 l -0.0046,6.515e-4 c -0.01039,0.00148 -0.0178,0.00201 -0.01931,0.00201 h -0.285076 c -0.111964,0 -0.179623,-0.024006 -0.211136,-0.054157 -0.02916,-0.029452 -0.05333,-0.095818 -0.05333,-0.207769 V 2.0505812 c 0,-0.1026991 0.03262,-0.1660295 0.105716,-0.2154464 0.02967,-0.019338 0.0809,-0.033545 0.156092,-0.033545 z m 1.449125,0.45115 h 0.627323 v 0.4200259 c 0,0.079277 -0.01865,0.1272864 -0.0476,0.1568011 -0.02895,0.029515 -0.07489,0.048015 -0.152017,0.048015 h -0.419849 c -0.0032,0 -0.01557,-0.00111 -0.03254,-0.00419 h -2.97e-4 L 3.3682367,2.873264 C 3.2995767,2.861197 3.2562457,2.837597 3.2288577,2.806296 3.2014677,2.774996 3.1859777,2.732441 3.1859777,2.667567 V 2.4652908 c 0,-0.068192 0.01569,-0.1131012 0.04187,-0.1443398 0.02618,-0.031239 0.06624,-0.053397 0.131524,-0.063784 0.02125,-0.00325 0.03782,-0.00443 0.03396,-0.00443 z"/>
</svg>
