<svg xmlns="http://www.w3.org/2000/svg" width="16" height="16" version="1.1">
 <path style="opacity:0.3;fill:#e6e6fa" d="M 0,4 C 2.0806,2.0732 4.9494,1 8,1 c 3.051,0 5.919,1.0731 8,3 L 8,15 Z"/>
 <path style="fill:#e6e6fa" d="M 8 4 A 8 8 0 0 0 1.9863281 6.7324219 L 8 15 L 14.009766 6.734375 A 8 8 0 0 0 8 4 z"/>
</svg>
