<svg xmlns="http://www.w3.org/2000/svg" width="16" height="16" version="1.1">
 <path style="fill:#e6e6fa;opacity:0.3" d="M 8,0 5.88,5.88 0,6.2 4.57,9.91 3.06,16 8,12.4 12.94,16 11.43,9.91 16,6.2 10.12,5.88 Z"/>
 <path d="M 8,0 5.88,5.88 0,6.2 4.57,9.91 3.06,16 8,12.4 Z" style="fill:#e6e6fa"/>
</svg>
