<svg xmlns="http://www.w3.org/2000/svg" width="16" height="16" version="1.1">
 <path style="fill:#e6e6fa" d="M 10,1 C 11.662,1 13,2.338 13,4 V 6 H 15 L 12,10 9,6 H 11 V 4 C 11,3.446 10.554,3 10,3 H 6 C 5.446,3 5,3.446 5,4 V 12 C 5,12.554 5.446,13 6,13 H 9 V 15 H 6 C 4.338,15 3,13.662 3,12 V 4 C 3,2.338 4.338,1 6,1 Z"/>
</svg>
