<svg xmlns="http://www.w3.org/2000/svg" width="22" height="22" version="1.1">
 <defs>
  <style id="current-color-scheme" type="text/css">
   .ColorScheme-Text { color:#e6e6fa; } .ColorScheme-Highlight { color:#5294e2; }
  </style>
 </defs>
 <path d="m 6,3 0,16 11,0 c 0.554,0 1,-0.446 1,-1 L 18,4 C 18,3.446 17.554,3 17,3 L 12,3 6,3 Z" style="fill:currentColor" class="ColorScheme-Text"/>
 <path d="m 13,3 0,7 2,0 0,-7 z" style="fill:currentColor" class="ColorScheme-Highlight"/>
 <path d="M 5,3 C 4.446,3 4,3.446 4,4 l 0,14 c 0,0.554 0.446,1 1,1 L 6,19 6,3 5,3 Z" style="opacity:0.3;fill:currentColor" class="ColorScheme-Text"/>
</svg>
