<svg xmlns="http://www.w3.org/2000/svg" width="22" height="22" version="1.1">
 <defs>
  <style id="current-color-scheme" type="text/css">
   .ColorScheme-Text { color:#e6e6fa; } .ColorScheme-Highlight { color:#5294e2; }
  </style>
 </defs>
 <path d="M 6.8497137,3.0005456 C 3.9271454,3.1298337 0.2392714,10.017726 6.1521445,15.879331 12.150103,21.824513 19.200817,17.978997 18.995624,14.990532 A 8.5037006,8.5012098 0 0 1 13.504953,17.000584 8.5037006,8.5012098 0 0 1 5.0012531,8.499375 8.5037006,8.5012098 0 0 1 7.0255715,3.0083592 c -0.058336,-0.00297 -0.1168109,-0.010426 -0.1758578,-0.00781 z" style="fill:currentColor" class="ColorScheme-Text"/>
 <path d="M 7.5805005,3.1294702 C 6.2925012,4.5491254 5.5014708,6.4279822 5.5014708,8.499375 c 0,4.42483 3.5773564,8.001138 8.0034822,8.001138 2.06802,0 3.944534,-0.787391 5.363663,-2.070606 C 18.746581,14.134516 18.544147,13.855438 18.243343,13.60557 17.04082,12.605128 14.82112,11.887848 12.50061,9.5874205 10.052145,7.159975 9.3545194,4.859085 8.3288731,3.6725162 8.10276,3.4109537 7.8492233,3.2377371 7.5805005,3.1294702 Z" style="fill:currentColor;opacity:0.3" class="ColorScheme-Text"/>
</svg>
