<svg xmlns="http://www.w3.org/2000/svg" width="22" height="22" version="1.1">
 <defs>
  <style id="current-color-scheme" type="text/css">
   .ColorScheme-Text { color:#e6e6fa; } .ColorScheme-Highlight { color:#5294e2; }
  </style>
 </defs>
 <path style="fill:currentColor" class="ColorScheme-Text" d="M 19 3 L 3 19 L 19 19 L 19 3 z M 17 7.828125 L 17 17 L 7.828125 17 L 17 7.828125 z"/>
</svg>
