<svg xmlns="http://www.w3.org/2000/svg" width="22" height="22" version="1">
 <defs>
  <style id="current-color-scheme" type="text/css">
   .ColorScheme-Text { color:#e6e6fa; } .ColorScheme-Highlight { color:#5294e2; }
  </style>
 </defs>
 <path style="fill:currentColor" class="ColorScheme-Text" d="m17.934 3.0039c-0.455-0.0278-0.702 0.0517-7.362 2.3809-3.7899 1.3256-6.9764 2.4658-7.0798 2.5332-0.3008 0.1957-0.4922 0.5722-0.4922 0.9648 0 0.8431 0.3085 1.0797 3.3555 2.5662 1.5421 0.753 2.5756 1.303 2.7011 1.436 0.112 0.118 0.765 1.348 1.4494 2.734 1.238 2.502 1.521 2.971 1.967 3.24 0.473 0.288 1.117 0.12 1.496-0.39 0.178-0.239 4.958-13.743 5.017-14.174 0.056-0.4008-0.072-0.7765-0.355-1.047-0.189-0.1803-0.304-0.2201-0.697-0.2441zm-11.934 10.996a2 2 0 0 0 -2 2 2 2 0 0 0 2 2 2 2 0 0 0 2 -2 2 2 0 0 0 -2 -2z"/>
</svg>
