<svg xmlns="http://www.w3.org/2000/svg" width="22" height="22" version="1.1">
 <defs>
  <style id="current-color-scheme" type="text/css">
   .ColorScheme-Text { color:#e6e6fa; } .ColorScheme-Highlight { color:#5294e2; }
  </style>
 </defs>
 <path style="fill:currentColor" class="ColorScheme-Text" d="m5.9688 5s-1.9688 0-1.9688 2v3 2 1a3 3 0 0 1 3 -3 3 3 0 0 1 3 3 3 3 0 0 1 -0.7676 2h1.7676l2 3.004 2-3.004h1s2 0 2-2v-6c0-2-2-2-2-2h-10.031z"/>
 <circle style="fill:currentColor" class="ColorScheme-Highlight" cx="7" cy="13" r="2"/>
</svg>
