<svg xmlns="http://www.w3.org/2000/svg" width="22" height="22" version="1">
 <defs>
  <style id="current-color-scheme" type="text/css">
   .ColorScheme-Text { color:#e6e6fa; } .ColorScheme-Highlight { color:#5294e2; }
  </style>
 </defs>
 <path style="fill:currentColor" class="ColorScheme-Text" d="m11 3c-4.432 0-8 3.568-8 8s3.568 8 8 8 8-3.568 8-8-3.568-8-8-8zm-5 4h1v5.4121s-0.00159 0.35817 0.28125 0.75195c0.2829 0.394 0.8348 0.836 2.2188 0.836 0.1057 0 0.1362-0.036 0.2324-0.041-0.0713-0.077-0.2069-0.132-0.2636-0.211-0.4672-0.65-0.4688-1.336-0.4688-1.336v-4.3398l0.00391-0.0293s0.023825-0.14462 0.083984-0.26367c0.0601-0.119 0.1631-0.2585 0.3203-0.3808 0.3143-0.2445 0.8148-0.4097 1.5998-0.3984 0.7801 0.01119 1.2658 0.1747 1.5762 0.4082 0.15521 0.11675 0.26015 0.25098 0.32227 0.36719s0.08984 0.26172 0.08984 0.26172l0.0039 0.0332v4.3418s-0.0016 0.68558-0.46875 1.3359c-0.05676 0.07903-0.19237 0.13433-0.26367 0.21094 0.096 0.005 0.126 0.041 0.232 0.041 1.384 0 1.936-0.442 2.219-0.836s0.281-0.752 0.281-0.752v-5.412h1v5.4121s-0.0016 0.68558-0.46875 1.3359c-0.467 0.65-1.415 1.252-3.031 1.252-0.622 0-1.065-0.148-1.5-0.295-0.435 0.147-0.878 0.295-1.5 0.295-1.6161 0-2.5641-0.602-3.0312-1.252-0.4672-0.65-0.4688-1.336-0.4688-1.336v-5.412zm4.9922 1c-0.63905-0.0092-0.88911 0.12554-0.96875 0.1875-0.02172 0.0169-0.01804 0.01642-0.02344 0.02344v4.2012s-0.00162 0.35816 0.28125 0.75195c0.14343 0.19968 0.36351 0.40974 0.71875 0.57031 0.35523-0.16057 0.57533-0.37064 0.71875-0.57031 0.283-0.394 0.281-0.752 0.281-0.752v-4.1895c-0.0065-0.0066 0.000046-0.0019-0.01563-0.01367-0.083-0.0626-0.348-0.1996-0.992-0.2088z"/>
 <circle style="fill:currentColor" class="ColorScheme-Highlight" cx="20" cy="17" r="2"/>
</svg>
