<svg xmlns="http://www.w3.org/2000/svg" style="isolation:isolate" width="16" height="16" viewBox="0 0 16 16">
 <defs>
  <clipPath id="_clipPath_H5xXxl8bPcZYkJAhB2pNKp6fEW2PHQQ4">
   <rect width="16" height="16"/>
  </clipPath>
 </defs>
 <g clip-path="url(#_clipPath_H5xXxl8bPcZYkJAhB2pNKp6fEW2PHQQ4)">
  <path fill="#e6e6fa" fill-rule="evenodd" d="M 0.924 8 C 0.924 4.137 4.094 1 8 1 C 11.906 1 15.076 4.137 15.076 8 C 15.076 11.863 11.906 15 8 15 C 4.094 15 0.924 11.863 0.924 8 Z M 2.625 8 C 2.625 5.065 5.033 2.683 8 2.683 C 10.967 2.683 13.375 5.065 13.375 8 C 13.375 10.935 10.967 13.317 8 13.317 C 5.033 13.317 2.625 10.935 2.625 8 Z M 7.988 12.424 L 7.988 12.424 L 7.988 12.424 Q 6.629 12.424 5.801 11.696 L 5.801 11.696 L 5.801 11.696 Q 4.972 10.969 4.972 9.801 L 4.972 9.801 L 4.972 9.801 Q 4.972 9.086 5.372 8.538 L 5.372 8.538 L 5.372 8.538 Q 5.771 7.99 6.462 7.703 L 6.462 7.703 L 6.462 7.703 Q 5.962 7.465 5.64 7.018 L 5.64 7.018 L 5.64 7.018 Q 5.318 6.571 5.318 5.987 L 5.318 5.987 L 5.318 5.987 Q 5.318 5.022 6.051 4.408 L 6.051 4.408 L 6.051 4.408 Q 6.784 3.794 7.988 3.794 L 7.988 3.794 L 7.988 3.794 Q 9.204 3.794 9.943 4.408 L 9.943 4.408 L 9.943 4.408 Q 10.682 5.022 10.682 5.987 L 10.682 5.987 L 10.682 5.987 Q 10.682 6.571 10.354 7.018 L 10.354 7.018 L 10.354 7.018 Q 10.026 7.465 9.514 7.692 L 9.514 7.692 L 9.514 7.692 Q 10.205 7.978 10.616 8.538 L 10.616 8.538 L 10.616 8.538 Q 11.027 9.098 11.027 9.801 L 11.027 9.801 L 11.027 9.801 Q 11.027 10.969 10.193 11.696 L 10.193 11.696 L 10.193 11.696 Q 9.359 12.424 7.988 12.424 Z M 7.07 6.827 L 7.07 6.827 L 7.07 6.827 Q 7.416 7.119 7.988 7.119 L 7.988 7.119 L 7.988 7.119 Q 8.56 7.119 8.918 6.827 L 8.918 6.827 L 8.918 6.827 Q 9.275 6.535 9.275 6.094 L 9.275 6.094 L 9.275 6.094 Q 9.275 5.63 8.918 5.343 L 8.918 5.343 L 8.918 5.343 Q 8.56 5.057 7.988 5.057 L 7.988 5.057 L 7.988 5.057 Q 7.416 5.057 7.07 5.343 L 7.07 5.343 L 7.07 5.343 Q 6.725 5.63 6.725 6.094 L 6.725 6.094 L 6.725 6.094 Q 6.725 6.535 7.07 6.827 Z M 6.838 10.761 L 6.838 10.761 L 6.838 10.761 Q 7.285 11.148 7.988 11.148 L 7.988 11.148 L 7.988 11.148 Q 8.691 11.148 9.144 10.761 L 9.144 10.761 L 9.144 10.761 Q 9.597 10.373 9.597 9.754 L 9.597 9.754 L 9.597 9.754 Q 9.597 9.158 9.144 8.764 L 9.144 8.764 L 9.144 8.764 Q 8.691 8.371 7.988 8.371 L 7.988 8.371 L 7.988 8.371 Q 7.285 8.371 6.838 8.764 L 6.838 8.764 L 6.838 8.764 Q 6.391 9.158 6.391 9.754 L 6.391 9.754 L 6.391 9.754 Q 6.391 10.373 6.838 10.761 Z"/>
  <rect fill="#e6e6fa" width="4.625" height="3.594" x="18.19" y="-.16" transform="matrix(1,0,0,1,0,0)"/>
 </g>
</svg>
