<svg xmlns="http://www.w3.org/2000/svg" style="isolation:isolate" width="16" height="16" viewBox="0 0 16 16">
 <defs>
  <clipPath id="_clipPath_y4BeYtipqGSfeT80MoryIq7bghoT7k7X">
   <rect width="16" height="16"/>
  </clipPath>
 </defs>
 <g clip-path="url(#_clipPath_y4BeYtipqGSfeT80MoryIq7bghoT7k7X)">
  <rect fill="#e6e6fa" width="4.625" height="3.594" x="18.19" y="-.16" transform="matrix(1,0,0,1,0,0)"/>
  <path fill="#e6e6fa" fill-rule="evenodd" d="M 1.778 0 C 0.798 0 0 0.798 0 1.778 L 0 14.222 C 0 15.202 0.798 16 1.778 16 L 14.222 16 C 15.202 16 16 15.202 16 14.222 L 16 1.778 C 16 0.798 15.202 0 14.222 0 L 1.778 0 Z M 2.75 3.177 L 2.75 13.521 L 4.648 13.521 L 4.648 9.573 C 4.895 9.619 5.223 9.633 5.58 9.633 C 6.935 9.633 8.131 9.277 8.896 8.514 C 9.486 7.953 9.796 7.128 9.796 6.133 C 9.796 5.155 9.394 4.33 8.769 3.815 C 8.102 3.257 7.075 2.961 5.675 2.961 C 4.384 2.961 3.435 3.053 2.75 3.18 L 2.75 3.177 M 4.648 8.063 L 4.648 4.518 C 4.852 4.471 5.223 4.423 5.752 4.423 C 7.075 4.423 7.884 5.047 7.884 6.212 C 7.884 7.443 7.012 8.141 5.58 8.141 C 5.192 8.141 4.881 8.127 4.648 8.064 L 4.648 8.063 M 11.32 13.522 L 13.25 13.522 L 13.25 2.478 L 11.32 2.478 L 11.32 13.522 M 2.75 3.177 Z"/>
 </g>
</svg>
