<svg xmlns="http://www.w3.org/2000/svg" style="isolation:isolate" width="16" height="16" viewBox="0 0 16 16">
 <defs>
  <clipPath id="_clipPath_9XYJaLYPtD2L8KJIrJggsnN782sI1taW">
   <rect width="16" height="16"/>
  </clipPath>
 </defs>
 <g clip-path="url(#_clipPath_9XYJaLYPtD2L8KJIrJggsnN782sI1taW)">
  <rect fill="#e6e6fa" width="4.625" height="3.594" x="18.19" y="-.16" transform="matrix(1,0,0,1,0,0)"/>
  <path fill="#e6e6fa" d="M 1.778 0 C 0.796 0 0 0.796 0 1.778 L 0 14.222 C 0 15.204 0.796 16 1.778 16 L 14.222 16 C 15.204 16 16 15.204 16 14.222 L 16 1.778 C 16 0.796 15.204 0 14.222 0 L 1.778 0 Z M 10.028 3.861 L 11.5 3.861 L 11.5 11.861 L 10.166 11.861 L 10.111 11.306 C 9.969 11.517 9.608 11.972 8.944 11.972 C 8.348 11.972 7.111 11.743 7.111 9.25 L 7.111 8.889 C 7.111 7.964 7.24 6.139 8.945 6.139 C 9.552 6.139 9.892 6.517 10.028 6.694 L 10.028 3.861 Z M 4.556 4.277 L 6.084 4.277 L 6.084 11.861 L 4.556 11.861 L 4.556 4.277 Z M 9.361 7.362 C 8.517 7.362 8.583 8.465 8.583 8.889 L 8.583 9.25 C 8.583 10.587 8.948 10.75 9.361 10.75 C 9.638 10.754 9.895 10.604 10.028 10.361 L 10.028 7.778 C 9.958 7.646 9.75 7.361 9.361 7.361 L 9.361 7.362 Z"/>
 </g>
</svg>
