<svg xmlns="http://www.w3.org/2000/svg" style="isolation:isolate" width="16" height="16" viewBox="0 0 16 16">
 <path fill="#e6e6fa" d="M 6.128 6.154 C 6.145 6.088 6.154 6.02 6.154 5.949 L 6.154 0.82 C 6.154 0.368 5.786 0 5.334 0 L 4.513 0 L 4.513 0 C 4.06 0 3.692 0.368 3.692 0.82 L 3.692 5.949 C 3.692 6.02 3.701 6.088 3.718 6.154 L 2.666 6.154 C 2.214 6.154 1.846 6.521 1.846 6.974 L 1.846 15.18 C 1.846 15.632 2.214 16 2.666 16 L 13.334 16 C 13.786 16 14.154 15.632 14.154 15.18 L 14.154 6.974 C 14.154 6.521 13.786 6.154 13.334 6.154 L 12.282 6.154 C 12.299 6.088 12.308 6.02 12.308 5.949 L 12.308 0.82 C 12.308 0.368 11.94 0 11.487 0 L 10.666 0 L 10.666 0 C 10.214 0 9.846 0.368 9.846 0.82 L 9.846 5.949 C 9.846 6.02 9.855 6.088 9.872 6.154 L 6.128 6.154 Z"/>
</svg>
