<svg xmlns="http://www.w3.org/2000/svg" width="16" height="16" version="1.1">
 <defs>
  <style id="current-color-scheme" type="text/css">
   .ColorScheme-Text { color:#e6e6fa; } .ColorScheme-Highlight { color:#e6e6fa; } .ColorScheme-ButtonBackground { color:#e6e6fa; }
  </style>
 </defs>
 <path style="fill:currentColor" class="ColorScheme-Text" d="m 6.924694,-1.25e-5 c -0.496292,0 -0.511792,0.002 -0.556612,0.07039 C 6.331032,0.1269275 5.619458,1.6222733 5.093908,2.7481232 5.038098,2.8676782 4.863131,3.2381379 4.705158,3.571183 4.35802,4.3030367 3.685385,5.7281477 3.525277,6.0709842 3.461467,6.2076182 3.282856,6.5848498 3.128311,6.9093559 2.827568,7.5408416 2.692103,7.9047522 2.60531,8.3155405 2.55826,8.5382064 2.55704,8.5784599 2.59541,8.6139181 c 0.03881,0.035858 0.697557,0.1676965 1.124238,0.2249975 0.330996,0.044451 0.145673,0.073381 -0.470346,0.073381 -0.551079,0 -0.659311,0.00747 -0.700572,0.048733 C 2.50864,9.0011186 2.5,9.0942239 2.5,9.482724 c 0,0.3264033 0.01162,0.484397 0.03734,0.510118 0.0264,0.0264 0.211347,0.03734 0.63466,0.03734 0.328621,0 0.60477,0.01154 0.61356,0.02577 0.01465,0.0237 -0.372577,0.104624 -0.936212,0.195495 -0.123808,0.01996 -0.241933,0.0566 -0.262527,0.08141 -0.07843,0.0945 0.139866,0.881132 0.396965,1.430646 0.245464,0.524643 0.592189,1.032098 0.988307,1.446329 0.112611,0.117761 0.204831,0.223267 0.204831,0.23452 0,0.01125 -0.04889,0.06791 -0.10867,0.125849 -0.162348,0.157354 -0.147805,0.232214 0.08122,0.417318 0.904621,0.731133 1.982805,1.172809 3.179274,1.302182 0.06832,0.0074 0.361677,0.0085 0.652024,0.0026 0.801939,-0.01622 1.408386,-0.141825 2.141861,-0.443832 0.589433,-0.242698 1.510114,-0.838923 1.532408,-0.992415 0.0062,-0.04302 -0.03251,-0.120175 -0.104937,-0.208566 l -0.115012,-0.140211 0.253378,-0.25618 c 0.672671,-0.680347 1.14677,-1.527513 1.378924,-2.463764 0.08607,-0.347121 0.09088,-0.390668 0.04799,-0.433563 -0.03001,-0.03001 -0.271168,-0.08733 -0.650345,-0.154417 -0.331437,-0.05864 -0.613746,-0.10668 -0.627564,-0.106804 -0.01381,-1.37e-4 -0.01632,-0.01466 -0.0054,-0.0323 0.01272,-0.02058 0.252414,-0.03087 0.66883,-0.02875 0.356918,0.0018 0.663122,-0.0056 0.680592,-0.01643 0.0474,-0.02929 0.04238,-1.0178158 -0.0054,-1.0656075 -0.0268,-0.026803 -0.235926,-0.037157 -0.745198,-0.037157 -0.682691,0 -0.905693,-0.031667 -0.525429,-0.074688 0.10043,-0.011362 0.361801,-0.0552 0.580885,-0.097281 0.219083,-0.042081 0.428792,-0.076555 0.466052,-0.076555 0.03726,0 0.0991,-0.02536 0.137425,-0.05639 l 0.06965,-0.056398 -0.100081,-0.3861359 c -0.05502,-0.2123455 -0.106793,-0.4148913 -0.115206,-0.4501774 -0.01327,-0.055646 0.01392,-0.074165 0.205766,-0.1394791 0.159979,-0.054464 0.225282,-0.092489 0.236013,-0.137612 0.0082,-0.034314 0.01094,-0.4328252 0.0062,-0.8854243 -0.0085,-0.8044929 -0.0106,-0.8285421 -0.09411,-1.0758785 -0.04698,-0.1391484 -0.102634,-0.2584692 -0.123795,-0.2651421 -0.02116,-0.00668 -0.220121,-0.00452 -0.442151,0.00467 l -0.403688,0.016618 -0.09317,0.2864275 c -0.05124,0.1575227 -0.10666,0.2822784 -0.123048,0.2772785 -0.01639,-0.005 -0.160825,-0.287546 -0.321158,-0.627937 C 9.98478,1.3334259 9.389138,0.0786885 9.356231,0.0388265 c -0.02325,-0.02816 -0.171425,-0.03884 -0.53962,-0.03884 -0.469951,0 -0.509851,0.0045 -0.539619,0.06012 -0.02056,0.03843 -0.03212,0.49141195 -0.03212,1.2575562 V 2.515282 H 7.872108 7.499603 V 1.3176675 c 0,-0.76614405 -0.01155,-1.21913 -0.03212,-1.257556 C 7.437703,0.0044615 7.397693,-8.5e-6 6.92469,-8.5e-6 Z m -0.379228,0.248524 h 0.3529 0.352713 v 1.1341344 1.1341347 l -0.07767,0.029502 c -0.06944,0.026402 -0.07815,0.048536 -0.0829,0.2089392 -0.0029,0.098629 -0.0075,0.2003117 -0.01008,0.2259307 -0.0026,0.025619 -0.0155,0.301572 -0.02875,0.6133738 C 7.028479,4.1404802 7.025029,4.162001 6.960749,4.1748507 6.128592,4.3412117 5.463315,4.6083598 4.843163,5.0253583 4.690171,5.128232 4.435759,5.3255977 4.277776,5.4639621 4.119793,5.6023255 3.990601,5.7068216 3.990601,5.6960551 c 0,-0.010768 0.09977,-0.2312183 0.221823,-0.4899522 C 4.334477,4.9473689 4.493463,4.6097634 4.565698,4.4560503 4.637928,4.3023373 5.063311,3.4011935 5.511059,2.4532963 5.958808,1.505398 6.374732,0.62155645 6.435321,0.4891925 Z m 1.947859,0 0.349352,3.73e-4 0.349352,5.6e-4 0.45709,0.9698218 c 0.422129,0.8957061 0.658379,1.3967349 1.7434,3.6951803 0.215754,0.4570419 0.392298,0.837848 0.392298,0.846213 0,0.039734 -0.0615,-0.00769 -0.232839,-0.1792508 C 10.861983,4.8904884 9.890381,4.4023765 8.752492,4.1748504 8.672402,4.1588364 8.658722,4.0604518 8.632244,3.3071645 8.611504,2.7171378 8.596124,2.5931617 8.537394,2.544415 8.500704,2.513967 8.493324,2.3168011 8.493324,1.3781647 Z M 6.569926,1.4319399 c -0.162371,-0.014173 -0.333443,0.060294 -0.4246,0.1994165 -0.122737,0.1873194 -0.03083,0.5082545 0.17533,0.6122534 0.130893,0.06603 0.245713,0.068927 0.387443,0.00971 C 7.00786,2.1280708 7.01951,1.6282374 6.726209,1.4765664 6.677349,1.4512994 6.624049,1.4366644 6.569924,1.4319404 Z m 2.639655,0 C 9.04721,1.4177669 8.875951,1.4922339 8.784794,1.6313564 8.662057,1.8186758 8.753964,2.1396109 8.960123,2.2436098 c 0.130894,0.06603 0.245713,0.068927 0.387444,0.00971 C 9.647329,2.1280708 9.658979,1.6282374 9.365677,1.4765664 9.316817,1.4512994 9.263704,1.4366644 9.20958,1.4319404 Z M 6.526794,1.676916 c 0.153106,0 0.223073,0.2355698 0.09635,0.3243319 -0.03796,0.026587 -0.08374,0.04836 -0.101761,0.04836 -0.01802,0 -0.0638,-0.021773 -0.101763,-0.04836 C 6.287453,1.9086739 6.36404,1.676916 6.526797,1.676916 Z m 2.639468,0 c 0.153106,0 0.223074,0.2355698 0.09635,0.3243319 -0.09085,0.063635 -0.15817,0.060921 -0.221076,-0.00859 C 8.93577,1.8757883 9.014326,1.6769152 9.166264,1.6769152 Z M 7.348734,2.7638105 h 0.495554 c 0.368598,0 0.498995,0.00978 0.508997,0.038651 0.0074,0.021349 0.03499,0.54902 0.06124,1.1724122 0.02625,0.6233922 0.0542,1.2242166 0.06199,1.3352317 0.0078,0.111015 0.02305,0.4254371 0.03398,0.6987042 0.01093,0.2732681 0.02448,0.5387963 0.03006,0.5900343 0.0056,0.051238 0.01283,0.2537694 0.01624,0.4501805 l 0.0063,0.3571947 -0.205765,0.00915 -0.205765,0.00915 V 7.2223013 c 0,-0.2104491 -0.04454,-0.2799563 -0.155164,-0.2419886 -0.07525,0.025827 -0.09232,0.073878 -0.0928,0.2629012 -4.52e-4,0.1696305 -0.0043,0.1785041 -0.07805,0.1785041 -0.0748,0 -0.07767,-0.00729 -0.07767,-0.2007236 0,-0.208972 -0.04479,-0.2785643 -0.155165,-0.2406817 -0.07525,0.025827 -0.09232,0.073878 -0.0928,0.2629012 L 7.499542,7.421718 H 7.310582 7.121809 l 0.01848,-0.3803482 c 0.0101,-0.2092205 0.03221,-0.6878115 0.04911,-1.0635546 0.05816,-1.2933781 0.06311,-1.3982396 0.07749,-1.6149371 0.0079,-0.119555 0.02196,-0.4548507 0.03118,-0.7451978 0.0092,-0.2903471 0.02449,-0.601196 0.0338,-0.6908625 z m 2.201796,0.030996 c -0.169784,0 -0.425509,0.1405148 -0.522441,0.286988 -0.118904,0.1796762 -0.133679,0.4619281 -0.03454,0.6604271 0.07757,0.1553105 0.185568,0.2485596 0.365597,0.3157428 0.247465,0.09235 0.593433,-0.0213 0.740343,-0.2432956 C 10.216832,3.637352 10.236726,3.3276834 10.142619,3.1432252 10.036096,2.9344205 9.798783,2.7948065 9.55053,2.7948065 Z m -3.466634,0.00635 c -0.05401,9.747e-4 -0.106925,0.00889 -0.156659,0.024834 -0.289823,0.092931 -0.452421,0.31777 -0.452421,0.6255106 0,0.2945439 0.145863,0.498078 0.433563,0.6051581 0.157446,0.0586 0.386811,0.031498 0.551756,-0.065165 C 6.733553,3.8312603 6.831457,3.4270284 6.671688,3.1180201 6.572048,2.9253014 6.317928,2.7969331 6.083896,2.8011565 Z M 9.565095,3.043145 c 0.134884,0 0.356635,0.1483031 0.356635,0.2384409 0,0.031798 -0.08133,0.041078 -0.357195,0.041078 -0.196411,0 -0.357008,-0.010808 -0.357008,-0.024087 0,-0.1020506 0.214641,-0.2554324 0.357568,-0.2554319 z M 6.139538,3.047995 C 6.259329,3.054295 6.373214,3.121073 6.445011,3.2388223 6.567292,3.43937 6.490821,3.6986405 6.279764,3.7987943 6.137343,3.8663793 6.047067,3.8640353 5.92537,3.7898343 5.789564,3.7070283 5.725975,3.5998549 5.7239,3.4496312 5.7218,3.3007872 5.78771,3.1879505 5.92537,3.1040133 5.99379,3.0622943 6.067663,3.0442163 6.139538,3.0479973 Z m 3.432839,0.5142257 c 0.279867,0.00504 0.36241,0.015801 0.35458,0.046493 C 9.911387,3.6697557 9.822612,3.7589022 9.729222,3.8071967 9.613125,3.8672317 9.489237,3.8612587 9.3724,3.7900187 9.28075,3.7341377 9.207541,3.6411669 9.207527,3.5808928 c -3e-6,-0.01393 0.164166,-0.022286 0.36485,-0.018672 z m -0.900922,0.8702998 0.182612,0.022593 c 0.246047,0.030512 0.853757,0.2327918 1.202474,0.4003267 0.46658,0.2241601 0.469329,0.1366198 -0.02502,0.8234331 C 9.795939,6.0061719 9.594564,6.2788291 9.583953,6.2847783 9.573343,6.2907283 9.452832,6.2410893 9.316198,6.1744277 9.179565,6.1077657 8.996098,6.0323721 8.908589,6.0067531 L 8.749504,5.9600731 8.729334,5.4254946 C 8.718224,5.1314623 8.700654,4.7876942 8.690314,4.661625 Z m -1.735558,0.00803 h 0.07543 L 6.990787,5.0229289 C 6.979557,5.3431641 6.962337,5.6760753 6.952507,5.7628987 L 6.934767,5.9208631 6.71257,5.9916301 C 5.826054,6.2740424 5.06442,6.9262227 4.644091,7.7632254 4.530895,7.9886311 4.388764,8.3868136 4.347393,8.5939405 4.323263,8.7147364 4.354693,8.7142421 3.757546,8.6027205 3.501358,8.5548765 3.190508,8.4989682 3.066684,8.4783654 2.937259,8.4568294 2.8415,8.4254384 2.8415,8.4046104 2.8415,8.3846844 2.87473,8.2497922 2.91525,8.1047387 3.313011,6.6808383 4.324125,5.486291 5.674779,4.8448018 6.084363,4.6502704 6.738441,4.440554 6.935883,4.440554 Z m 3.745968,0.7909437 c 0.08336,0.00249 0.489798,0.3294295 0.823619,0.666963 0.299709,0.30304 0.588282,0.665726 0.555678,0.6983305 -0.0074,0.00745 -0.346337,0.1332574 -0.75304,0.2795194 C 10.901421,7.02257 10.559392,7.1401642 10.547987,7.1375276 10.536577,7.1348876 10.401455,7.0044766 10.247741,6.8479262 10.094027,6.6913747 9.926284,6.5340509 9.87505,6.4981998 L 9.78188,6.4330348 9.84723,6.3605878 c 0.0359,-0.0398 0.22982,-0.3028114 0.430949,-0.5846185 0.201128,-0.2818081 0.377244,-0.5250968 0.391364,-0.5405535 0.0026,-0.00281 0.0068,-0.00409 0.01232,-0.00392 z m 2.168934,0.201844 c 0.158882,-0.00411 0.195528,0.045422 0.223504,0.1951224 l 0.02166,0.1163256 H 12.76659 c -0.181233,0 -0.329561,-0.00878 -0.329561,-0.019605 0,-0.010828 0.01574,-0.072124 0.03492,-0.1361188 0.03215,-0.1073162 0.04558,-0.1178256 0.174957,-0.1355585 0.08436,-0.011563 0.150937,-0.018797 0.203897,-0.020166 z m 0.300432,0.5564241 v 0.5140396 c 0,0.2827899 -0.01053,0.513837 -0.02334,0.5132921 -0.02961,-0.00125 -0.201989,-0.1262499 -0.232839,-0.168795 -0.01282,-0.017678 -0.01978,-0.213773 -0.0155,-0.4358031 l 0.0077,-0.4036881 0.132011,-0.00952 z m -0.652212,0.00355 h 0.124356 v 0.3415106 c 0,0.187872 -0.0036,0.3406271 -0.0078,0.339456 -0.0043,-0.00117 -0.06369,-0.044076 -0.132011,-0.095414 -0.121268,-0.091126 -0.124077,-0.097557 -0.118007,-0.2696228 0.0034,-0.096936 0.007,-0.207668 0.0078,-0.2460965 0.0013,-0.060558 0.01801,-0.069833 0.125661,-0.069833 z m -5.594865,0.21006 c 0.01072,-5.16e-5 0.01759,0.00181 0.02017,0.00598 0.0096,0.015567 0.01125,0.081629 0.0037,0.1467619 -0.0075,0.065133 -0.02331,0.3665885 -0.03529,0.6697632 -0.01661,0.4205587 -0.01267,0.5621744 0.01681,0.597689 0.02906,0.035014 0.107391,0.046493 0.316303,0.046493 h 0.277839 l -0.0099,0.084211 C 7.485786,7.8228764 7.460696,7.8452884 7.358601,7.874704 7.191041,7.922981 6.940076,8.0520896 6.824022,8.1497425 6.772152,8.1933865 6.724782,8.2280935 6.718713,8.2268575 6.712613,8.2256175 6.410184,7.9775803 6.046709,7.6756608 L 5.385908,7.126705 5.581031,6.9444667 C 5.811436,6.7291603 6.041994,6.5679273 6.319133,6.4281872 6.568593,6.3024038 6.829106,6.2037404 6.904125,6.2033771 Z m 1.920598,0.044066 c 0.0096,0.0018 0.0207,0.00496 0.03342,0.00803 0.181238,0.04368 0.656381,0.3023449 0.915112,0.498168 0.246486,0.1865537 0.517956,0.4641878 0.485658,0.4964874 -0.0072,0.00719 -0.34098,0.1313196 -0.741836,0.2759716 -0.400858,0.1446521 -0.802782,0.2920947 -0.89308,0.3276925 -0.0903,0.035598 -0.16703,0.063396 -0.170662,0.061617 -0.0036,-0.00178 -0.0731,-0.023714 -0.154231,-0.048547 -0.12337,-0.037765 -0.147508,-0.057385 -0.147508,-0.1208074 0,-0.075283 0.0023,-0.075995 0.30678,-0.075995 0.216599,0 0.316675,-0.012054 0.340763,-0.041079 0.02443,-0.029437 0.02585,-0.1990095 0.0047,-0.5976891 -0.03905,-0.7350946 -0.04612,-0.7964232 0.02091,-0.7838489 z m 3.488855,0.5220682 0.107925,0.07002 c 0.05933,0.038443 0.103524,0.082887 0.0984,0.098961 -0.0051,0.016075 -0.18307,0.094061 -0.395472,0.1732758 C 11.593985,7.3096026 10.597228,7.6792378 9.797561,7.9745944 8.94062,8.2911054 9.024644,8.273142 8.89888,8.1659826 8.84017,8.1159586 8.798797,8.0685196 8.80683,8.0604856 8.81483,8.0524556 9.519635,7.7931142 10.373034,7.484082 11.226432,7.1750508 12.012086,6.8878422 12.119048,6.8458746 Z m 0.471841,0.3613017 c 0.03576,-7.533e-4 0.08293,0.022991 0.162632,0.07917 0.0777,0.054768 0.130705,0.1096106 0.11782,0.1217404 -0.01288,0.012131 -0.393612,0.1553517 -0.846213,0.3183571 -0.4526,0.1630063 -1.263101,0.4563696 -1.801097,0.651838 -0.537996,0.1954685 -1.000975,0.3646707 -1.028825,0.3760539 -0.03636,0.014862 -0.07025,-0.010904 -0.120061,-0.091493 -0.03814,-0.061721 -0.06428,-0.1168944 -0.05807,-0.122488 0.0062,-0.00559 0.228025,-0.089865 0.492753,-0.1874657 0.264728,-0.0976 0.795598,-0.2941788 1.179881,-0.4367372 0.384282,-0.1425584 0.949826,-0.3519443 1.256623,-0.4653054 0.306797,-0.113361 0.58213,-0.2191582 0.61188,-0.2350795 0.01017,-0.00544 0.02076,-0.00834 0.03268,-0.00859 z M 5.219757,7.3285443 c 0.023,0 1.301623,1.0651215 1.301623,1.0842808 0,0.010005 -0.05585,0.1263159 -0.124169,0.2586068 L 6.272856,8.9119262 5.85367,8.9087562 C 5.557232,8.9065162 5.312108,8.8836052 5.016793,8.8303342 4.787098,8.7889002 4.592826,8.7484372 4.584911,8.7405212 4.556991,8.7125982 4.705825,8.2228324 4.812148,7.9927098 4.910198,7.7805056 5.187562,7.3285479 5.219757,7.3285479 Z m 2.605859,0.3415105 c 0.05693,0 0.07767,0.016633 0.07767,0.062178 0,0.045545 -0.02074,0.062177 -0.07767,0.062177 -0.05693,0 -0.07767,-0.016633 -0.07767,-0.062177 0,-0.045545 0.02074,-0.062178 0.07767,-0.062178 z m 4.845372,0.1049358 c 0.05434,0.020737 0.209622,0.6157145 0.167488,0.6417551 -0.0199,0.012301 -0.142818,0.03907 -0.273171,0.059564 -0.130353,0.020493 -0.411647,0.070379 -0.625137,0.1107244 -0.597844,0.1129816 -0.680126,0.1214346 -0.697585,0.072448 -0.03099,-0.086964 -0.08042,-0.3458575 -0.06834,-0.3579414 0.03206,-0.032063 1.468398,-0.5373661 1.496744,-0.5265499 z M 7.825616,8.0427463 c 0.07534,0 0.07767,0.00631 0.07767,0.215101 0,0.154191 0.01376,0.2290509 0.04873,0.2640216 0.05773,0.057731 0.0618,0.058192 0.13948,0.016618 0.05064,-0.027103 0.06012,-0.066274 0.06012,-0.2503909 0,-0.2119557 0.002,-0.2178504 0.06983,-0.1975497 0.187692,0.056189 0.466828,0.2212424 0.608146,0.3596221 0.717152,0.7022472 0.521572,1.8541506 -0.388191,2.2861946 -0.218335,0.103686 -0.271852,0.116039 -0.537752,0.124728 -0.249174,0.0081 -0.327524,-0.0019 -0.500595,-0.06442 C 6.938403,10.628699 6.613843,10.274948 6.486075,9.7973503 6.319498,9.1746857 6.663131,8.4615983 7.266562,8.1783047 7.491144,8.0728698 7.499588,8.0769434 7.499588,8.28903 c 0,0.1259603 0.01535,0.1994521 0.04873,0.2328387 0.05773,0.057731 0.0618,0.058192 0.13948,0.016618 0.05115,-0.027374 0.06012,-0.066437 0.06012,-0.2638342 0,-0.2265577 0.0018,-0.2319066 0.07767,-0.2319066 z m 3.089275,0.3461787 0.04967,0.1708485 c 0.02731,0.093951 0.04287,0.1776456 0.03454,0.1859724 -0.0083,0.00833 -0.208692,0.048813 -0.445325,0.089999 -0.411461,0.071615 -0.973748,0.1023288 -0.973557,0.053215 3.8e-5,-0.012809 0.192228,-0.090644 0.427028,-0.1729029 C 10.242048,8.6338 10.542333,8.5266592 10.674583,8.4778036 Z M 7.8652,8.8230475 c -0.02459,-1.721e-4 -0.04973,8.719e-4 -0.07525,0.00299 -0.330293,0.027391 -0.569868,0.2953584 -0.569868,0.6374607 0,0.2518671 0.162169,0.5102548 0.372692,0.5939548 0.115044,0.04574 0.421914,0.04112 0.539994,-0.0082 0.225735,-0.09432 0.360555,-0.3163977 0.360555,-0.5937683 0,-0.3743101 -0.25934,-0.6298385 -0.628125,-0.6324197 z m -0.0086,0.260101 c 0.163078,0 0.183207,0.00821 0.281946,0.1159528 0.08889,0.096992 0.106244,0.1394533 0.106244,0.259167 0,0.180277 -0.08088,0.299379 -0.24871,0.36653 -0.153,0.06122 -0.142713,0.06154 -0.294644,-0.0084 C 7.551302,9.7472783 7.46841,9.6145363 7.46841,9.4427708 7.46841,9.3407327 7.48986,9.2918283 7.57484,9.1991016 7.67358,9.091359 7.693521,9.0831488 7.8566,9.0831485 Z m -5.108274,0.077488 h 0.403688 0.403687 v 0.093173 0.093173 H 3.152025 2.748337 v -0.093173 z m 1.055899,0 1.203221,1.873e-4 h 1.203408 v 0.310514 0.3105155 H 5.007457 3.804236 V 9.4711509 Z m 5.698308,0 h 1.203221 1.203408 V 9.4711514 9.7816663 H 10.705765 9.502544 V 9.4711509 Z m 2.654966,0 h 0.403687 0.403688 v 0.093173 0.093173 H 12.561186 12.157499 V 9.2538095 Z M 2.748326,9.5955063 h 0.403688 0.403687 v 0.09317 0.09299 H 3.152025 2.748337 v -0.09299 z m 9.409173,0 h 0.403687 0.403688 v 0.09317 0.09299 h -0.403688 -0.403687 v -0.09299 z M 9.42131,10.03019 l 0.366717,0.0013 c 0.324398,0.0011 1.090822,0.107182 1.141604,0.157964 0.008,0.008 -0.0042,0.07665 -0.02707,0.152737 -0.118475,0.393661 -0.433227,0.921401 -0.744637,1.248407 -0.09352,0.09821 -0.174439,0.178524 -0.179811,0.178504 -0.0054,-2e-5 -0.223812,-0.252974 -0.485284,-0.562026 -0.394139,-0.46586 -0.467735,-0.567989 -0.430576,-0.597689 0.07189,-0.05746 0.236439,-0.302014 0.300246,-0.44626 z m -3.592298,0.0021 c 0.221008,-0.005 0.415743,10e-4 0.443833,0.02166 0.01708,0.01255 0.06523,0.09072 0.10699,0.173649 0.04176,0.08293 0.12071,0.207323 0.175329,0.276346 l 0.09934,0.125475 -0.500035,0.569868 c -0.275027,0.313454 -0.516626,0.569868 -0.53682,0.569868 -0.06091,0 -0.385316,-0.371277 -0.564639,-0.646237 C 4.88226,10.861108 4.688323,10.452851 4.65455,10.283988 4.63379,10.180167 4.59527,10.193978 5.228339,10.07785 5.360831,10.05354 5.608008,10.03734 5.829016,10.03229 Z m 5.412814,0.196242 c 0.0043,-4.3e-4 0.0085,2.2e-5 0.01307,0.0013 0.02672,0.0076 0.216288,0.04376 0.42124,0.08048 0.751264,0.134583 1.174435,0.216379 1.187349,0.229292 0.02797,0.02797 -0.156477,0.62803 -0.285681,0.929303 -0.252544,0.588854 -0.551552,1.046895 -1.005474,1.540766 -0.142089,0.154594 -0.274681,0.280317 -0.294643,0.279333 -0.01996,-9.81e-4 -0.284159,-0.296955 -0.587233,-0.657627 l -0.55101,-0.655759 0.195683,-0.204084 c 0.360904,-0.376544 0.66596,-0.891319 0.815964,-1.376684 0.036,-0.116475 0.06087,-0.163356 0.09075,-0.166367 z m -6.907691,0.01961 c 0.03233,-4.04e-4 0.0674,0.05936 0.10419,0.177944 0.145723,0.469763 0.439324,0.963627 0.807002,1.357078 l 0.20147,0.215661 -0.176823,0.203151 c -0.09734,0.111702 -0.295858,0.336684 -0.441032,0.500035 -0.145173,0.163351 -0.30893,0.348732 -0.363916,0.411904 -0.05499,0.06317 -0.105197,0.114832 -0.111659,0.114832 -0.0065,0 -0.08803,-0.0803 -0.181304,-0.178504 -0.424512,-0.447 -0.795359,-1.001106 -1.022103,-1.527045 -0.122195,-0.283432 -0.308461,-0.865714 -0.308461,-0.964593 0,-0.04184 0.04581,-0.06132 0.209686,-0.08925 0.115285,-0.01965 0.440237,-0.07725 0.722045,-0.128091 0.281807,-0.05083 0.534136,-0.09284 0.560905,-0.09317 z m 2.535466,0.562587 c 0.01798,0.0035 0.04395,0.01805 0.0661,0.03809 0.07092,0.06418 0.32329,0.174519 0.517027,0.226117 0.363515,0.09681 0.891009,0.02575 1.220399,-0.1645 0.07335,-0.04237 0.145555,-0.07266 0.160391,-0.06722 0.025,0.0092 0.263024,0.289067 1.916864,2.254639 0.575864,0.684408 0.60524,0.725686 0.549703,0.769471 -0.210697,0.166115 -0.753243,0.502796 -1.018182,0.631859 -0.553625,0.269695 -1.205595,0.461157 -1.788587,0.525242 -0.314331,0.03455 -0.948107,0.03581 -1.274362,0.0024 -0.306738,-0.03139 -0.85566,-0.159005 -1.19929,-0.278774 -0.540332,-0.18833 -1.26677,-0.591299 -1.640145,-0.909699 l -0.123421,-0.105123 0.263087,-0.29259 c 0.144732,-0.160933 0.500784,-0.563485 0.791131,-0.894386 1.169208,-1.332513 1.518257,-1.724732 1.544358,-1.735184 0.0038,-0.0015 0.0089,-0.0015 0.01494,-3.74e-4 z m -0.105486,0.927436 c -0.259399,0 -0.429513,0.132927 -0.488085,0.381468 -0.04233,0.179618 0.114786,0.464224 0.291843,0.528416 0.120227,0.04359 0.335422,0.01971 0.434869,-0.04817 0.381202,-0.260204 0.214592,-0.86171 -0.238627,-0.86171 z m 2.113666,1.86e-4 c -0.47506,3.64e-4 -0.657801,0.597528 -0.263462,0.860964 0.197611,0.132013 0.468301,0.08219 0.635967,-0.117073 0.06606,-0.07851 0.08141,-0.128597 0.08141,-0.266635 0,-0.305363 -0.1637,-0.477476 -0.453915,-0.477256 z m -1.04451,0.189147 c -0.133963,0.0011 -0.270847,0.0589 -0.371011,0.177944 -0.11464,0.136241 -0.137634,0.309211 -0.0633,0.476882 0.06949,0.15675 0.119735,0.203606 0.278772,0.260287 0.3975,0.141672 0.747499,-0.253764 0.573229,-0.64773 -0.07808,-0.176568 -0.245453,-0.268853 -0.417692,-0.267435 z m -1.079612,0.04164 c 0.02532,9.19e-4 0.05118,0.01103 0.08907,0.03062 0.148699,0.0769 0.175547,0.242778 0.05714,0.35402 -0.118609,0.111427 -0.274423,0.08459 -0.349352,-0.06031 -0.03966,-0.0767 -0.04083,-0.104737 -0.0069,-0.175515 0.0222,-0.04632 0.07841,-0.102343 0.124729,-0.124543 0.03534,-0.01694 0.06001,-0.02519 0.08533,-0.02427 z m 2.112732,0 c 0.02529,-9.62e-4 0.04999,0.0071 0.08496,0.0239 0.116306,0.05577 0.165245,0.163919 0.125662,0.277465 -0.01724,0.04947 -0.05689,0.103716 -0.08813,0.120435 -0.193635,0.103631 -0.400961,-0.08631 -0.321157,-0.294271 0.01061,-0.02765 0.05994,-0.07123 0.109604,-0.09691 0.03777,-0.01953 0.06378,-0.02966 0.08907,-0.03062 z m -1.028825,0.211926 c 0.126914,0.0073 0.249257,0.12336 0.208939,0.284002 -0.011,0.04381 -0.06076,0.10038 -0.111099,0.126408 -0.117269,0.06064 -0.132146,0.0597 -0.227984,-0.01568 -0.107755,-0.08476 -0.127441,-0.163872 -0.06909,-0.276718 0.04539,-0.08777 0.12308,-0.122406 0.19923,-0.118007 z m 1.293966,0.592088 c -0.05191,0.0016 -0.105882,0.01307 -0.160392,0.03585 -0.168153,0.07026 -0.247752,0.154611 -0.290722,0.308088 -0.06591,0.235417 0.05519,0.484785 0.278585,0.573602 0.18508,0.07359 0.399053,0.01455 0.535885,-0.148068 0.268002,-0.318501 -10e-7,-0.780931 -0.363356,-0.769472 z m -2.611086,0.0056 c -0.03703,9.39e-4 -0.07463,0.0064 -0.112592,0.01662 -0.427275,0.115054 -0.475955,0.707184 -0.07282,0.886359 0.296516,0.131787 0.667709,-0.100883 0.667709,-0.418626 0,-0.28048 -0.223102,-0.490927 -0.482296,-0.48435 z m 2.604551,0.232652 c 0.02562,0 0.08973,0.03607 0.14228,0.08029 0.117011,0.09846 0.123571,0.20487 0.01923,0.309209 -0.04192,0.04192 -0.112408,0.07618 -0.156659,0.07618 -0.09719,0 -0.232838,-0.127157 -0.232838,-0.218275 0,-0.07551 0.15837,-0.247404 0.227984,-0.247404 z m -1.291539,0.0013 c -0.237027,0.0074 -0.470544,0.184137 -0.4696,0.45653 6.32e-4,0.182268 0.07633,0.333116 0.207072,0.412837 0.141651,0.08637 0.384889,0.08181 0.521881,-0.0097 C 8.312071,13.725896 8.368158,13.41437 8.214179,13.198127 8.119239,13.06479 7.975674,13.008263 7.833458,13.012714 Z m -1.293967,0.0024 c 0.04162,0.0021 0.08261,0.02595 0.132571,0.07226 0.103556,0.09597 0.105815,0.213663 0.006,0.313503 -0.120929,0.120929 -0.26812,0.0909 -0.35514,-0.07245 -0.04801,-0.09011 -0.02147,-0.174084 0.08029,-0.254126 0.05246,-0.04127 0.09468,-0.06124 0.136305,-0.05919 z m 1.285377,0.250018 c 0.153799,-0.0012 0.281787,0.172819 0.203899,0.318358 -0.130034,0.24297 -0.52073,0.06305 -0.401821,-0.18504 0.0239,-0.04986 0.0828,-0.104455 0.13089,-0.121367 0.02251,-0.0079 0.04506,-0.01178 0.06703,-0.01195 z M 3.974524,14.193675 3.780709,14.412136 A 4.6578818,3.0425219 0 0 0 7.866321,16 4.6578818,3.0425219 0 0 0 11.913841,14.459004 L 11.73739,14.256773 A 4.5201595,3.0425219 0 0 1 7.881445,15.717854 4.5201595,3.0425219 0 0 1 3.974524,14.193662 Z"/>
</svg>
