<svg xmlns="http://www.w3.org/2000/svg" style="isolation:isolate" width="16" height="16" viewBox="0 0 16 16">
 <path fill="#e6e6fa" fill-rule="evenodd" d="M 0.733 4.036 C 3.08 2.287 4.339 -0.466 8.158 0.067 L 8.158 10.565 C 12.702 8.855 15.37 9.584 15.264 12.571 C 15.157 15.558 9.951 16.369 6.089 15.857 L 6.046 2.521 C 5.427 1.71 3.208 4.335 0.733 4.036 Z M 8.094 14.555 L 8.116 11.782 Q 12.49 10.565 12.81 12.208 Q 12.917 14.278 8.094 14.555 Z"/>
</svg>
