<svg xmlns="http://www.w3.org/2000/svg" style="isolation:isolate" width="16" height="16" viewBox="0 0 16 16">
 <g opacity=".4">
  <path fill="#e6e6fa" d="M 4 8 L 0 8 C 0 3.568 3.568 0 8 0 L 8 4 C 5.792 4 4 5.792 4 8 Z"/>
 </g>
 <g opacity=".6">
  <path fill="#e6e6fa" d="M 12 8 L 16 8 C 16 3.568 12.432 0 8 0 L 8 4 C 8 4 8 4 8 4 C 10.208 4 12 5.792 12 8 Z"/>
 </g>
 <g opacity=".8">
  <path fill="#e6e6fa" d="M 4 8 L 0 8 C 0 12.432 3.568 16 8 16 L 8 12 C 5.792 12 4 10.208 4 8 C 4 8 4 8 4 8 Z"/>
 </g>
 <path fill="#e6e6fa" d="M 12 8 L 16 8 C 16 12.432 12.432 16 8 16 L 8 12 C 8 12 8 12 8 12 C 10.208 12 12 10.208 12 8 C 12 8 12 8 12 8 Z"/>
</svg>
