<svg xmlns="http://www.w3.org/2000/svg" width="16" height="16">
 <g color="#000" transform="translate(-352 -160)">
  <path fill="#e6e6fa" d="M358 160l-1 .25v.75h1zm0 1v1h-1v-1c-1.258.015-2.179-.03-2.932.385-.376.207-.675.56-.84.998-.164.438-.222.96-.222 1.617v8c0 .658.058 1.179.223 1.617.164.439.463.789.84.996.752.416 1.673.372 2.931.387h3.004v-1H357c-1.26-.015-2.087-.06-2.453-.262-.183-.1-.29-.212-.387-.472-.098-.26-.16-.674-.16-1.266v-5c0-.592.063-1.006.16-1.266.098-.26.204-.371.387-.472.367-.203 1.195-.247 2.459-.262H363c1.26.015 2.087.06 2.453.262.184.1.29.212.387.472.098.26.16 1.266.16 1.266v2h.006v3c0 .592-.062 1.006-.16 1.266s-.204.371-.387.472c-.366.202-1.193.247-2.453.262h-3v1h3c1.258-.015 2.179.029 2.931-.387.377-.207.676-.557.84-.996.165-.438.223-.96.223-1.617v-8c0-.658-.06-1.179-.225-1.617a1.88 1.88 0 0 0-.837-.998c-.753-.416-1.674-.37-2.932-.385v1h-1v-1H363v-1l-1 .25v.75z" font-family="sans-serif" font-weight="400" overflow="visible"/>
 </g>
</svg>
