<svg xmlns="http://www.w3.org/2000/svg" width="16" height="16" version="1.1">
 <g transform="translate(5.0000005,95.637802)">
  <path d="m 3.2351694,-94.6378 -2.63983049,2.34322 0.59322039,0.726695 2.7288135,-2.283898 -0.6822034,-0.786017 m 3.2923729,14 -3.5148305,-10.292373 -1.5127119,0 L -2,-80.6378 l 1.27542369,0 0.97881353,-2.995763 3.91525428,0 0.9788135,2.995763 1.3792373,0 m -4.315678,-8.987288 1.601695,4.908898 -3.20338988,0 1.60169488,-4.908898" style="fill:#e6e6fa"/>
 </g>
</svg>
