<svg xmlns="http://www.w3.org/2000/svg" width="16" height="16">
 <g transform="translate(-912 -460)">
  <path fill="#e6e6fa" d="M915 461c-1.108 0-2 .892-2 2v10c0 1.108.892 2 2 2h10c1.108 0 2-.892 2-2v-10c0-1.108-.892-2-2-2zm0 1h10c.554 0 1 .446 1 1v9c0 .554-.446 1-1 1h-10c-.554 0-1-.446-1-1v-9c0-.554.446-1 1-1zm6.656 3.994c-.79 0-1.549.257-2.281.75l.375.85c.312-.21.616-.36.906-.469.298-.116.57-.156.875-.156.45 0 .792.104 1.032.344.239.232.437.548.437.968v.307c-.21-.08-.52-.144-.781-.188a4.015 4.015 0 0 0-.781-.062c-.356 0-.672.038-.97.125-.29.087-.563.215-.78.375-.21.16-.353.345-.47.562-.115.218-.187.55-.187.819 0 .254.062.501.157.719.101.217.208.403.375.562.174.16.392.28.625.375.239.087.505.125.78.125.429 0 .819-.076 1.188-.25.377-.181.684-.448.938-.781l.031.344a.743.743 0 0 0 .219.437c.123.109.299.173.531.188.08 0 .187.007.281 0 .102-.007.197-.01.313-.032v-1.031c-.124-.007-.303-.036-.354-.094a.498.498 0 0 1-.115-.312v-2.131c0-.747-.096-1.32-.531-1.719-.435-.399-1.03-.625-1.813-.625zm-.09 3.07c.218 0 .608.05.833.094.232.044.398.106.601.186v.75c0 .145-.129.307-.281.437-.427.38-.941.43-1.438.469-.326 0-.734.018-.944-.171-.21-.196-.337-.421-.337-.704 0-.305.294-.569.563-.75a1.67 1.67 0 0 1 1.003-.31z" color="#000" overflow="visible"/>
 </g>
</svg>
