<svg xmlns="http://www.w3.org/2000/svg" width="16" height="16" version="1.1" viewBox="0 0 4.23 4.23">
 <g transform="translate(0,-292.76665)">
  <path style="fill:#e6e6fa" d="m 1.7344903,292.89894 v 0.58796 H 0.26458333 v 1.91088 h 0.5879629 V 295.1038 H 1.7344903 v 1.76389 h 0.7349539 v -1.76389 h 0.8819449 v 0.29398 h 0.587963 v -0.29398 -1.6169 H 2.4694442 v -0.58796 z m -0.88194407,1.17593 H 1.7344903 v 0.44097 H 0.85254623 Z m 1.61689797,0 h 0.8819449 v 0.44097 H 2.4694442 Z"/>
 </g>
</svg>
