<svg xmlns="http://www.w3.org/2000/svg" style="isolation:isolate" width="16" height="16" viewBox="0 0 16 16">
 <path fill="#e6e6fa" fill-rule="evenodd" d="M 5.844 11.336 C 6.446 12.144 7.399 12.63 8.421 12.632 C 9.443 12.632 10.396 12.144 10.998 11.336 L 11.343 11.275 C 11.776 11.275 11.938 10.316 11.631 9.992 L 8.766 7.308 C 8.675 7.211 8.55 7.158 8.421 7.158 C 8.292 7.158 8.168 7.212 8.076 7.308 L 5.211 9.992 C 4.904 10.316 5.066 11.275 5.499 11.275 L 5.844 11.336 L 5.844 11.336 Z M 2.526 3.79 C 1.131 3.79 0 4.921 0 6.316 C 0.001 6.53 0.029 6.743 0.083 6.95 C 0.37 5.835 1.375 5.054 2.526 5.053 C 3.677 5.054 4.681 5.832 4.97 6.945 C 5.024 6.74 5.051 6.528 5.053 6.316 C 5.053 4.921 3.922 3.79 2.526 3.79 L 2.526 3.79 Z M 12.632 5.053 C 12.632 4.123 13.386 3.368 14.316 3.368 C 15.245 3.368 16 4.123 16 5.053 C 16 5.982 15.245 6.737 14.316 6.737 C 13.386 6.737 12.632 5.982 12.632 5.053 Z"/>
</svg>
