<svg xmlns="http://www.w3.org/2000/svg" width="16" height="16" version="1.1">
 <path style="fill:#e6e6fa" d="M 8 0.88867188 L 0 16 L 16 16 L 8 0.88867188 z M 8.5976562 8.7011719 L 9.03125 12.677734 L 5.8320312 11.015625 L 8.5976562 8.7011719 z"/>
</svg>
