<svg xmlns="http://www.w3.org/2000/svg" style="isolation:isolate" width="16" height="16" viewBox="0 0 16 16">
 <path fill="#e6e6fa" fill-rule="evenodd" d="M 12.329 6.604 L 12.291 6.668 C 12.385 7.081 12.434 7.503 12.436 7.927 C 12.434 8.237 12.408 8.547 12.356 8.852 C 13.231 9.158 13.817 9.983 13.818 10.909 C 13.818 12.114 12.841 13.091 11.636 13.091 C 11.096 13.09 10.576 12.888 10.176 12.526 C 9.579 12.989 8.898 13.332 8.17 13.535 L 8.165 13.544 C 8.988 14.631 10.273 15.271 11.636 15.273 C 14.046 15.273 16 13.319 16 10.909 C 15.999 8.768 14.444 6.944 12.329 6.604 L 12.329 6.604 L 12.329 6.604 L 12.329 6.604 L 12.329 6.604 L 12.329 6.604 Z M 3.648 6.611 C 1.545 6.96 0.003 8.778 0 10.909 C 0 12.066 0.46 13.176 1.278 13.995 C 2.096 14.813 3.206 15.273 4.364 15.273 C 5.727 15.272 7.011 14.634 7.835 13.548 C 7.095 13.354 6.401 13.016 5.793 12.553 C 5.397 12.898 4.889 13.09 4.364 13.091 C 3.159 13.091 2.182 12.114 2.182 10.909 C 2.182 10.01 2.733 9.203 3.571 8.876 C 3.519 8.563 3.492 8.245 3.492 7.927 C 3.493 7.484 3.546 7.042 3.648 6.611 L 3.648 6.611 L 3.648 6.611 L 3.648 6.611 L 3.648 6.611 L 3.648 6.611 Z M 8 0.727 C 5.59 0.727 3.636 2.681 3.636 5.091 C 3.639 5.576 3.722 6.057 3.882 6.514 C 4.436 5.958 5.097 5.52 5.825 5.226 C 5.822 5.181 5.819 5.136 5.818 5.091 C 5.818 3.886 6.795 2.909 8 2.909 C 9.205 2.909 10.182 3.886 10.182 5.091 C 10.181 5.137 10.178 5.182 10.175 5.228 C 10.903 5.52 11.564 5.958 12.119 6.513 C 12.279 6.056 12.362 5.575 12.364 5.091 C 12.364 3.934 11.904 2.824 11.086 2.005 C 10.267 1.187 9.157 0.727 8 0.727 L 8 0.727 L 8 0.727 L 8 0.727 Z M 6.546 5.091 C 6.546 4.288 7.197 3.636 8 3.636 C 8.803 3.636 9.455 4.288 9.455 5.091 C 9.455 5.894 8.803 6.545 8 6.545 C 7.197 6.545 6.546 5.894 6.546 5.091 L 6.546 5.091 L 6.546 5.091 Z M 2.909 10.909 C 2.909 10.106 3.561 9.455 4.364 9.455 C 5.167 9.455 5.818 10.106 5.818 10.909 C 5.818 11.712 5.167 12.364 4.364 12.364 C 3.561 12.364 2.909 11.712 2.909 10.909 L 2.909 10.909 Z M 10.182 10.909 C 10.182 10.106 10.833 9.455 11.636 9.455 C 12.439 9.455 13.091 10.106 13.091 10.909 C 13.091 11.712 12.439 12.364 11.636 12.364 C 10.833 12.364 10.182 11.712 10.182 10.909 Z"/>
</svg>
