<svg xmlns="http://www.w3.org/2000/svg" style="isolation:isolate" width="16" height="16" viewBox="0 0 16 16">
 <defs>
  <clipPath id="_clipPath_MU521jZbLFBEizGE9mFcGkmlQdQRe5V3">
   <rect width="16" height="16"/>
  </clipPath>
 </defs>
 <g clip-path="url(#_clipPath_MU521jZbLFBEizGE9mFcGkmlQdQRe5V3)">
  <rect style="fill:#e6e6fa" fill-opacity="0" width="16" height="16"/>
  <path fill="#e6e6fa" fill-rule="evenodd" d="M 16 9.845 L 16 6.063 C 16 1.224 15.308 0.533 10.465 0.533 L 5.599 0.533 L 5.599 0.533 L 0 6.072 L 0 9.938 C 0 14.776 0.692 15.467 5.535 15.467 L 10.446 15.467 L 16 9.845 L 16 9.845 Z M 7.37 3.732 C 5.359 3.732 3.739 5.351 3.739 7.363 L 3.739 8.089 C 3.739 10.101 5.359 11.72 7.37 11.72 L 11.195 11.72 L 11.195 9.59 L 7.37 9.59 C 6.528 9.59 5.87 8.931 5.87 8.089 L 5.87 7.363 C 5.87 6.521 6.528 5.862 7.37 5.862 L 11.195 5.862 L 11.195 3.732 L 7.37 3.732 Z"/>
 </g>
</svg>
