<svg xmlns="http://www.w3.org/2000/svg" style="isolation:isolate" width="16" height="16" viewBox="0 0 16 16">
 <path fill="#e6e6fa" fill-rule="evenodd" d="M 1.619 8.85 C 1.586 8.571 1.569 8.288 1.569 8 C 1.569 4.013 4.801 0.782 8.787 0.782 C 10.742 0.782 12.613 1.575 13.973 2.979 L 10.514 2.979 L 8.003 8 L 10.514 13.021 L 13.962 13.021 C 12.605 14.423 10.738 15.215 8.787 15.218 C 6.753 15.218 4.914 14.376 3.602 13.021 L 7.913 13.021 C 8.571 13.021 8.992 12.316 8.685 11.73 L 6.672 8 L 8.381 4.274 C 8.692 3.687 8.27 2.979 7.611 2.979 L 5.236 2.979 C 4.913 2.979 4.616 3.159 4.465 3.446 L 1.619 8.85 L 1.619 8.85 Z M 9.723 8 L 11.292 6.902 L 12.862 5.803 L 12.862 8 L 12.862 10.197 L 11.292 9.098 L 9.723 8 L 9.723 8 Z M 12.862 8 L 14.431 6.902 L 16 5.803 L 16 8 L 16 10.197 L 14.431 9.098 L 12.862 8 Z"/>
 <g opacity=".6">
  <path fill="#e6e6fa" d="M 5.236 2.979 C 4.913 2.979 4.616 3.159 4.465 3.446 L 0.103 11.728 C -0.205 12.314 0.216 13.021 0.874 13.021 L 7.913 13.021 C 8.571 13.021 8.992 12.316 8.685 11.73 L 6.672 8 L 8.381 4.274 C 8.692 3.687 8.27 2.979 7.611 2.979 L 5.236 2.979 Z"/>
 </g>
</svg>
