<svg xmlns="http://www.w3.org/2000/svg" style="isolation:isolate" width="16" height="16" viewBox="0 0 16 16">
 <defs>
  <clipPath id="_clipPath_Jxh5QkXHjZwucxm2TozDPClhTIROlQCZ">
   <rect width="16" height="16"/>
  </clipPath>
 </defs>
 <g clip-path="url(#_clipPath_Jxh5QkXHjZwucxm2TozDPClhTIROlQCZ)">
  <rect fill="#e6e6fa" width="4.625" height="3.594" x="17.09" y="-.09" transform="matrix(1,0,0,1,0,0)"/>
  <path fill="#e6e6fa" d="M 11.017 1.38 C 10.098 0.961 9.076 0.727 8 0.727 C 7.697 0.727 7.399 0.746 7.106 0.781 C 6.024 2.278 5.463 4.709 5.508 6.198 C 5.508 6.198 5.437 8.411 6.953 9.196 C 6.953 9.196 8.317 9.793 9.245 7.861 C 9.245 7.861 9.884 6.77 9.624 4.305 C 9.624 4.305 9.873 4.349 9.901 4.388 C 9.929 4.427 10.45 6.286 10.084 7.851 C 10.084 7.851 9.747 9.691 8.09 10.111 C 6.433 10.532 5.142 9.514 4.266 8.556 C 3.616 7.844 2.651 5.938 2.172 3.649 C 1.265 4.862 0.727 6.368 0.727 8 C 0.727 9.133 0.986 10.204 1.448 11.16 C 3.038 11.633 7.155 12.579 9.769 10.663 C 11.49 9.402 11.268 7.381 11.268 7.381 C 11.239 5.845 10.304 4.318 10.304 4.318 C 13.942 7.609 11.792 11.266 11.792 11.266 C 10.793 13.305 8.744 14.611 6.947 15.197 C 7.291 15.247 7.642 15.273 8 15.273 C 12.017 15.273 15.273 12.017 15.273 8 C 15.273 6.276 14.673 4.692 13.67 3.445 C 13.313 3.47 12.898 3.484 12.467 3.47 C 12.467 3.47 10.531 3.561 9.446 4.102 C 9.446 4.102 8.637 4.463 7.828 5.075 C 7.828 5.075 7.656 5.161 7.664 5.476 C 7.671 5.791 7.499 6.629 6.926 7.12 C 6.926 7.12 6.517 7.33 6.722 7.632 C 6.722 7.632 6.998 8.033 7.387 7.611 C 7.387 7.611 8.391 6.579 8.452 4.915 C 8.452 4.915 8.77 4.643 9.271 4.564 C 9.271 4.564 9.364 7.06 8.125 8.313 C 8.125 8.313 6.946 9.597 6.568 7.692 C 6.568 7.692 6.107 5.877 8.483 3.721 C 8.483 3.721 10.074 2.133 11.017 1.38 Z M 8 16 C 3.582 16 0 12.418 0 8 C 0 3.582 3.582 0 8 0 C 12.418 0 16 3.582 16 8 C 16 12.418 12.418 16 8 16 Z"/>
 </g>
</svg>
