<svg xmlns="http://www.w3.org/2000/svg" width="16" height="16" version="1.1">
 <g label="status" transform="translate(-1152.9998,-73.000015)">
  <path style="fill:#e6e6fa" d="m 1155.9998,73.500032 v 1.875 5.625 l 4.2188,-2.8125 4.2187,2.8125 -8.4375,5.625 v 1.875 l 11.25,-7.5 -5.625,-3.75 z"/>
 </g>
</svg>
