<svg xmlns="http://www.w3.org/2000/svg" style="isolation:isolate" width="16" height="16" viewBox="0 0 16 16">
 <path fill="#e6e6fa" fill-rule="evenodd" d="M 6.121 3.18 L 7.8 3.18 C 8.295 3.18 8.77 3.376 9.119 3.726 C 9.469 4.076 9.666 4.551 9.666 5.046 C 9.666 5.54 9.469 6.015 9.119 6.365 C 8.77 6.715 8.295 6.912 7.8 6.912 L 6.121 6.912 C 6.018 6.912 5.934 6.828 5.934 6.724 L 5.934 5.046 L 5.934 3.367 C 5.934 3.263 6.018 3.18 6.121 3.18 L 6.121 3.18 Z M 3.881 0.692 C 3.64 0.692 3.446 0.885 3.446 1.126 L 3.446 5.046 L 3.446 8.965 C 3.446 9.206 3.64 9.399 3.881 9.399 L 7.8 9.399 C 10.205 9.399 12.154 7.45 12.154 5.046 C 12.154 2.641 10.205 0.692 7.8 0.692 L 3.881 0.692 L 3.881 0.692 Z M 0.387 12.479 L 0.387 13.922 L 1.431 13.922 L 1.431 13.922 Q 1.851 13.922 2.048 13.715 L 2.048 13.715 L 2.048 13.715 Q 2.244 13.507 2.244 13.209 L 2.244 13.209 L 2.244 13.209 Q 2.244 12.927 2.053 12.703 L 2.053 12.703 L 2.053 12.703 Q 1.863 12.479 1.431 12.479 L 1.431 12.479 L 0.387 12.479 L 0.387 12.479 Z M 4.217 14.657 L 5.494 14.657 L 4.963 13.109 L 4.963 13.109 Q 4.875 12.861 4.853 12.761 L 4.853 12.761 L 4.808 12.905 L 4.808 12.905 Q 4.77 13.054 4.747 13.109 L 4.747 13.109 L 4.217 14.657 L 4.217 14.657 Z M 9.572 16 L 7.268 16 L 7.268 12.131 L 7.655 12.131 L 7.655 15.63 L 9.572 15.63 L 9.572 16 L 9.572 16 Z M 12.651 16 L 10.346 16 L 10.346 12.131 L 10.733 12.131 L 10.733 15.63 L 12.651 15.63 L 12.651 16 L 12.651 16 Z M 14.745 16 L 14.359 16 L 14.359 14.48 L 13.093 12.131 L 13.518 12.131 L 14.546 14.121 L 15.602 12.131 L 16 12.131 L 14.745 14.464 L 14.745 16 L 14.745 16 Z M 0.387 16 L 0 16 L 0 12.131 L 1.42 12.131 L 1.42 12.131 Q 2.05 12.131 2.332 12.438 L 2.332 12.438 L 2.332 12.438 Q 2.614 12.745 2.614 13.192 L 2.614 13.192 L 2.614 13.192 Q 2.614 13.585 2.382 13.88 L 2.382 13.88 L 2.382 13.88 Q 2.15 14.176 1.658 14.254 L 1.658 14.254 L 2.515 16 L 2.089 16 L 1.26 14.27 L 0.387 14.27 L 0.387 16 L 0.387 16 Z M 6.356 16 L 5.963 16 L 5.61 15 L 4.101 15 L 3.764 16 L 3.36 16 L 4.703 12.131 L 5.002 12.131 L 6.356 16 L 6.356 16 Z"/>
</svg>
