<svg xmlns="http://www.w3.org/2000/svg" style="isolation:isolate" width="16" height="16" viewBox="0 0 16 16">
 <defs>
  <clipPath id="_clipPath_Jo5rLxb5lihSkdtXJcZchxVg2eh6VOMe">
   <rect width="16" height="16"/>
  </clipPath>
 </defs>
 <g clip-path="url(#_clipPath_Jo5rLxb5lihSkdtXJcZchxVg2eh6VOMe)">
  <rect style="fill:#000000" fill-opacity="0" width="16" height="16"/>
  <path fill="#e6e6fa" d="M 13.359 15.405 L 13.359 7.665 L 15.74 7.665 L 15.74 1.294 C 15.74 0.865 15.395 0.52 14.966 0.52 C 10.223 -0.175 5.582 -0.172 1.034 0.52 C 0.605 0.52 0.26 0.865 0.26 1.294 L 0.26 7.665 L 2.641 7.665 L 2.641 15.405 C 2.641 15.833 2.808 16 3.237 16 L 12.763 16 C 13.192 16 13.359 15.833 13.359 15.405 Z"/>
 </g>
</svg>
