<svg xmlns="http://www.w3.org/2000/svg" style="isolation:isolate" width="16" height="16" version="1.1" viewBox="0 0 16 16">
 <defs>
  <clipPath id="_clipPath_NiQcfOfIn6Cou4i56xAXLGESIebKcNfV">
   <rect width="16" height="16"/>
  </clipPath>
 </defs>
 <g clip-path="url(#_clipPath_NiQcfOfIn6Cou4i56xAXLGESIebKcNfV)">
  <g>
   <path fill="#e6e6fa" d="M 1 14.957 L 1 13.764 L 2.598 13.499 L 2.598 2.64 L 1 2.375 L 1 1.173 L 15 1.173 L 15 2.375 L 13.402 2.64 L 13.402 13.499 L 15 13.764 L 15 14.957 L 9.873 14.957 L 9.873 13.764 L 11.471 13.499 L 11.471 2.64 L 4.529 2.64 L 4.529 13.499 L 6.127 13.764 L 6.127 14.957 L 1 14.957 Z"/>
  </g>
 </g>
</svg>
