<svg xmlns="http://www.w3.org/2000/svg" style="isolation:isolate" width="16" height="16" viewBox="0 0 16 16">
 <path fill="#e6e6fa" fill-rule="evenodd" d="M 8 0 L 13.333 8.381 L 8 11.429 L 2.667 8.381 L 8 0 Z M 8 16 L 13.333 9.143 L 8 12.19 L 2.667 9.143 L 8 16 Z"/>
</svg>
