<svg xmlns="http://www.w3.org/2000/svg" width="16" height="16">
 <g transform="translate(-1173 -81)">
  <path fill="#e6e6fa" d="M1180.68 81.002a8.481 8.481 0 0 0-5.683 2.017.5.5 0 1 0 .648.762 7.493 7.493 0 0 1 9.948.212.5.5 0 1 0 .68-.733 8.48 8.48 0 0 0-5.592-2.258zm-.18 1.996a6.5 6.5 0 0 0-6.5 6.47.5.5 0 0 0 0 .025.5.5 0 0 0 0 .005.5.5 0 0 0 0 .003.5.5 0 0 0 0 .003v.01a.5.5 0 0 0 0 .023c0 1.284.237 2.558.699 3.756a.5.5 0 1 0 .933-.36 9.45 9.45 0 0 1-.633-3.426.5.5 0 0 0 0-.009 5.5 5.5 0 0 1 5.5-5.5 5.5 5.5 0 0 1 5.5 5.5 1.5 1.5 0 0 1-1.5 1.5 1.5 1.5 0 0 1-1.5-1.5 2.5 2.5 0 0 0-2.5-2.5 2.5 2.5 0 0 0-2.499 2.47 2.5 2.5 0 0 0 0 .03.5.5 0 0 0 0 .006c-.01 3.556 2.866 6.463 6.424 6.494a.5.5 0 1 0 .01-1 5.471 5.471 0 0 1-5.432-5.491.5.5 0 0 0 0-.009 1.5 1.5 0 0 1 1.5-1.5 1.5 1.5 0 0 1 1.5 1.5 2.5 2.5 0 0 0 2.5 2.5 2.5 2.5 0 0 0 2.5-2.5 6.5 6.5 0 0 0-6.5-6.5zm0 2a4.5 4.5 0 0 0-4.5 4.469.5.5 0 0 0 0 .013 4.5 4.5 0 0 0 0 .018.5.5 0 0 0 0 .006 8.463 8.463 0 0 0 3.529 6.9.5.5 0 0 0 .329.097.5.5 0 0 0 .05-.006.5.5 0 0 0 .204-.903 7.465 7.465 0 0 1-3.112-6.085.5.5 0 0 0 0-.01 3.5 3.5 0 0 1 3.5-3.5 3.5 3.5 0 0 1 3.5 3.5.5.5 0 0 0 .5.5.5.5 0 0 0 .5-.5.5.5 0 0 0 0-.046 4.5 4.5 0 0 0-4.498-4.453zm-.01 3.981a.5.5 0 0 0-.495.506v.007a.5.5 0 0 0 0 .006.5.5 0 0 0 0 .053 4.506 4.506 0 0 0 4.457 4.447.5.5 0 1 0 .01-1 3.492 3.492 0 0 1-3.469-3.5.5.5 0 0 0 0-.01.5.5 0 0 0-.505-.508z"/>
 </g>
</svg>
