<svg xmlns="http://www.w3.org/2000/svg" style="isolation:isolate" width="16" height="16" viewBox="0 0 16 16">
 <path fill="#e6e6fa" d="M 15.788 2.867 L 15.611 2.332 L 12.785 5.157 L 11.398 4.602 L 10.844 3.214 L 13.668 0.388 L 13.133 0.211 C 12.711 0.072 12.27 0.001 11.826 0.001 C 9.525 0.001 7.652 1.873 7.652 4.175 C 7.652 4.689 7.746 5.192 7.934 5.673 L 0.496 13.109 C 0.177 13.426 -0.001 13.858 0 14.308 C 0 14.76 0.177 15.184 0.496 15.505 C 0.813 15.822 1.244 16 1.693 15.999 C 2.128 15.999 2.561 15.835 2.891 15.505 L 10.327 8.069 C 10.808 8.255 11.311 8.349 11.826 8.349 C 14.128 8.349 16 6.476 16 4.175 C 16 3.73 15.928 3.289 15.788 2.867 L 15.788 2.867 Z"/>
</svg>
