<svg xmlns="http://www.w3.org/2000/svg" style="isolation:isolate" width="16" height="16" viewBox="0 0 16 16">
 <path fill="#e6e6fa" d="M 4.646 1.719 L 4.646 6.51 L 14.084 6.51 L 14.084 9.385 L 1.655 9.385 L 0 9.385 L 0 14.281 L 1.986 14.281 L 1.986 11.412 L 16 11.302 L 16 4.594 L 6.563 4.594 L 6.563 3.636 L 12.312 3.636 L 12.312 1.719 L 4.646 1.719 Z"/>
</svg>
