<svg xmlns="http://www.w3.org/2000/svg" style="isolation:isolate" width="16" height="16" viewBox="0 0 16 16">
 <defs>
  <clipPath id="_clipPath_cAB3Tsi7KU3c1YHam9xrmwQOlkw89Pzj">
   <rect width="16" height="16"/>
  </clipPath>
 </defs>
 <g clip-path="url(#_clipPath_cAB3Tsi7KU3c1YHam9xrmwQOlkw89Pzj)">
  <rect fill="#e6e6fa" width="4.625" height="3.594" x="16.38" y="0" transform="matrix(1,0,0,1,0,0)"/>
  <path fill="#e6e6fa" fill-rule="evenodd" d="M 8.332 2.332 C 8.332 1.324 9.202 0.5 10.209 0.5 C 11.125 0.5 11.789 1.118 11.789 2.057 C 11.789 3.111 10.919 3.89 9.889 3.89 C 8.95 3.889 8.332 3.271 8.332 2.332 Z M 7.095 6.843 C 7.256 6.431 7.05 6.225 6.866 6.225 C 6.019 6.225 4.92 8.218 4.509 8.218 C 4.348 8.218 4.211 8.057 4.211 7.92 C 4.211 7.507 5.218 6.546 5.516 6.248 C 6.432 5.378 7.622 4.714 8.95 4.714 C 9.935 4.714 10.988 5.309 10.164 7.531 L 8.515 11.996 C 8.378 12.34 8.126 12.913 8.126 13.279 C 8.126 13.439 8.217 13.599 8.4 13.599 C 9.087 13.599 10.347 11.653 10.668 11.653 C 10.782 11.653 10.942 11.79 10.942 11.996 C 10.942 12.66 8.263 15.5 5.951 15.5 C 5.126 15.5 4.554 15.111 4.554 14.241 C 4.554 13.142 5.332 11.264 5.493 10.874 C 5.493 10.874 7.095 6.843 7.095 6.843 L 7.095 6.843 Z"/>
 </g>
</svg>
