<svg xmlns="http://www.w3.org/2000/svg" width="16" height="16" version="1.1">
 <g transform="translate(-291.99997,-119.99994)">
  <path d="m 295.99414,121 c -1.2582,0.0145 -2.17889,-0.0306 -2.93164,0.38477 -0.37637,0.20766 -0.67323,0.55938 -0.83789,0.99804 C 292.05994,122.82148 292,123.34239 292,124 v 8 c 0,0.65761 0.0599,1.17853 0.22461,1.61719 0.16467,0.43866 0.46152,0.79039 0.83789,0.99804 0.75275,0.41532 1.67345,0.3702 2.93164,0.38477 h 0.004 7.0039 0.004 c 1.25819,-0.0145 2.17889,0.0306 2.93164,-0.38477 0.37637,-0.20766 0.67322,-0.55938 0.83789,-0.99804 C 306.94006,133.17852 307,132.65761 307,132 v -8 c 0,-0.65761 -0.0599,-1.17852 -0.22461,-1.61719 -0.16466,-0.43866 -0.46152,-0.79038 -0.83789,-0.99804 -0.75275,-0.41534 -1.67344,-0.37025 -2.93164,-0.38477 h -0.004 -7.0039 z m 0.006,1 h 7 c 1.25852,0.0147 2.08717,0.0598 2.45312,0.26172 0.18341,0.1012 0.28916,0.21274 0.38672,0.47266 C 305.93741,122.99429 306,123.40761 306,124 v 8 c 0,0.59239 -0.0626,1.00572 -0.16016,1.26562 -0.0976,0.25991 -0.20331,0.37147 -0.38672,0.47266 C 305.08717,133.94019 304.25852,133.98529 303,134 H 296.00586 296 c -1.25853,-0.0147 -2.08912,-0.0598 -2.45508,-0.26172 -0.18341,-0.10119 -0.2872,-0.21275 -0.38476,-0.47266 C 293.06259,133.00572 293,132.59239 293,132 v -8 c 0,-0.59239 0.0626,-1.00572 0.16016,-1.26562 0.0976,-0.25991 0.20135,-0.37147 0.38476,-0.47266 C 293.91088,122.05981 294.74147,122.01471 296,122 Z" style="solid-color:#e6e6fa;fill:#e6e6fa"/>
  <path d="m 292.5,131 v 1 h 14 v -1 z" style="solid-color:#e6e6fa;fill:#e6e6fa;fill-rule:evenodd"/>
  <path d="m 299,131.5 v 3 h 1 v -3 z" style="solid-color:#e6e6fa;fill:#e6e6fa;fill-rule:evenodd"/>
 </g>
</svg>
