<svg xmlns="http://www.w3.org/2000/svg" width="16" height="16" version="1.1">
 <path style="fill:#e6e6fa" d="M 2,1.0108297 4.4525004,0.9999997 11.465,4.7333457 c 0,0 0,-2.333332 0,-3.733332 L 14,1.0108437 V 11.616898 L 11.465,15 c 0.09,-0.05326 0,-6.5333323 0,-6.5333323 0,0 -7.185,-3.786613 -7.0124996,-3.73335 V 15 L 2,11.616898 Z"/>
</svg>
