<svg xmlns="http://www.w3.org/2000/svg" width="16" height="16" version="1.1">
 <g transform="translate(-592 -180)">
  <path fill="#e6e6fa" d="M600 180a8 8 0 0 0-8 8 8 8 0 0 0 8 8 8 8 0 0 0 8-8 8 8 0 0 0-8-8zm0 1a7 7 0 0 1 7 7 7 7 0 0 1-7 7 7 7 0 0 1-7-7 7 7 0 0 1 7-7z"/>
  <path d="m 600,182 a 6,6 0 0 0 -6,6 6,6 0 0 0 6,6 6,6 0 0 0 6,-6 6,6 0 0 0 -6,-6 z m 0,0.75 a 5.25,5.25 0 0 1 5.25,5.25 5.25,5.25 0 0 1 -5.25,5.25 5.25,5.25 0 0 1 -5.25,-5.25 5.25,5.25 0 0 1 5.25,-5.25 z" style="fill:#e6e6fa"/>
  <path style="fill:#e6e6fa" d="m 600,185 c -1.65685,0 -3,1.34315 -3,3 0,1.65685 1.34315,3 3,3 1.65685,0 3,-1.34315 3,-3 0,-1.65685 -1.34315,-3 -3,-3 z m -0.17349,2.99669 c 1.44974,0 2.79849,-1.44644 2.79849,0.003 0,1.44975 -1.17525,2.625 -2.625,2.625 -1.44975,0 -2.625,-1.17525 -2.625,-2.625 0,-1.44975 1.00176,-0.003 2.45151,-0.003 z"/>
 </g>
</svg>
