<svg xmlns="http://www.w3.org/2000/svg" width="16" height="16" version="1.1">
 <path style="fill:#e6e6fa" d="M 9.734179,0.72531354 A 7.387343,7.387343 0 0 0 2.889713,5.3424025 H 1.423418 L 0.5,7.1892385 h 1.913599 a 7.387343,7.387343 0 0 0 -0.06676,0.923418 L 1.423421,9.9594925 H 2.592099 A 7.387343,7.387343 0 0 0 9.734182,15.5 7.387343,7.387343 0 0 0 15.500003,12.729746 H 12.791618 A 5.5405073,5.5405073 0 0 1 9.734182,13.653164 5.5405073,5.5405073 0 0 1 4.516871,9.9594925 H 10.6576 l 0.923418,-1.846836 H 4.193675 a 5.5405073,5.5405073 0 0 1 0.08311,-0.923418 h 7.304236 l 0.923417,-1.846836 H 4.942569 a 5.5405073,5.5405073 0 0 1 4.791616,-2.770253 5.5405073,5.5405073 0 0 1 3.05559,0.923418 h 2.702844 A 7.387343,7.387343 0 0 0 9.734185,0.72531354 Z"/>
</svg>
