<svg xmlns="http://www.w3.org/2000/svg" width="16" height="16" version="1.1">
 <g transform="matrix(0.35433441,0,0,0.35433441,-3.9246292,-85.060129)" style="fill:#e6e6fa">
  <path style="fill:#e6e6fa" d="m 49.031134,276.8655 c 1.040458,-1.94523 3.203895,-2.15439 3.20254,-4.45472 -8.47e-4,-1.77374 -0.493319,-2.73362 -1.694162,-3.30347 -2.207661,-1.04759 -4.356168,0.19558 -4.356168,2.52057 0,2.28193 2.175488,3.54778 3.618023,2.10523 0.601748,-0.60175 0.747035,-1.61126 0.319726,-2.2216 -0.189651,-0.27087 -0.210253,-0.228 -0.09172,0.19135 0.408682,1.44719 -0.705153,2.44827 -1.986711,1.78556 -1.339299,-0.69258 -1.085274,-2.91709 0.374957,-3.28359 0.721296,-0.18105 1.684256,0.4514 2.157199,1.41679 0.254844,0.52021 0.263875,0.83211 0.04544,1.56118 -0.716612,2.39181 -3.937326,2.40791 -8.783962,0.0439 -1.174795,-0.57303 -2.749551,-1.43842 -3.499436,-1.9231 -1.292451,-0.83536 -2.866218,-1.53616 -5.122025,-3.51833 -1.195001,-1.05006 -1.371219,-0.90714 1.745469,-1.41558 0.896047,-0.14616 3.514364,-0.90646 5.81846,-1.68952 4.093364,-1.39115 4.247936,-1.42418 6.749443,-1.44218 1.408048,-0.0102 -0.927937,-0.099 1.408161,0.003 l 4.247485,0.18454 v -2.30473 -2.30475 l -4.945695,-0.12988 c -7.071061,-0.1857 -3.625671,-0.43075 -10.92423,-3.25031 -1.393655,-0.5384 -3.331203,-1.1874 -4.305678,-1.44224 -2.304123,-0.60257 -5.793538,-0.80762 -7.54231,-0.44321 -2.016457,0.42018 -4.867379,1.94907 -6.523781,3.49853 -2.567433,2.40173 -5.468365,6.89158 -5.184198,8.02379 0.127845,0.50985 0.260488,0.54343 2.522871,0.63903 1.313279,0.0555 4.037316,0.35516 6.053405,0.66593 l 3.665634,0.56503 v 1.57976 c -0.632341,2.89745 -0.181185,4.46106 -0.06858,5.51629 0.42141,3.81913 0.57855,4.23315 1.554154,4.09484 1.507135,-2.47848 1.52912,-7.22737 1.540042,-9.96672 l 1.687361,1.50559 c 4.213139,3.7593 5.453379,3.70544 9.066746,5.4631 3.411411,1.65944 7.15917,2.36042 9.251543,1.7304 z M 16.972096,263.46258 c -0.233113,-0.233 1.204879,-2.01102 3.089483,-3.82029 2.806417,-2.69429 2.795156,-2.69216 2.801704,-0.53086 0.0056,2.12663 0.516404,3.28391 1.984396,4.50332 l 0.960251,0.79762 -4.35882,-0.4158 c -2.39734,-0.22868 -4.41199,-0.46898 -4.477014,-0.53399 z m 15.719134,0.20292 c 0.416104,-0.32793 1.044494,-1.08608 1.396449,-1.68478 0.558371,-0.94983 0.639904,-1.33318 0.639904,-3.00862 0,-1.05606 0.06943,-1.9201 0.154092,-1.9201 0.08467,0 1.745301,0.68154 3.690186,1.51453 1.944886,0.833 3.786932,1.57747 4.093451,1.65441 0.306518,0.0769 0.557298,0.22058 0.557298,0.31921 0,0.0986 -1.178265,0.76438 -2.618318,1.47944 -2.936774,1.45822 -5.133653,2.0666 -7.971312,2.20748 l -0.69821,0.0347 z m 22.128814,-11.19963 c 0,-1.29782 -0.155785,-1.42133 -1.792882,-1.42133 -3.649716,0 -4.557644,-0.58874 -10.050703,-3.02203 -5.883568,-2.60627 -9.448562,-3.5384 -13.532839,-3.5384 -3.997749,0 -8.209335,1.09109 -12.536716,3.24787 -3.522379,1.75556 -5.028329,3.20494 -4.195444,4.03783 0.293819,0.29381 0.09229,0.35657 5.026184,-1.56595 3.371787,-1.31386 7.517249,-2.42404 9.75903,-2.61354 3.461532,-0.29261 7.585857,0.61666 14.884217,3.28144 2.620858,0.95692 5.634339,1.96178 6.696668,2.23302 2.27195,0.58007 2.510059,0.4889 4.404258,0.49534 l 1.338227,0.005 z"/>
 </g>
</svg>
