<svg xmlns="http://www.w3.org/2000/svg" style="isolation:isolate" width="16" height="16" viewBox="0 0 16 16">
 <path fill="#e6e6fa" fill-rule="evenodd" d="M 9.448 9.143 L 9.472 8.899 C 10.129 8.676 10.733 8.304 11.232 7.804 C 12.09 6.947 12.571 5.784 12.571 4.571 C 12.571 2.047 10.525 0 8 0 L 8 0 C 5.475 0 3.429 2.047 3.429 4.571 C 3.429 5.784 3.91 6.947 4.768 7.804 C 5.267 8.304 5.871 8.676 6.528 8.899 L 6.528 8.899 L 6.552 9.143 L 4.952 9.143 L 4.952 10.667 L 6.705 10.667 L 7.238 16 L 8.762 16 L 9.295 10.667 L 11.048 10.667 L 11.048 9.143 L 9.448 9.143 Z M 8 0.762 C 8.808 0.762 9.583 1.083 10.155 1.655 C 10.727 2.226 11.048 3.001 11.048 3.81 C 11.048 4.618 10.727 5.393 10.155 5.965 C 9.583 6.536 8.808 6.857 8 6.857 C 7.192 6.857 6.417 6.536 5.845 5.965 C 5.273 5.393 4.952 4.618 4.952 3.81 C 4.952 3.001 5.273 2.226 5.845 1.655 C 6.417 1.083 7.192 0.762 8 0.762 L 8 0.762 L 8 0.762 L 8 0.762 Z"/>
</svg>
