<svg xmlns="http://www.w3.org/2000/svg" style="enable-background:new" width="16" height="16" version="1.1">
 <g transform="translate(-112,-180)">
  <path d="m 123.28105,180.00525 c -0.27821,0.0752 -0.37465,0.49932 -0.15625,0.68727 l 3.1875,3.18646 c 0.21982,0.23021 0.69212,0.0371 0.6875,-0.28116 l 0,-3.21769 c -0.0122,-0.20318 -0.20269,-0.37897 -0.40625,-0.37488 l -3.1875,0 c -0.0413,-0.007 -0.0837,-0.007 -0.125,0 z" style="fill:#e6e6fa"/>
  <path d="m 113.84375,180.00525 c -0.4813,0.0874 -0.85238,0.53322 -0.84375,0.99967 v 13.99541 c 6e-5,0.52341 0.51276,0.99962 1.0625,0.99967 h 11.875 c 0.54975,-5e-5 1.06245,-0.47626 1.0625,-0.99967 V 187.5 c 0.006,-0.26397 -0.1196,-0.61972 -0.31245,-0.80945 l -6.40625,-6.40414 c -0.19927,-0.18364 -0.47275,-0.28728 -0.75,-0.28116 h -5.46875 c -0.0654,-0.006 -0.15331,-0.006 -0.21875,0 z M 114.25,181.25 h 5.25 l 6.25,6.25 v 7.25 h -11.5 z" style="fill:#e6e6fa"/>
 </g>
</svg>
