<svg xmlns="http://www.w3.org/2000/svg" width="16" height="16" version="1.1">
 <g transform="matrix(0.03043478,0,0,0.03043478,0.20738702,0.20869692)" style="fill:#e6e6fa;fill-opacity:0.9997549">
  <path style="fill:#e6e6fa;fill-opacity:0.9997549" d="m 160.923,185.166 c 1.139,-1.523 2.313,-3.017 3.522,-4.482 2.418,-2.931 4.975,-5.741 7.658,-8.425 4.025,-4.025 8.339,-7.764 12.907,-11.18 6.091,-4.556 12.635,-8.54 19.55,-11.872 13.475,-6.492 28.37,-10.489 44.086,-11.451 0,-0.142 0.011,-0.279 0.011,-0.421 0,-61.375 -49.932,-111.307 -111.307,-111.307 -61.375,0 -111.307,49.932 -111.307,111.308 0,61.376 49.932,111.307 111.307,111.307 0.088,0 0.174,-0.007 0.262,-0.007 0.475,-7.59 1.637,-14.996 3.474,-22.133 3.903,-15.164 10.726,-29.155 19.837,-41.337 z"/>
  <path style="fill:#e6e6fa;fill-opacity:0.9997549" d="m 185.01,351.233 c -4.568,-3.416 -8.882,-7.155 -12.907,-11.18 -2.684,-2.684 -5.24,-5.496 -7.658,-8.425 -1.209,-1.465 -2.384,-2.959 -3.522,-4.482 -9.111,-12.182 -15.935,-26.172 -19.836,-41.337 -1.859,-7.227 -3.033,-14.727 -3.495,-22.418 -0.081,0 -0.159,-0.005 -0.24,-0.005 -61.375,0 -111.307,49.932 -111.307,111.307 0,61.375 49.932,111.307 111.307,111.307 61.375,0 111.307,-49.932 111.307,-111.307 0,-0.045 -0.004,-0.09 -0.004,-0.134 -15.72,-0.96 -30.617,-4.959 -44.094,-11.451 -6.916,-3.337 -13.46,-7.321 -19.551,-11.875 z"/>
  <path style="fill:#e6e6fa;fill-opacity:0.9997549" d="m 374.385,248.607 c 0.088,0 0.176,0.007 0.263,0.007 61.375,0 111.307,-49.932 111.307,-111.307 C 485.955,75.932 436.023,26 374.648,26 313.273,26 263.341,75.932 263.341,137.307 c 0,0.15 0.011,0.299 0.011,0.45 59.602,3.645 107.289,51.275 111.033,110.85 z"/>
  <path style="fill:#e6e6fa;fill-opacity:0.9997549" d="m 263.345,374.555 c 0,0.036 -0.002,0.07 -0.002,0.106 0,61.375 49.932,111.307 111.307,111.307 61.375,0 111.307,-49.932 111.307,-111.307 0,-61.375 -49.932,-111.307 -111.307,-111.307 -0.081,0 -0.158,0.005 -0.238,0.005 -3.583,59.74 -51.349,107.545 -111.067,111.196 z"/>
  <g style="fill:#e6e6fa;fill-opacity:0.9997549">
   <path style="fill:#e6e6fa;fill-opacity:0.9997549" d="m 249.775,145.062 c -0.473,0.029 -0.949,0.047 -1.421,0.079 -55.236,3.769 -99.511,47.995 -103.357,103.21 -0.032,0.473 -0.052,0.949 -0.081,1.422 H 249.774 V 145.062 Z"/>
   <path style="fill:#e6e6fa;fill-opacity:0.9997549" d="m 367.083,249.773 c -0.029,-0.484 -0.048,-0.969 -0.082,-1.451 -3.86,-55.2 -48.128,-99.412 -103.353,-103.181 -0.473,-0.032 -0.949,-0.05 -1.422,-0.079 v 104.711 z"/>
   <path style="fill:#e6e6fa;fill-opacity:0.9997549" d="m 144.897,262.223 c 0.029,0.484 0.047,0.967 0.079,1.449 3.714,55.356 48.06,99.733 103.402,103.498 0.464,0.032 0.933,0.05 1.399,0.077 V 262.222 h -104.88 z"/>
   <path style="fill:#e6e6fa;fill-opacity:0.9997549" d="m 262.225,367.248 c 0.466,-0.027 0.933,-0.045 1.397,-0.077 55.353,-3.766 99.706,-48.158 103.405,-103.527 0.032,-0.473 0.05,-0.948 0.077,-1.421 H 262.225 Z"/>
  </g>
 </g>
</svg>
