<svg xmlns="http://www.w3.org/2000/svg" style="isolation:isolate" width="16" height="16" viewBox="0 0 16 16">
 <defs>
  <clipPath id="_clipPath_89atEVBreKPEX9PAE5uV92ADXmTnnusL">
   <rect width="16" height="16"/>
  </clipPath>
 </defs>
 <g clip-path="url(#_clipPath_89atEVBreKPEX9PAE5uV92ADXmTnnusL)">
  <rect style="fill:#e6e6fa" fill-opacity="0" width="16" height="16"/>
  <path fill="#e6e6fa" d="M 14.286 8.598 L 14.286 4.367 L 16 4.653 L 14.048 2.665 L 11.079 3.157 L 9.721 6.077 L 2.286 2.286 L 4.571 6.286 L 0 5.143 C 0 5.143 5.921 10.598 6.073 10.691 L 5.696 11.13 L 5.86 11.706 L 2.35 13.714 L 6.913 13.714 L 14.286 8.598 Z"/>
 </g>
</svg>
