<svg xmlns="http://www.w3.org/2000/svg" style="isolation:isolate" width="16" height="16" viewBox="0 0 16 16">
 <path fill="#e6e6fa" d="M 8.381 1.905 C 7.119 1.905 6.095 2.928 6.095 4.19 C 6.095 4.367 6.129 4.526 6.167 4.69 L 3.714 6.214 C 3.323 5.901 2.826 5.714 2.286 5.714 C 1.023 5.714 0 6.738 0 8 C 0 9.263 1.023 10.286 2.286 10.286 C 2.826 10.286 3.323 10.099 3.714 9.786 L 6.167 11.31 C 6.129 11.474 6.095 11.634 6.095 11.81 C 6.095 13.072 7.118 14.095 8.381 14.095 C 9.643 14.095 10.666 13.072 10.666 11.81 C 10.666 10.547 9.643 9.524 8.381 9.524 C 7.841 9.524 7.343 9.71 6.952 10.024 L 4.5 8.5 C 4.538 8.335 4.571 8.176 4.571 8 C 4.571 7.824 4.538 7.665 4.5 7.5 L 6.952 5.977 C 7.343 6.29 7.841 6.476 8.381 6.476 C 9.643 6.476 10.666 5.453 10.666 4.191 C 10.666 2.928 9.643 1.905 8.381 1.905 L 8.381 1.905 Z M 13.714 1.905 C 12.452 1.905 11.429 2.928 11.429 4.19 C 11.429 5.453 12.452 6.476 13.714 6.476 C 14.977 6.476 16 5.453 16 4.19 C 16 2.928 14.977 1.905 13.714 1.905 Z M 13.714 9.524 C 12.452 9.524 11.429 10.547 11.429 11.81 C 11.429 13.072 12.452 14.095 13.714 14.095 C 14.977 14.095 16 13.072 16 11.81 C 16 10.547 14.977 9.524 13.714 9.524 Z"/>
</svg>
