<svg xmlns="http://www.w3.org/2000/svg" style="isolation:isolate" width="16" height="16" viewBox="0 0 16 16">
 <path fill="#e6e6fa" fill-rule="evenodd" d="M 8 0.348 L 8 0.348 C 8.576 0.348 9.043 0.815 9.043 1.391 L 9.043 14.609 C 9.043 15.185 8.576 15.652 8 15.652 L 8 15.652 C 7.424 15.652 6.957 15.185 6.957 14.609 L 6.957 1.391 C 6.957 0.815 7.424 0.348 8 0.348 L 8 0.348 L 8 0.348 L 8 0.348 Z M 4.522 3.13 L 4.522 3.13 C 5.098 3.13 5.565 3.598 5.565 4.174 L 5.565 11.826 C 5.565 12.402 5.098 12.87 4.522 12.87 L 4.522 12.87 C 3.946 12.87 3.478 12.402 3.478 11.826 L 3.478 4.174 C 3.478 3.598 3.946 3.13 4.522 3.13 L 4.522 3.13 L 4.522 3.13 L 4.522 3.13 Z M 11.478 1.043 L 11.478 1.043 C 12.054 1.043 12.522 1.511 12.522 2.087 L 12.522 13.913 C 12.522 14.489 12.054 14.957 11.478 14.957 L 11.478 14.957 C 10.902 14.957 10.435 14.489 10.435 13.913 L 10.435 2.087 C 10.435 1.511 10.902 1.043 11.478 1.043 L 11.478 1.043 L 11.478 1.043 Z M 1.043 2.435 L 1.043 2.435 C 1.619 2.435 2.087 2.902 2.087 3.478 L 2.087 12.522 C 2.087 13.098 1.619 13.565 1.043 13.565 L 1.043 13.565 C 0.468 13.565 0 13.098 0 12.522 L 0 3.478 C 0 2.902 0.468 2.435 1.043 2.435 L 1.043 2.435 Z M 14.957 2.435 L 14.957 2.435 C 15.532 2.435 16 2.902 16 3.478 L 16 12.522 C 16 13.098 15.532 13.565 14.957 13.565 L 14.957 13.565 C 14.381 13.565 13.913 13.098 13.913 12.522 L 13.913 3.478 C 13.913 2.902 14.381 2.435 14.957 2.435 Z"/>
</svg>
