<svg xmlns="http://www.w3.org/2000/svg" style="isolation:isolate" width="16" height="16" viewBox="0 0 16 16">
 <path fill="#e6e6fa" d="M 8.627 2.641 L 5.867 12.944 L 7.412 13.359 L 10.173 3.056 L 8.627 2.641 Z M 10.667 2.692 L 10.667 4.826 L 13.333 7.492 L 10.667 10.159 L 10.667 12.292 L 16 7.492 L 10.667 2.692 Z M 5.333 3.759 L 0 8.559 L 5.333 13.359 L 5.333 11.226 L 2.667 8.559 L 5.333 5.892 L 5.333 3.759 Z"/>
</svg>
