<svg xmlns="http://www.w3.org/2000/svg" style="isolation:isolate" width="16" height="16" viewBox="0 0 16 16">
 <path fill="#e6e6fa" fill-rule="evenodd" d="M 8 11.906 C 7.959 11.979 7.913 12.048 7.865 12.114 C 7.875 12.12 7.884 12.127 7.892 12.136 C 7.933 12.178 7.956 12.234 7.955 12.292 C 7.955 12.313 7.955 12.333 7.955 12.353 C 7.954 12.444 7.958 12.533 7.967 12.622 C 7.976 12.718 7.994 12.812 8.024 12.905 C 8.036 12.942 8.053 12.979 8.073 13.013 C 8.087 13.039 8.106 13.064 8.127 13.085 C 8.143 13.1 8.162 13.112 8.183 13.121 C 8.21 13.131 8.237 13.137 8.265 13.135 C 8.323 13.135 8.38 13.157 8.422 13.198 C 8.463 13.24 8.488 13.295 8.488 13.354 C 8.489 13.412 8.466 13.469 8.425 13.511 C 8.384 13.553 8.328 13.577 8.269 13.577 C 8.184 13.578 8.099 13.562 8.02 13.532 C 7.947 13.502 7.879 13.458 7.821 13.404 C 7.769 13.353 7.724 13.294 7.688 13.23 C 7.654 13.171 7.626 13.107 7.604 13.041 C 7.565 12.918 7.539 12.791 7.528 12.663 C 7.519 12.575 7.514 12.486 7.514 12.398 C 6.984 12.703 6.1 12.605 4.605 11.719 C 2.534 10.491 0.192 8.008 0 7.164 C 0.594 6.98 2.52 7.386 4.312 8.12 C 3.597 6.28 3.201 4.304 3.381 3.694 C 3.986 3.839 5.455 5.179 6.65 6.734 C 6.927 4.774 7.547 2.859 8 2.423 C 8.436 2.843 9.026 4.63 9.318 6.509 C 10.518 4.936 12.008 3.573 12.619 3.427 C 12.809 4.072 12.356 6.244 11.567 8.169 C 13.393 7.405 15.392 6.975 16 7.164 C 15.808 8.008 13.466 10.491 11.395 11.719 L 11.395 11.719 C 9.324 12.946 8.425 12.662 8 11.906 L 8 11.906 Z"/>
</svg>
