<svg xmlns="http://www.w3.org/2000/svg" style="isolation:isolate" width="16" height="16" viewBox="0 0 16 16">
 <path fill="#e6e6fa" d="M 2.814 12.4 C 1.076 10.974 0.006 10.068 0 10.017 C -0.006 9.971 0.332 7.998 0.751 5.632 L 1.512 1.33 L 13.936 1.296 Q 16.018 11.051 16 11.069 C 15.973 11.096 5.681 14.709 5.644 14.704 C 5.63 14.702 4.356 13.665 2.814 12.4 L 2.814 12.4 Z"/>
</svg>
