<svg xmlns="http://www.w3.org/2000/svg" width="16" height="16" version="1.1" viewBox="0 0 4.23 4.23">
 <g transform="translate(0,-292.76665)">
  <g transform="matrix(0.02995716,0,0,0.02995716,1.4425945,236.98482)" style="clip-rule:evenodd;fill-rule:evenodd;stroke:#888888;image-rendering:optimizeQuality;shape-rendering:geometricPrecision;text-rendering:geometricPrecision">
   <path d="m -36.323192,1868.2136 v 128.5117 l 77.22273,-68.0352 z" style="clip-rule:evenodd;fill:none;stroke:#e6e6fa;stroke-width:6;image-rendering:optimizeQuality;shape-rendering:geometricPrecision;text-rendering:geometricPrecision"/>
   <path d="m 22.798618,1913.1087 41.14176,-41.6287 21.6179,0.2327 v 120 h -40.90908 v -25 l -21.15256,21.8614 -23.7443104,-23.5344" style="clip-rule:evenodd;fill:none;stroke:#e6e6fa;stroke-width:6;image-rendering:optimizeQuality;shape-rendering:geometricPrecision;text-rendering:geometricPrecision"/>
  </g>
 </g>
</svg>
