<svg xmlns="http://www.w3.org/2000/svg" style="isolation:isolate" width="16" height="16" viewBox="0 0 16 16">
 <defs>
  <clipPath id="_clipPath_niPuOzNDMWLPghmiaaQppjcVDwU5LmqM">
   <rect width="16" height="16"/>
  </clipPath>
 </defs>
 <g clip-path="url(#_clipPath_niPuOzNDMWLPghmiaaQppjcVDwU5LmqM)">
  <rect style="fill:#e6e6fa" fill-opacity="0" width="16" height="16"/>
  <path fill="#e6e6fa" d="M 1.143 1.6 C 0.51 1.6 0 2.119 0 2.764 L 0 13.236 C 0 13.881 0.51 14.4 1.143 14.4 L 2.4 14.4 L 2.4 9.672 C 2.4 9.19 2.784 8.8 3.257 8.8 L 12.743 8.8 C 13.216 8.8 13.6 9.19 13.6 9.672 L 13.6 14.4 L 14.857 14.4 C 15.49 14.4 16 13.881 16 13.236 L 16 3.963 C 16 3.319 15.489 2.758 14.857 2.8 L 8.857 2.8 L 6.571 1.6 L 1.143 1.6 Z M 4 10.4 L 4 14.4 L 12 14.4 L 12 10.4 L 4 10.4 Z"/>
 </g>
</svg>
