<svg width="16" height="16" viewBox="0 0 16 16" fill="none" xmlns="http://www.w3.org/2000/svg">
<path fill-rule="evenodd" clip-rule="evenodd" d="M0 6.62753L1.85777 4H5.41859H7.53512H9.65098H10.4868H11.7674H13.8835H15.9996L15.996 4.00687L11.6641 12.258H9.54803L12.504 6.62753H10.3879L7.43183 12.258H5.31575H3.19956H1.08348L4.03947 6.62753H0Z" fill="#e6e6fa"/>
</svg>
