<svg xmlns="http://www.w3.org/2000/svg" style="isolation:isolate" width="16" height="16" viewBox="0 0 16 16">
 <path fill="#e6e6fa" fill-rule="evenodd" d="M 4.347 2.174 L 4.347 13.826 L 7.26 13.826 L 7.26 6.543 L 8.717 6.543 L 8.717 13.826 L 11.63 13.826 L 11.63 6.543 L 13.087 6.543 L 13.087 13.826 L 16 13.826 L 16 2.174 L 4.347 2.174 L 4.347 2.174 Z M 0 2.174 L 2.913 2.174 L 2.913 9.457 L 0 9.457 L 0 2.174 L 0 2.174 Z M 0 10.913 L 2.913 10.913 L 2.913 13.826 L 0 13.826 L 0 10.913 Z"/>
</svg>
