<svg xmlns="http://www.w3.org/2000/svg" style="isolation:isolate" width="16" height="16" viewBox="0 0 16 16">
 <defs>
  <clipPath id="_clipPath_EyPuuAjQUxUvVuDqlXvlKMvs7NcRHBep">
   <rect width="16" height="16"/>
  </clipPath>
 </defs>
 <g clip-path="url(#_clipPath_EyPuuAjQUxUvVuDqlXvlKMvs7NcRHBep)">
  <rect style="fill:#e6e6fa" fill-opacity="0" width="16" height="16"/>
  <path fill="#e6e6fa" fill-rule="evenodd" d="M 7.903 0.097 C 3.538 0.097 0 3.635 0 8 C 0 12.365 3.538 15.903 7.903 15.903 C 8.473 15.9 9.041 15.835 9.597 15.71 C 5.974 14.915 3.391 11.709 3.387 8 C 3.39 4.296 5.965 1.09 9.582 0.29 C 9.031 0.166 8.468 0.101 7.903 0.097 L 7.903 0.097 Z M 12.544 8.141 C 13.547 8.775 14.636 9.26 16 9.253 C 14.813 9.807 14.882 11.304 12.007 10.665 C 11.676 10.592 11.372 10.495 11.088 10.378 C 11.042 11.563 11.166 12.749 11.855 13.927 C 10.781 13.176 9.519 13.985 8.635 11.176 C 8.533 10.852 8.465 10.54 8.424 10.236 C 7.374 10.789 6.41 11.49 5.733 12.675 C 5.847 11.37 4.516 10.681 6.506 8.51 C 6.735 8.261 6.971 8.046 7.214 7.859 C 6.211 7.225 5.122 6.74 3.758 6.747 C 4.945 6.193 4.876 4.696 7.751 5.335 C 8.082 5.408 8.386 5.505 8.67 5.622 C 8.716 4.437 8.591 3.251 7.903 2.073 C 8.976 2.824 10.238 2.015 11.123 4.824 C 11.225 5.148 11.293 5.46 11.334 5.764 C 12.383 5.211 13.348 4.51 14.024 3.325 C 13.91 4.63 15.241 5.319 13.251 7.49 C 13.022 7.739 12.786 7.954 12.544 8.141 Z"/>
 </g>
</svg>
