<svg xmlns="http://www.w3.org/2000/svg" style="isolation:isolate" width="16" height="16" viewBox="0 0 16 16">
 <path fill="#e6e6fa" fill-rule="evenodd" d="M 7.982 8.036 C 7.978 8.036 7.974 8.037 7.97 8.037 C 7.969 8.014 7.968 7.992 7.965 7.969 C 7.963 7.993 7.971 8.015 7.982 8.036 Z M 7.971 8.061 L 7.971 8.061 L 7.974 8.061 C 7.991 8.052 8.01 8.043 8.027 8.034 L 8.027 8.034 C 8.012 8.035 7.997 8.035 7.971 8.061 Z M 4.457 8.984 C 1.92 10.211 0.164 12.348 2.548 13.724 C 3.464 14.251 4.123 14.282 4.602 14.074 C 4.663 14.593 5.019 15.148 5.932 15.677 C 8.051 16.901 9.108 14.445 9.013 11.722 C 10.295 14.128 12.442 15.724 13.664 13.605 C 14.191 12.69 14.222 12.031 14.015 11.551 C 14.534 11.491 15.09 11.136 15.619 10.221 C 16.999 7.831 14.394 6.86 11.577 7.063 C 14.082 5.806 15.804 3.587 13.635 2.336 C 12.72 1.809 12.061 1.778 11.582 1.985 C 11.522 1.466 11.166 0.91 10.251 0.381 C 7.776 -1.048 6.822 1.798 7.147 4.729 C 5.957 2.032 3.706 0.041 2.276 2.518 C 1.749 3.434 1.719 4.093 1.926 4.572 C 1.407 4.632 0.852 4.989 0.323 5.903 C -0.928 8.068 1.665 9.129 4.457 8.984 Z"/>
</svg>
