<svg xmlns="http://www.w3.org/2000/svg" width="16" height="16">
 <g color="#000" transform="translate(-552 -180)">
  <path fill="#e6e6fa" d="M560.64 181.668c-2.158.002-3.992 1.331-4.869 3.232l-.06.13-.14.01c-1.993.145-3.571 1.87-3.571 3.968 0 2.193 1.716 3.992 3.837 3.992h9.285c1.592 0 2.878-1.35 2.878-2.988a2.958 2.958 0 0 0-1.805-2.734l-.137-.059-.01-.148c-.135-2.994-2.487-5.4-5.404-5.403zm0 1c2.368.002 4.292 1.952 4.405 4.447v.01l.05.776.704.296a1.944 1.944 0 0 1 1.195 1.815c.01 1.114-.846 1.988-1.87 1.988H555.837c-1.556 0-2.838-1.32-2.838-2.992 0-1.597 1.185-2.866 2.645-2.973l.722-.05.31-.663v-.004c.73-1.58 2.214-2.648 3.962-2.65z" font-family="sans-serif" font-weight="400" overflow="visible"/>
 </g>
</svg>
