<svg xmlns="http://www.w3.org/2000/svg" style="isolation:isolate" width="16" height="16" viewBox="0 0 16 16">
 <path fill="#e6e6fa" fill-rule="evenodd" d="M 8 0 C 7.189 0.8 6.414 1.711 5.593 2.507 L 2.506 2.507 L 2.506 5.593 C 1.71 6.414 0.8 7.189 0 8 C 0.8 8.811 1.711 9.617 2.506 10.44 L 2.506 13.494 L 5.593 13.494 C 6.413 14.289 7.189 15.2 8 16 C 8.811 15.2 9.617 14.289 10.44 13.494 L 13.494 13.494 L 13.494 10.439 C 14.289 9.616 15.2 8.811 16 8 C 15.2 7.189 14.289 6.414 13.494 5.593 L 13.494 2.507 L 10.44 2.507 C 9.618 1.711 8.811 0.8 8 0 L 8 0 Z M 7.983 3.365 C 5.556 3.365 3.588 5.332 3.588 7.76 C 3.588 10.187 5.556 12.155 7.983 12.155 L 7.983 3.365 Z"/>
</svg>
