<svg xmlns="http://www.w3.org/2000/svg" style="isolation:isolate" width="16" height="16" viewBox="0 0 16 16">
 <path fill="#e6e6fa" d="M 13.383 16 L 2.617 16 L 2.617 0.772 L 5.337 0 L 5.337 13.394 L 12.72 13.394 L 13.383 16 Z"/>
</svg>
