<svg xmlns="http://www.w3.org/2000/svg" style="isolation:isolate" width="16" height="16" viewBox="0 0 16 16">
 <path fill="#e6e6fa" d="M 6.537 0 C 5.479 0.118 4.451 0.431 3.507 0.924 C 3.499 0.942 3.487 0.968 3.488 0.971 C 3.5 1.006 3.573 0.992 3.852 0.894 C 4.347 0.722 4.874 0.604 5.158 0.603 C 5.566 0.675 5.845 0.888 6.107 1.272 C 6.509 1.849 6.715 2.411 6.984 3.669 C 7.034 3.9 7.03 4.39 6.976 4.659 C 6.843 5.327 6.549 6.131 6.146 6.935 L 1.711 14.895 Q 1.665 14.982 1.292 15.61 C 1.716 15.785 2.381 15.909 3.293 15.969 L 7.399 6.181 C 7.534 5.969 7.684 5.85 7.788 5.873 C 7.868 5.891 7.98 6.031 8.143 6.318 C 9.481 8.685 10.26 11.809 11.287 14.23 C 11.467 14.783 11.714 15.433 11.948 16 Q 13.804 15.939 14.708 15.517 Q 14.251 14.539 14.063 14.11 C 12.201 9.49 8.15 1.036 8.15 1.036 C 8.04 0.866 7.818 0.597 7.711 0.502 C 7.419 0.245 6.987 0.039 6.537 0 Z"/>
</svg>
