<svg xmlns="http://www.w3.org/2000/svg" width="16" height="16" version="1.1">
 <g transform="matrix(0.35433441,0,0,0.35433441,-3.9246292,-85.060129)" style="fill:#e6e6fa">
  <path style="opacity:0.98999999;fill:#e6e6fa" d="m 26.73981,241.46572 c -0.882338,0 -1.59545,0.70932 -1.59545,1.58494 0,0.34453 0.131091,0.66026 0.319037,0.92053 l -3.988641,4.55024 c -0.159358,-0.0427 -0.305917,-0.10666 -0.478609,-0.10666 -1.07297,0 -1.967744,0.87785 -1.967744,1.9428 0,0.0427 0.0512,0.064 0.05333,0.10667 l -3.509969,2.30067 c -0.258771,-0.1792 -0.564794,-0.30613 -0.904097,-0.30613 -0.882338,0 -1.59545,0.70932 -1.59545,1.58494 0,0.53333 0.283943,0.99092 0.691299,1.27807 l -0.63818,11.86142 c -0.388796,0.21013 -0.63818,0.65386 -0.63818,1.12447 0,0.68586 0.584741,1.22697 1.27636,1.22697 0.03733,0 0.0704,0.004 0.106666,0 l 8.721818,8.84492 c -7.79e-4,0.0215 0,0.032 0,0.0533 0,0.68693 0.531514,1.27818 1.223166,1.27818 0.24533,0 0.498128,-0.0854 0.691406,-0.20481 l 4.786371,2.50515 c -0.0098,0.0747 -0.05333,0.13013 -0.05333,0.20373 0,0.87573 0.713166,1.58495 1.595461,1.58495 0.826018,0 1.459014,-0.6336 1.542256,-1.43156 l 12.76361,-3.73031 c 0.289919,0.40106 0.79434,0.66453 1.329533,0.66453 0.882338,0 1.59545,-0.70933 1.59545,-1.58484 0,-0.37013 -0.157986,-0.70186 -0.372261,-0.97172 l 5.530896,-12.11689 c 0.882232,0 1.595451,-0.70933 1.595451,-1.58484 0,-0.76799 -0.545383,-1.38836 -1.276362,-1.53385 l -1.75502,-5.77733 c 0.275305,-0.2272 0.478607,-0.53652 0.478607,-0.92052 0,-0.68693 -0.584739,-1.22708 -1.276359,-1.22708 -0.05867,0 -0.102389,0.0427 -0.159567,0.0533 l -8.03044,-9.71403 c 0.01185,-0.064 0.05334,-0.13547 0.05334,-0.2048 0,-0.68692 -0.584741,-1.22708 -1.276359,-1.22708 -0.411837,0 -0.72906,0.20693 -0.957324,0.51093 l -12.391343,-0.45973 c -0.217811,-0.61866 -0.791672,-1.07369 -1.489083,-1.07369 z m 1.489083,2.14739 12.178614,0.45973 c 0.08,0.27733 0.245864,0.50346 0.478607,0.66452 l -0.319035,1.38047 c -0.569914,0.13227 -1.02239,0.51413 -1.27636,1.02292 l -13.614514,1.63604 0.904097,-4.19238 c 0.05973,0.006 0.09813,0.0533 0.159573,0.0533 0.679566,0 1.258237,-0.4288 1.489083,-1.02292 z m 13.88043,1.22697 7.8177,9.45836 c -0.08213,0.16533 -0.159567,0.31466 -0.159567,0.51199 0,0.34347 0.145484,0.64426 0.372261,0.86933 l -0.638182,1.78942 -6.807248,-8.58925 c 0.149435,-0.27306 0.265907,-0.58772 0.265907,-0.92052 0,-0.83306 -0.530233,-1.5203 -1.276359,-1.78953 l 0.265907,-1.27806 c 0.05441,-0.0213 0.108485,-0.0213 0.159567,-0.0533 z m -16.167254,0.25493 -0.850871,3.73234 -2.605893,0.30613 c -0.01493,-0.0213 -0.03733,-0.032 -0.05333,-0.0533 l 3.50997,-3.9879 z m 13.401812,4.24359 -3.935458,15.23557 c -0.123197,0.032 -0.256958,0.0533 -0.372263,0.10667 l -10.104545,-11.40116 4.733178,-0.51093 c 0.212584,0.38613 0.642553,0.66452 1.11682,0.66452 0.691619,0 1.223187,-0.59092 1.223187,-1.27806 0,-0.096 -0.03307,-0.1664 -0.05333,-0.25493 l 6.807268,-2.50526 0.584954,-0.0533 z m -2.925004,0.30613 -4.733178,1.73832 c -0.22965,-0.27306 -0.517434,-0.46079 -0.904097,-0.46079 -0.691619,0 -1.27636,0.54079 -1.27636,1.22708 0,0.0213 -6.4e-4,0.032 0,0.0533 l -4.679983,0.56213 0.372263,-1.84051 11.221333,-1.27828 z m 5.052266,0.25493 7.392255,9.40726 -1.542278,4.29457 -9.253599,2.14728 c -0.136639,-0.2496 -0.31861,-0.42666 -0.531835,-0.61333 z m -16.91179,1.12479 -0.319037,1.48265 -1.170014,-1.32927 1.489104,-0.1536 z m -5.052267,0.51092 c 0.09493,0.11414 0.201171,0.2176 0.319143,0.30613 l -0.265917,1.48265 -3.35045,0.4096 c -0.0033,-0.0213 0.0033,-0.032 0,-0.0533 z m 1.382726,0.71573 c 0.03627,0.002 0.06933,0 0.106665,0 0.03627,0 0.0704,0.002 0.106665,0 l 0.744525,0.81812 -1.116841,0.1536 0.159572,-0.97172 z m 1.435911,1.32937 1.382727,1.53375 -0.63818,2.81191 c -0.665273,0.032 -1.169994,0.56 -1.169994,1.22708 0,0.3872 0.198931,0.69226 0.478609,0.92053 l -4.201343,6.33977 2.446353,-12.62824 z m -2.87181,0.30613 -2.659076,13.75292 c -0.471462,0.096 -0.841592,0.41067 -1.063669,0.81813 l -0.744526,-0.1536 c 0,-0.51519 -0.295037,-0.98772 -0.744525,-1.17599 l 0.63818,-11.55454 c 0.706552,-0.096 1.232392,-0.62826 1.329554,-1.32927 l 3.244083,-0.35839 z m 4.679994,1.78942 9.466343,10.58315 c -0.01815,0.064 -0.04053,0.13653 -0.05333,0.20373 l -15.31634,1.63614 c -0.0992,-0.096 -0.197011,-0.1856 -0.319036,-0.256 l 4.892727,-7.51565 c 0.104531,0.032 0.205117,0.0533 0.319037,0.0533 0.691619,0 1.27636,-0.54079 1.27636,-1.22697 0,-0.49066 -0.328317,-0.92266 -0.744526,-1.1249 l 0.478609,-2.35176 z m 26.484491,0.30613 c 0.03308,0.0107 0.07253,-0.006 0.10665,0 l 1.435921,4.90811 -2.233639,-2.91421 0.691299,-1.9939 z m -1.382739,3.83442 2.233641,2.81191 -3.51,0.81813 z m 2.393183,4.39686 -5.05227,10.9922 0.106679,-6.85091 c 0.53386,-0.1088 0.957321,-0.5632 0.957321,-1.12479 0,-0.45546 -0.306876,-0.83199 -0.691406,-1.02292 l 0.372253,-0.97173 4.307719,-1.02292 z m -4.892717,1.17588 -0.265907,0.66452 c -0.64714,0 -1.170005,0.53333 -1.170005,1.17589 0,0.53652 0.353172,0.99092 0.850871,1.12478 l -0.159567,7.82232 c -0.390185,0.11946 -0.704741,0.42133 -0.904098,0.76693 l -6.966811,-1.53385 c 0,-0.68586 -0.58474,-1.22698 -1.276371,-1.22698 -0.673272,0 -1.247752,0.51413 -1.276359,1.17588 l -1.701817,0.4096 2.127263,-6.44196 c 1.1637,-0.0213 2.137919,-0.89066 2.339997,-1.9939 l 8.402708,-1.94281 z m -12.923152,2.65864 c 0.146026,0.26666 0.352317,0.52266 0.584954,0.71572 l -2.446353,7.46457 -5.10545,1.27806 -8.243168,-7.72002 c 0.01174,-0.032 0.04267,-0.0747 0.05333,-0.10667 l 15.15679,-1.63604 z m -18.454047,1.32926 0.212692,0.0533 c 0.0099,0.064 -0.01707,0.144 0,0.2048 l -0.212692,-0.25494 z m 1.27635,1.27818 c 0.151252,0.0533 0.311676,0.10665 0.478608,0.10665 0.0352,0 0.07147,0.002 0.106665,0 l 6.966796,6.49305 c -0.109653,-0.032 -0.252583,-0.0533 -0.372263,-0.0533 -0.24533,0 -0.445008,0.0853 -0.63818,0.20481 l -6.54136,-6.74872 z m 19.039054,5.21488 c 0.179091,0.46932 0.63466,0.76692 1.170004,0.76692 0.518714,0 0.979936,-0.26986 1.169993,-0.71572 l 6.062719,1.32926 -11.80635,3.42546 1.435911,-4.34577 z m -3.882253,0.97172 -1.276371,3.83452 c -0.0704,0.0107 -0.146025,0.032 -0.212691,0.0533 l -3.031349,-2.81203 z m -6.381821,1.53385 0.797751,0.76693 -1.11682,-0.61333 c 0.0016,-0.032 0,-0.064 0,-0.10668 z"/>
 </g>
</svg>
