<svg xmlns="http://www.w3.org/2000/svg" width="16" height="16" version="1.1">
 <path style="fill:#e6e6fa" d="m 0.500314,8.2790621 c 0,-3.7894298 1.959662,-5.8553196 3.106208,-5.8553196 1.146611,0 1.26912,0.5842394 1.26912,1.5143433 0,1.8054803 -2.187624,1.1578583 -2.187624,4.5461291 0,1.1222173 0.618958,2.3775121 1.898804,2.3775121 1.026864,0 1.404544,-1.0918303 1.925167,-3.2824444 0.863735,-3.2932535 1.738102,-5.7793133 4.688689,-5.7793133 2.866839,0 4.299322,2.41217 4.299322,6.2017889 0,3.7895428 -2.219535,6.2954448 -3.366146,6.2954448 -1.14655,0 -1.632899,-0.45736 -1.632899,-1.38754 0,-1.80548 2.601449,-1.515212 2.601449,-4.903445 0,-1.1222173 -0.491819,-2.7750802 -1.771601,-2.7750802 -1.026863,0 -1.3897964,0.071811 -2.019662,2.4733983 C 8.96864,10.270117 8.153653,14.3 5.035569,14.3 2.168919,14.3 0.5,12.068794 0.5,8.2794401 Z"/>
</svg>
