<svg xmlns="http://www.w3.org/2000/svg" style="isolation:isolate" width="16" height="16" viewBox="0 0 16 16">
 <path fill="#e6e6fa" d="M 3.994 1 C 2.736 1.014 1.815 0.969 1.063 1.385 C 0.686 1.592 0.389 1.944 0.225 2.383 C 0.06 2.821 0 3.342 0 4 L 0 12 C 0 12.658 0.06 13.179 0.225 13.617 C 0.389 14.056 0.686 14.408 1.063 14.615 C 1.815 15.031 2.736 14.985 3.994 15 L 3.998 15 L 12.002 15 L 12.006 15 C 13.264 14.986 14.185 15.031 14.938 14.615 C 15.314 14.408 15.611 14.056 15.776 13.617 C 15.94 13.179 16 12.658 16 12 L 16 4 C 16 3.342 15.94 2.821 15.775 2.383 C 15.611 1.944 15.314 1.592 14.938 1.385 C 14.185 0.969 13.264 1.015 12.006 1 L 12.002 1 L 3.998 1 L 3.994 1 L 3.994 1 L 3.994 1 Z M 4 2 L 12 2 C 13.259 2.015 14.087 2.06 14.453 2.262 C 14.637 2.363 14.742 2.474 14.84 2.734 C 14.937 2.994 15 3.408 15 4 L 15 12 C 15 12.592 14.937 13.006 14.84 13.266 C 14.742 13.526 14.637 13.637 14.453 13.738 C 14.087 13.94 13.259 13.985 12 14 L 4.006 14 L 4 14 C 2.741 13.985 1.911 13.94 1.545 13.738 C 1.362 13.637 1.258 13.526 1.16 13.266 C 1.063 13.006 1 12.592 1 12 L 1 4 C 1 3.408 1.063 2.994 1.16 2.734 C 1.258 2.474 1.362 2.363 1.545 2.262 C 1.911 2.06 2.741 2.015 4 2 L 4 2 L 4 2 L 4 2 Z"/>
 <rect fill="#e6e6fa" width="14.406" height="2.359" x=".81" y="1.91" transform="matrix(1,0,0,1,0,0)"/>
 <path fill="#e6e6fa" d="M 11.234 7.674 L 11.234 6.538 L 10.097 6.538 L 11.234 7.674 L 11.234 7.674 Z"/>
 <path fill="#e6e6fa" d="M 4.418 8.81 L 4.418 13.353 L 9.53 13.353 L 9.53 12.786 L 4.986 12.786 L 4.986 8.431 L 4.418 8.81 L 4.418 8.81 Z M 10.667 8.242 L 10.666 13.353 L 11.234 13.353 L 11.234 8.81 L 10.667 8.242 L 10.667 8.242 Z"/>
 <path fill="#e6e6fa" d="M 7.826 9.938 C 7.94 9.91 8.055 9.887 8.171 9.868 C 8.314 9.844 8.479 9.832 8.666 9.832 C 8.833 9.832 8.973 9.856 9.083 9.905 C 9.194 9.951 9.282 10.017 9.347 10.104 C 9.415 10.187 9.462 10.289 9.489 10.408 C 9.516 10.527 9.53 10.658 9.53 10.801 L 9.53 12.899 L 7.826 12.899 L 7.826 9.938 L 7.826 9.938 Z"/>
 <path fill="#e6e6fa" fill-rule="evenodd" d="M 7.826 5 L 3.365 9.46 L 3.767 9.863 L 7.826 5.803 L 11.885 9.863 L 12.287 9.46 L 7.826 5 L 7.826 5 Z"/>
</svg>
