<svg xmlns="http://www.w3.org/2000/svg" style="isolation:isolate" width="16" height="16" viewBox="0 0 16 16">
 <path fill="#e6e6fa" d="M 13.485 13.347 C 12.439 12.451 11.708 12.255 10.074 12.431 C 9.92 12.447 9.765 12.466 9.729 12.471 C 9.666 12.482 9.664 12.48 9.664 12.413 C 9.664 12.333 9.641 12.339 10.094 12.286 C 10.314 12.261 10.554 12.251 10.985 12.251 C 11.522 12.25 11.596 12.254 11.8 12.296 C 12.431 12.424 12.963 12.712 13.622 13.281 L 13.704 13.352 L 13.659 13.404 L 13.614 13.456 L 13.485 13.347 Z M 2.342 13.235 L 2.299 13.189 L 2.45 13.06 C 3.136 12.474 3.691 12.198 4.391 12.096 C 4.648 12.059 5.377 12.065 5.781 12.107 C 6.373 12.17 6.33 12.16 6.338 12.238 L 6.344 12.306 L 6.208 12.293 C 6.132 12.286 5.949 12.266 5.801 12.25 C 5.652 12.233 5.368 12.214 5.17 12.207 C 4.124 12.17 3.457 12.401 2.646 13.08 C 2.515 13.19 2.403 13.28 2.396 13.28 C 2.39 13.281 2.365 13.26 2.342 13.235 L 2.342 13.235 Z M 15.367 12.808 C 14.299 12.022 13.288 11.64 12.007 11.54 C 11.681 11.515 10.933 11.514 10.495 11.539 C 10.319 11.549 10.06 11.563 9.919 11.571 L 9.664 11.585 L 9.664 11.523 C 9.664 11.444 9.649 11.447 10.165 11.415 C 10.784 11.376 11.945 11.382 12.306 11.426 C 13.367 11.555 14.223 11.871 15.119 12.467 C 15.4 12.653 15.569 12.782 15.569 12.809 C 15.569 12.823 15.552 12.85 15.532 12.868 C 15.497 12.9 15.488 12.897 15.367 12.808 L 15.367 12.808 Z M 0.459 12.685 L 0.418 12.627 L 0.582 12.506 C 1.67 11.706 2.675 11.333 3.999 11.24 C 4.495 11.205 5.23 11.216 6.126 11.271 L 6.341 11.284 L 6.341 11.355 L 6.341 11.425 L 6.166 11.413 C 5.27 11.349 4.166 11.347 3.659 11.409 C 2.485 11.552 1.555 11.938 0.566 12.692 L 0.5 12.742 L 0.459 12.685 Z M 7.818 12.121 C 7.44 12.052 7.144 11.854 7.007 11.58 C 6.96 11.485 6.952 11.445 6.952 11.299 C 6.952 11.157 6.96 11.111 7.004 11.019 C 7.11 10.797 7.304 10.636 7.592 10.531 C 7.803 10.454 8.165 10.435 8.389 10.488 C 8.718 10.566 8.996 10.765 9.115 11.009 C 9.166 11.114 9.174 11.151 9.173 11.299 C 9.172 11.445 9.164 11.485 9.117 11.58 C 9.005 11.799 8.773 11.984 8.495 12.072 C 8.316 12.128 7.989 12.152 7.818 12.121 Z M 15.729 11.297 C 14.9 11.04 14.031 10.849 13.262 10.756 C 12.952 10.718 12.791 10.711 12.186 10.71 C 11.464 10.709 11.306 10.719 10.735 10.8 C 10.452 10.841 9.999 10.929 9.724 10.996 L 9.574 11.033 L 9.556 10.974 C 9.542 10.932 9.544 10.911 9.562 10.9 C 9.6 10.877 10.096 10.767 10.425 10.709 C 11.063 10.598 11.382 10.571 12.126 10.57 C 13.17 10.568 13.877 10.66 14.959 10.939 C 15.318 11.031 15.964 11.214 15.993 11.231 C 16.016 11.245 15.978 11.349 15.948 11.353 C 15.932 11.355 15.834 11.33 15.729 11.297 L 15.729 11.297 Z M 0.018 11.137 C 0.006 11.102 -0.002 11.071 0.001 11.069 C 0.015 11.058 0.3 10.971 0.586 10.891 C 1.984 10.5 3.1 10.352 4.289 10.401 C 4.897 10.425 5.441 10.496 5.991 10.622 C 6.134 10.654 6.299 10.691 6.358 10.704 C 6.462 10.727 6.464 10.729 6.453 10.787 C 6.446 10.819 6.437 10.85 6.433 10.854 C 6.428 10.858 6.285 10.83 6.114 10.79 C 5.331 10.608 4.68 10.533 3.879 10.534 C 2.962 10.534 2.169 10.635 1.164 10.88 C 0.887 10.948 0.174 11.149 0.073 11.189 C 0.049 11.198 0.035 11.185 0.018 11.137 L 0.018 11.137 Z M 9.597 9.65 C 9.361 9.551 9.213 9.409 9.096 9.167 C 8.858 8.681 8.945 8.071 9.302 7.715 C 9.565 7.453 9.87 7.391 10.181 7.536 C 10.463 7.668 10.676 7.983 10.741 8.364 C 10.83 8.889 10.596 9.422 10.187 9.623 C 10.075 9.678 10.03 9.689 9.885 9.693 C 9.741 9.698 9.696 9.691 9.597 9.65 L 9.597 9.65 Z M 10.285 8.987 C 10.522 8.865 10.586 8.36 10.403 8.063 C 10.352 7.982 10.271 7.936 10.176 7.936 C 10.016 7.936 9.882 8.177 9.882 8.467 C 9.882 8.715 9.956 8.896 10.092 8.979 C 10.167 9.025 10.208 9.027 10.285 8.987 L 10.285 8.987 Z M 5.979 9.512 C 5.698 9.432 5.449 9.168 5.339 8.835 C 5.297 8.708 5.29 8.649 5.29 8.417 C 5.29 8.089 5.334 7.928 5.486 7.702 C 5.651 7.455 5.867 7.319 6.121 7.301 C 6.533 7.271 6.904 7.588 7.036 8.082 C 7.081 8.251 7.08 8.586 7.034 8.755 C 6.911 9.206 6.587 9.513 6.216 9.531 C 6.136 9.534 6.03 9.526 5.979 9.512 L 5.979 9.512 Z M 6.642 8.797 C 6.74 8.727 6.808 8.556 6.818 8.356 C 6.831 8.075 6.749 7.865 6.596 7.79 C 6.533 7.759 6.51 7.757 6.452 7.776 C 6.168 7.87 6.097 8.503 6.342 8.76 C 6.404 8.826 6.427 8.837 6.5 8.837 C 6.554 8.837 6.606 8.822 6.642 8.797 L 6.642 8.797 Z M 2.509 8.551 C 2.206 7.547 1.928 6.285 1.818 5.419 C 1.727 4.697 1.715 4.022 1.787 3.593 C 1.98 2.437 2.686 2.272 3.619 3.166 C 4.073 3.601 4.54 4.221 5.035 5.044 C 5.231 5.371 5.56 5.965 5.56 5.992 C 5.56 6.001 5.536 6.02 5.506 6.033 C 5.461 6.054 5.448 6.053 5.435 6.032 C 5.426 6.017 5.342 5.865 5.248 5.694 C 4.654 4.617 4.093 3.823 3.556 3.301 C 3.178 2.934 2.882 2.755 2.619 2.737 C 2.247 2.71 2.028 3 1.913 3.673 C 1.879 3.871 1.88 4.749 1.914 5.064 C 2.013 5.974 2.249 7.125 2.568 8.248 C 2.628 8.462 2.678 8.646 2.678 8.655 C 2.678 8.665 2.651 8.683 2.618 8.694 L 2.559 8.715 L 2.509 8.551 Z M 13.297 8.643 C 13.275 8.637 13.25 8.626 13.241 8.618 C 13.233 8.61 13.275 8.429 13.335 8.215 C 13.92 6.144 14.15 4.491 13.987 3.52 C 13.852 2.72 13.457 2.487 12.849 2.85 C 12.225 3.221 11.392 4.282 10.669 5.624 C 10.459 6.015 10.465 6.007 10.404 5.975 C 10.377 5.961 10.351 5.946 10.347 5.943 C 10.335 5.932 10.655 5.35 10.881 4.974 C 11.861 3.338 12.81 2.446 13.46 2.552 C 13.521 2.562 13.609 2.592 13.656 2.62 C 14.3 2.997 14.35 4.538 13.797 6.966 C 13.661 7.564 13.369 8.659 13.348 8.655 C 13.342 8.653 13.319 8.648 13.297 8.643 L 13.297 8.643 Z"/>
</svg>
