<svg xmlns="http://www.w3.org/2000/svg" style="isolation:isolate" width="16" height="16" viewBox="0 0 16 16">
 <path fill="#e6e6fa" fill-rule="evenodd" d="M 2.146 0 L 2.146 4.761 C 2.146 4.215 3.493 3.122 4.332 3.122 L 6.829 3.122 L 6.829 12.878 L 5.659 14.439 L 10.341 14.439 L 9.171 12.878 L 9.171 5.659 C 9.623 2.465 10.755 1.738 13.045 1.171 L 3.073 1.171 L 2.146 0 L 2.146 0 Z M 0.195 5.854 L 5.659 5.854 L 4.488 7.415 L 4.488 14.361 L 5.659 16 L 0.195 16 L 1.366 14.361 L 1.366 7.415 L 0.195 5.854 L 0.195 5.854 Z M 10.341 5.854 L 15.805 5.854 L 14.634 7.415 L 14.634 14.361 L 15.805 16 L 10.341 16 L 11.512 14.361 L 11.512 7.415 L 10.341 5.854 Z"/>
</svg>
