<svg xmlns="http://www.w3.org/2000/svg" style="isolation:isolate" width="16" height="16" viewBox="0 0 16 16">
 <path fill="#e6e6fa" fill-rule="evenodd" d="M 3.165 6.25 L 2.345 6.25 L 2.345 9.046 L 3.165 9.046 L 3.165 9.046 Q 3.589 9.046 3.837 8.843 L 3.837 8.843 L 3.837 8.843 Q 4.085 8.64 4.085 8.27 L 4.085 8.27 L 4.085 7.026 L 4.085 7.026 Q 4.085 6.656 3.837 6.453 L 3.837 6.453 L 3.837 6.453 Q 3.589 6.25 3.165 6.25 L 3.165 6.25 L 3.165 6.25 Z M 0.244 4.492 L 0.244 4.492 L 3.12 4.492 L 3.12 4.492 Q 4.112 4.492 4.843 4.753 L 4.843 4.753 L 4.843 4.753 Q 5.573 5.015 6.024 5.637 L 6.024 5.637 L 6.024 5.637 Q 6.475 6.259 6.475 7.188 L 6.475 7.188 L 6.475 8.108 L 6.475 8.108 Q 6.475 9.551 5.501 10.209 L 5.501 10.209 L 5.501 10.209 Q 4.608 10.804 3.12 10.804 L 3.12 10.804 L 0.244 10.804 L 0.244 10.804 Q 0.144 10.804 0.072 10.732 L 0.072 10.732 L 0.072 10.732 Q 0 10.66 0 10.561 L 0 10.561 L 0 4.735 L 0 4.735 Q 0 4.636 0.072 4.564 L 0.072 4.564 L 0.072 4.564 Q 0.144 4.492 0.244 4.492 L 0.244 4.492 Z M 13.214 8.64 L 13.214 6.186 L 12.32 6.186 L 12.32 7.974 L 12.32 7.974 Q 12.32 8.473 12.241 8.64 L 12.241 8.64 L 13.214 8.64 L 13.214 8.64 Z M 10.453 4.39 L 10.453 4.39 L 15.08 4.39 L 15.08 4.39 Q 15.176 4.39 15.246 4.46 L 15.246 4.46 L 15.246 4.46 Q 15.316 4.53 15.316 4.626 L 15.316 4.626 L 15.316 8.64 L 15.763 8.64 L 15.763 8.64 Q 15.86 8.64 15.93 8.71 L 15.93 8.71 L 15.93 8.71 Q 16 8.78 16 8.876 L 16 8.876 L 16 11.374 L 16 11.374 Q 16 11.47 15.93 11.54 L 15.93 11.54 L 15.93 11.54 Q 15.86 11.61 15.763 11.61 L 15.763 11.61 L 14.344 11.61 L 14.344 11.61 Q 14.248 11.61 14.177 11.54 L 14.177 11.54 L 14.177 11.54 Q 14.107 11.47 14.107 11.374 L 14.107 11.374 L 14.107 10.524 L 11.119 10.524 L 11.119 11.374 L 11.119 11.374 Q 11.119 11.47 11.049 11.54 L 11.049 11.54 L 11.049 11.54 Q 10.979 11.61 10.883 11.61 L 10.883 11.61 L 9.472 11.61 L 9.472 11.61 Q 9.376 11.61 9.306 11.544 L 9.306 11.544 L 9.306 11.544 Q 9.235 11.479 9.235 11.374 L 9.235 11.374 L 9.235 8.876 L 9.235 8.876 Q 9.235 8.78 9.306 8.71 L 9.306 8.71 L 9.306 8.71 Q 9.376 8.64 9.472 8.64 L 9.472 8.64 L 9.612 8.64 L 9.612 8.64 Q 9.823 8.64 10.02 8.456 L 10.02 8.456 L 10.02 8.456 Q 10.217 8.272 10.217 7.965 L 10.217 7.965 L 10.217 4.626 L 10.217 4.626 Q 10.217 4.53 10.287 4.46 L 10.287 4.46 L 10.287 4.46 Q 10.357 4.39 10.453 4.39 L 10.453 4.39 Z"/>
</svg>
