<svg xmlns="http://www.w3.org/2000/svg" style="isolation:isolate" width="16" height="16" viewBox="0 0 16 16">
 <path fill="#e6e6fa" fill-rule="evenodd" d="M 0 5.217 L 2.244 10.783 L 3.844 10.783 L 6.052 5.217 L 4.539 5.217 L 3.026 8.887 L 1.53 5.217 L 0 5.217 Z M 7.53 5.217 C 6.777 7.082 6.011 8.935 5.217 10.783 L 6.817 10.783 L 8.313 7.13 L 9.791 10.783 L 11.391 10.783 L 12.87 7.026 L 14.4 10.783 L 16 10.783 C 15.206 8.935 14.423 7.082 13.67 5.217 L 12.07 5.217 L 10.591 8.887 L 9.078 5.217 L 7.53 5.217 Z"/>
</svg>
