<svg xmlns="http://www.w3.org/2000/svg" style="isolation:isolate" width="16" height="16" viewBox="0 0 16 16">
 <path fill="#e6e6fa" d="M 1.778 1.778 C 0.793 1.778 0 2.571 0 3.556 L 8 8 L 16 3.556 C 16 2.571 15.207 1.778 14.222 1.778 L 1.778 1.778 Z M 1.778 2.667 L 14.222 2.667 C 14.559 2.667 14.788 2.866 14.939 3.127 L 8 6.982 L 1.061 3.127 C 1.212 2.866 1.441 2.666 1.777 2.666 L 1.778 2.667 Z M 0 4.444 L 0 12.444 C 0 13.429 0.793 14.222 1.778 14.222 L 14.222 14.222 C 15.207 14.222 16 13.429 16 12.444 L 16 4.444 L 8 8.889 L 0 4.444 Z M 0.889 5.957 L 7.568 9.667 C 7.836 9.816 8.164 9.816 8.432 9.667 L 15.111 5.957 L 15.111 12.444 C 15.111 12.952 14.729 13.333 14.222 13.333 L 1.777 13.333 C 1.269 13.333 0.888 12.952 0.888 12.444 L 0.888 5.957 L 0.889 5.957 Z"/>
</svg>
