<svg xmlns="http://www.w3.org/2000/svg" style="isolation:isolate" width="16" height="16" viewBox="0 0 16 16">
 <path fill="#e6e6fa" fill-rule="evenodd" d="M 3.751 7.15 C 3.282 7.151 2.902 7.531 2.901 8 C 2.901 8.469 3.282 8.85 3.751 8.85 C 4.22 8.85 4.6 8.469 4.6 8 C 4.6 7.531 4.22 7.15 3.751 7.15 L 3.751 7.15 Z M 3.751 6.301 C 4.702 6.301 5.45 7.049 5.45 8 C 5.45 8.951 4.702 9.699 3.751 9.699 C 2.799 9.699 2.052 8.951 2.052 8 C 2.052 7.049 2.799 6.301 3.751 6.301 L 3.751 6.301 Z M 3.751 5.621 C 1.712 5.621 0.144 7.696 0.076 7.798 C -0.025 7.934 -0.025 8.067 0.076 8.202 C 0.144 8.304 1.712 10.379 3.751 10.379 C 5.79 10.379 7.357 8.304 7.425 8.202 C 7.527 8.066 7.527 7.933 7.425 7.798 C 7.357 7.696 5.79 5.621 3.751 5.621 L 3.751 5.621 Z M 12.249 7.15 C 11.78 7.151 11.4 7.531 11.4 8 C 11.4 8.469 11.78 8.85 12.249 8.85 C 12.718 8.85 13.099 8.469 13.099 8 C 13.099 7.531 12.718 7.15 12.249 7.15 L 12.249 7.15 Z M 12.249 6.301 C 13.201 6.301 13.948 7.049 13.948 8 C 13.948 8.951 13.201 9.699 12.249 9.699 C 11.298 9.699 10.55 8.951 10.55 8 C 10.55 7.049 11.298 6.301 12.249 6.301 L 12.249 6.301 Z M 12.249 5.621 C 10.21 5.621 8.643 7.696 8.575 7.798 C 8.473 7.934 8.473 8.067 8.575 8.202 C 8.643 8.304 10.21 10.379 12.249 10.379 C 14.288 10.379 15.856 8.304 15.924 8.202 C 16.025 8.066 16.025 7.933 15.924 7.798 C 15.856 7.696 14.288 5.621 12.249 5.621 L 12.249 5.621 Z"/>
</svg>
