<svg xmlns="http://www.w3.org/2000/svg" style="isolation:isolate" width="16" height="16" viewBox="0 0 16 16">
 <path fill="#e6e6fa" d="M 11.703 7.079 L 15.999 5.693 Q 16.001 5.981 15.998 6.132 L 0.02 11.293 C 0.008 11.164 0.002 10.994 0 10.857 L 3.657 9.677 L 2.933 7.452 L 2.891 7.323 L 10.931 4.707 L 10.931 4.707 L 11.703 7.079 Z"/>
</svg>
