<svg xmlns="http://www.w3.org/2000/svg" width="16" height="16" version="1.1">
 <path class="st2" d="M 6.89759,9.03012 2,0.49999996 H 4.60241 L 8.036145,6.481928 11.46988,0.49999996 h 2.602409 L 9.1566271,9.012048 V 15.5 H 6.89759 Z" style="fill:#e6e6fa"/>
</svg>
