<svg xmlns="http://www.w3.org/2000/svg" style="isolation:isolate" width="16" height="16" viewBox="0 0 16 16">
 <path fill="#e6e6fa" fill-rule="evenodd" d="M 0.859 4.955 L 0.859 8 C 0.859 8.676 0.805 9.84 1.251 10.381 C 1.991 11.622 3.577 14.306 4.186 15.535 C 4.385 15.903 4.826 16 5.383 16 L 8 16 L 10.617 16 C 11.174 16 11.615 15.903 11.814 15.535 C 12.423 14.306 14.009 11.622 14.749 10.381 C 15.195 9.84 15.141 8.676 15.141 8 L 15.141 4.955 C 15.141 2.4 11.967 0 8 0 C 4.033 0 0.859 2.4 0.859 4.955 Z M 2.571 6.857 L 2.571 7.714 C 3.754 7.529 4.3 9.054 4.787 9.904 C 5.244 10.698 5.819 12.857 5.819 12.857 C 6.257 11.348 6.016 8.571 8 8.571 C 9.984 8.571 9.743 11.348 10.181 12.857 C 10.181 12.857 10.756 10.698 11.213 9.904 C 11.7 9.054 12.246 7.529 13.429 7.714 L 13.429 6.857 L 8 6.857 L 2.571 6.857 Z"/>
</svg>
