/* XPM */
static char * title_3_inactive_xpm[] = {
"2 26 3 1",
" 	c None",
".	c #343434",
"+	c #343434",
"..",
"++",
"++",
"++",
"++",
"++",
"++",
"++",
"++",
"++",
"++",
"++",
"++",
"++",
"++",
"++",
"++",
"++",
"++",
"++",
"++",
"++",
"++",
"++",
"++",
"++"};
