<svg xmlns="http://www.w3.org/2000/svg" width="16" height="16" viewBox="0 0 16 16">
 <defs>
  <style id="current-color-scheme" type="text/css">
   .ColorScheme-Text { color:#e6e6fa; } .ColorScheme-Highlight { color:#5294e2; }
  </style>
 </defs>
 <path style="fill:currentColor" class="ColorScheme-Text" d="M 4 0.00390625 C 4 0.00390625 3 0.00391625 3 1.0039062 L 3 15.003906 L 8 12.003906 L 13 15.003906 L 13 1.0039062 C 13 1.0038063 13 0.00390625 12 0.00390625 L 4 0.00390625 z M 5 5.0039062 L 11 5.0039062 L 11 7.0039062 L 5 7.0039062 L 5 5.0039062 z"/>
</svg>
