<svg xmlns="http://www.w3.org/2000/svg" width="16" height="16" viewBox="0 0 16 16">
 <defs>
  <style id="current-color-scheme" type="text/css">
   .ColorScheme-Text { color:#e6e6fa; } .ColorScheme-Highlight { color:#5294e2; }
  </style>
 </defs>
 <path style="fill:currentColor" class="ColorScheme-Text" d="M 8.0195312 -0.00390625 L 1.9882812 5.9960938 L 3.3632812 7.4023438 L 6.9882812 3.7460938 L 7.0195312 11.214844 L 9.0195312 11.214844 L 8.9882812 3.7460938 L 12.644531 7.4023438 L 14.019531 5.9960938 L 8.0195312 -0.00390625 z M 8.0195312 11.996094 C 6.9149513 11.996094 6.0195312 12.891524 6.0195312 13.996094 C 6.0195312 15.100664 6.9149312 15.996094 8.0195312 15.996094 C 9.1241013 15.996094 10.019531 15.100664 10.019531 13.996094 C 10.019531 12.891524 9.1241112 11.996094 8.0195312 11.996094 z"/>
</svg>
