<svg xmlns="http://www.w3.org/2000/svg" width="16" height="16" viewBox="0 0 16 16">
 <defs>
  <style id="current-color-scheme" type="text/css">
   .ColorScheme-Text { color:#e6e6fa; } .ColorScheme-Highlight { color:#5294e2; }
  </style>
 </defs>
 <path style="fill:currentColor" class="ColorScheme-Text" d="M 14.533203 2.0058594 A 0.50005 0.50005 0 0 0 14.064453 2.5800781 C 14.285963 4.1972781 14.020872 6.3624 13.013672 8.0625 C 12.362402 9.1618 11.421266 10.075091 10.072266 10.587891 L 10.072266 8.9941406 L 5.0722656 8.9941406 L 5.0722656 10.658203 C 3.6411656 10.173203 2.6709375 9.2553125 2.0234375 8.1328125 C 1.0640375 6.4698125 0.84995625 4.3390969 1.0976562 2.7167969 A 0.50005 0.50005 0 1 0 0.109375 2.5644531 C -0.170055 4.3945531 0.050303125 6.7102594 1.1582031 8.6308594 C 1.9531431 10.008859 3.2463656 11.150506 5.0722656 11.691406 L 5.0722656 13.994141 L 10.072266 13.994141 L 10.072266 11.621094 C 11.813566 11.047574 13.0755 9.9217656 13.875 8.5722656 C 15.029 6.6242656 15.306088 4.2785594 15.054688 2.4433594 A 0.50005 0.50005 0 0 0 14.533203 2.0058594 z"/>
</svg>
