<svg xmlns="http://www.w3.org/2000/svg" width="16" height="16" viewBox="0 0 16 16">
 <defs>
  <style id="current-color-scheme" type="text/css">
   .ColorScheme-Text { color:#e6e6fa; } .ColorScheme-Highlight { color:#5294e2; }
  </style>
 </defs>
 <path style="fill:currentColor" class="ColorScheme-Text" d="M 15.496094 0.99609375 A 0.50005 0.50005 0 0 0 15.007812 1.4570312 C 14.616953 5.5911313 12.771397 8.2578031 9.9042969 10.408203 L 7.578125 8.0820312 C 7.456285 7.4592212 7.304315 6.8195563 7.078125 6.1601562 C 6.625185 4.8397562 5.9391469 3.5564969 4.8730469 2.5917969 C 3.8069469 1.6271469 2.3558 1.0039062 0.5 1.0039062 A 0.50005 0.50005 0 1 0 0.5 2.0039062 C 2.138 2.0039062 3.3050719 2.5231344 4.2011719 3.3339844 C 5.0972419 4.1448144 5.7165125 5.270775 6.1328125 6.484375 C 6.3986925 7.259445 6.5596838 8.0500125 6.6835938 8.8203125 L 4 11.503906 L 7.5 15.003906 L 11 11.503906 L 10.648438 11.152344 C 13.617437 8.8535438 15.592806 5.8987812 16.003906 1.5507812 A 0.50005 0.50005 0 0 0 15.496094 0.99609375 z"/>
</svg>
