<svg xmlns="http://www.w3.org/2000/svg" width="16" height="16" viewBox="0 0 16 16">
 <defs>
  <style id="current-color-scheme" type="text/css">
   .ColorScheme-Text { color:#e6e6fa; } .ColorScheme-Highlight { color:#5294e2; }
  </style>
 </defs>
 <path style="fill:currentColor" class="ColorScheme-Text" d="M 1 1 L 1 10 L 3.8652344 10 L 2.7539062 5 L 11 5 L 11 1 L 1 1 z M 4 6 L 6 15 L 15 15 L 13 6 L 4 6 z"/>
</svg>
