<svg xmlns="http://www.w3.org/2000/svg" width="16" height="16" version="1.1">
 <defs>
  <style id="current-color-scheme" type="text/css">
   .ColorScheme-Text { color:#e6e6fa; } .ColorScheme-Highlight { color:#5294e2; }
  </style>
 </defs>
 <path style="fill:currentColor" class="ColorScheme-Text" d="m 7.99995,0.9997197 c -2.209139,0 -4,1.790861 -4,4 5.88e-4,0.013024 0.0012,0.026044 0.002,0.039063 C 2.280366,5.2862803 1.001713,6.7604307 1,8.4997197 1,10.432717 2.567004,11.999719 4.5,11.999719 H 4.25 4.091797 l 0.291016,0.01563 c 0.06955,0.244104 0.2908,0.674738 0.317187,1.23437 0.02857,0.605968 -0.526043,0.974529 -0.934375,1.328125 -0.103855,0.05509 -0.181318,0.119474 -0.173828,0.142578 0.02468,0.07611 0.500914,0.239462 0.78125,0.267578 0.361689,0.03626 0.864191,-0.0092 1.152344,-0.117187 0.458134,-0.171764 0.826829,-0.457689 1.085937,-0.845703 0.22156,-0.33179 0.338252,-0.659501 0.373047,-1.042969 l 0.0293,-0.966797 1.791013,-0.01563 H 12 c 1.656854,0 3,-1.343145 3,-2.9999993 0,-1.656854 -1.343146,-3 -3,-3 -0.04431,9.72e-4 -0.08859,0.0029 -0.132812,0.0059 0.08679,-0.3283714 0.131415,-0.6663355 0.132812,-1.0059 0,-2.209139 -1.790861,-4 -4,-4 z"/>
</svg>
