<svg xmlns="http://www.w3.org/2000/svg" width="24" height="24" version="1.1">
 <defs>
  <style id="current-color-scheme" type="text/css">
   .ColorScheme-Text { color:#e6e6fa; } .ColorScheme-Highlight { color:#5294e2; }
  </style>
 </defs>
 <g transform="matrix(1,0,0,1,1,1)">
  <path style="fill:currentColor" class="ColorScheme-Text" d="M 4 4 C 2.892 4 2 4.892 2 6 L 2 14 C 2 15.108 2.892 16 4 16 L 2 16 L 2 17 C 2 17.554 2.892 18 4 18 L 18 18 C 19.108 18 20 17.554 20 17 L 20 16 L 18 16 C 19.108 16 20 15.108 20 14 L 20 6 C 20 4.892 19.108 4 18 4 L 4 4 z M 10 5 L 12 5 L 12 5.5 L 10 5.5 L 10 5 z M 5 6 L 17 6 L 17 14 L 5 14 L 5 6 z M 9 16 L 13 16 L 13 16.5 L 9 16.5 L 9 16 z"/>
 </g>
</svg>
