<svg xmlns="http://www.w3.org/2000/svg" width="24" height="24" version="1.1">
 <defs>
  <style id="current-color-scheme" type="text/css">
   .ColorScheme-Text { color:#e6e6fa; } .ColorScheme-Highlight { color:#5294e2; }
  </style>
 </defs>
 <g transform="translate(4,4)">
  <path style="fill:currentColor" class="ColorScheme-Text" d="M 8,0 C 6.3379,0 5,1.3381 5,3 L 5,8.002 C 5,9.6639 6.3379,11 8,11 9.6621,11 11,9.6638 11,8.002 L 11,3 C 11,1.3381 9.6621,0 8,0 Z"/>
  <path style="fill:currentColor" class="ColorScheme-Text" d="M 2,7 2,7.9985 C 2,10.965 4,14 7,14 l 0,2 2,0 0,-2 c 3,0 5,-3.0351 5,-6.0015 L 14,7 12,7 12,7.9985 C 12,10.233 10.233,12 8,12 5.7666,12 4,10.233 4,7.9985 L 4,7 2,7 Z"/>
 </g>
</svg>
