<svg xmlns="http://www.w3.org/2000/svg" width="24" height="24" version="1.1">
 <defs>
  <style id="current-color-scheme" type="text/css">
   .ColorScheme-Text { color:#e6e6fa; } .ColorScheme-Highlight { color:#5294e2; }
  </style>
 </defs>
 <path d="M 12.018512,4 C 8.1257403,4 4.8879336,6.5954436 4.1831681,10.027344 A 7.9814888,7.5 0 0 0 4,11.603516 7.9814888,7.5 0 0 0 7.0300814,17.476562 V 20 l 1.7732314,-1.519531 a 7.9814888,7.5 0 0 0 3.1781762,0.623047 7.9814888,7.5 0 0 0 7.83729,-6.107422 C 19.935508,12.490394 20,11.965934 20,11.427734 20,7.3250344 16.426288,3.9999999 12.018512,4 Z m -0.02339,2 h 0.02339 0.02339 l 0.561198,0.025391 0.02143,0.00195 0.02339,0.00391 0.54561,0.074219 0.03312,0.00586 0.03312,0.00977 0.155889,0.042969 -0.270855,0.9628841 -0.113019,-0.033203 -0.500792,-0.070312 -0.512483,-0.021484 -0.514432,0.021484 -0.138351,0.019531 -0.136403,-0.9902345 0.159787,-0.021484 0.02339,-0.00391 0.02143,-0.00195 z M 10.190717,6.2871094 10.461573,7.2480469 10.062109,7.3632812 9.2105682,7.7832031 8.8520248,8.0527344 8.2538032,7.2519531 8.6513182,6.953125 8.6883424,6.925781 8.7292675,6.90625 9.6626497,6.4453125 l 0.040925,-0.021484 0.04287,-0.011719 z m 4.263549,0.1972656 0.853489,0.421875 0.04092,0.019531 0.03702,0.027344 0.812568,0.6113281 0.03702,0.029297 0.03312,0.035156 0.01948,0.021484 L 15.804628,8.0898438 15.600024,8.3652344 14.826429,7.7832031 14.01386,7.3808594 Z m -7.0071858,1.5 L 8.1856014,8.65625 7.8601841,9.015625 7.6224545,9.375 7.4159025,9.767578 7.2424767,10.195313 6.3168884,9.822266 6.5000576,9.367188 l 0.00978,-0.02539 0.011693,-0.02148 0.2318842,-0.4375005 0.011693,-0.023437 0.013638,-0.021484 0.2747529,-0.4121094 0.02143,-0.029297 0.023386,-0.027344 z m 9.5540128,0.46875 0.257215,0.3847656 0.01364,0.021484 0.01169,0.023437 0.231884,0.4375004 0.01169,0.02148 0.0098,0.02539 0.185118,0.458984 0.0098,0.02539 0.0078,0.02539 0.134454,0.478516 0.0078,0.02734 0.0039,0.02734 0.0078,0.04687 -0.923639,0.15625 -0.05651,0.01563 -0.002,-0.0059 h -0.002 L 16.90561,10.603516 16.784797,10.171875 16.623062,9.767578 16.414561,9.375 16.170985,9.007813 Z m -10.9336261,2.447266 0.5358672,0.08984 0.454025,0.02539 -0.025331,0.484375 0.023386,0.453125 0.074048,0.439453 0.1208138,0.429687 -0.9606619,0.271485 -0.1266603,-0.449219 -0.00778,-0.02734 -0.00389,-0.02734 -0.083796,-0.496094 -0.00389,-0.02734 -0.002,-0.02734 -0.029232,-0.511719 v -0.02734 -0.02734 l 0.029232,-0.511721 0.002,-0.02734 0.00389,-0.02734 z m 10.9394711,0.572265 0.997687,0.05469 -0.02923,0.511719 -0.002,0.02734 -0.0039,0.02734 -0.0838,0.496094 -0.0039,0.02734 -0.0078,0.02734 -0.134454,0.478515 -0.0078,0.02539 -0.0098,0.02539 -0.181168,0.45117 -0.925587,-0.373047 0.169529,-0.423828 0.122762,-0.435547 0.07405,-0.439453 z m -9.3981239,2.132813 0.017539,0.02734 0.2338327,0.349609 0.6138114,0.679687 0.352697,0.265625 -0.60017,0.800782 -0.3877727,-0.292969 -0.037024,-0.0293 -0.033123,-0.03516 -0.6703204,-0.740235 -0.023386,-0.02734 -0.02143,-0.0293 -0.2747538,-0.41211 -0.013638,-0.02148 -0.011693,-0.02344 -0.00978,-0.01563 0.5982256,-0.318349 z m 8.5894529,0.355468 0.738522,0.671875 -0.668372,0.738282 -0.03312,0.03516 -0.03702,0.0293 -0.800876,0.601562 -0.598222,-0.798828 0.763852,-0.576172 z m -6.607721,1.44336 0.471563,0.232422 0.941177,0.269531 0.329314,0.04492 -0.136403,0.992187 -0.352697,-0.04883 -0.03312,-0.0059 -0.03312,-0.0098 -1.0308131,-0.291015 -0.042871,-0.01172 -0.040925,-0.02148 -0.5124823,-0.251878 z m 4.429181,0.220703 0.05456,0.195312 0.350749,0.710938 -0.05066,0.02344 -0.04092,0.02148 -0.04287,0.01172 -1.030812,0.291015 -0.03312,0.0098 -0.03312,0.0059 -0.54561,0.07422 -0.02339,0.0039 -0.02143,0.002 -0.32152,0.01367 -0.04482,-1 0.294239,-0.01172 0.50274,-0.07031 0.945074,-0.269531 0.0039,-0.002 z" style="fill:currentColor" class="ColorScheme-Text"/>
</svg>
