<svg xmlns="http://www.w3.org/2000/svg" width="24" height="24" version="1.1">
 <defs>
  <style id="current-color-scheme" type="text/css">
   .ColorScheme-Text { color:#e6e6fa; } .ColorScheme-Highlight { color:#5294e2; }
  </style>
 </defs>
 <path style="fill:currentColor" class="ColorScheme-Text" d="m15 5-1.5 6-0.5-3-4 1-1 3-1-5-3 1 2 9.5 3.777 0.566 0.723-2.566 0.764 2.789 4.736 0.711 4-13z"/>
</svg>
