<svg xmlns="http://www.w3.org/2000/svg" width="16" height="16" version="1.1">
 <g transform="translate(-291.99997,-139.9999)">
  <path d="m 296.99414,140 c -1.2582,0.0145 -2.17889,-0.0306 -2.93164,0.38477 -0.37637,0.20766 -0.67323,0.55938 -0.83789,0.99804 C 293.05994,141.82148 293,142.34239 293,143 v 10 c 0,0.65761 0.0599,1.17853 0.22461,1.61719 0.16467,0.43866 0.46152,0.79039 0.83789,0.99804 0.75275,0.41532 1.67345,0.3702 2.93164,0.38477 h 0.004 5.0039 0.004 c 1.25819,-0.0145 2.17889,0.0306 2.93164,-0.38477 0.37637,-0.20766 0.67322,-0.55938 0.83789,-0.99804 C 305.94006,154.17852 306,153.65761 306,153 v -10 c 0,-0.65761 -0.0599,-1.17852 -0.22461,-1.61719 -0.16466,-0.43866 -0.46152,-0.79038 -0.83789,-0.99804 -0.75275,-0.41534 -1.67344,-0.37025 -2.93164,-0.38477 h -0.004 -5.0039 z m 0.006,1 h 5 c 1.25852,0.0147 2.08717,0.0598 2.45312,0.26172 0.18341,0.1012 0.28916,0.21274 0.38672,0.47266 C 304.93741,141.99429 305,142.40761 305,143 v 10 c 0,0.59239 -0.0626,1.00572 -0.16016,1.26562 -0.0976,0.25991 -0.20331,0.37147 -0.38672,0.47266 C 304.08717,154.94019 303.25852,154.98529 302,155 H 297.00586 297 c -1.25853,-0.0147 -2.08912,-0.0598 -2.45508,-0.26172 -0.18341,-0.10119 -0.2872,-0.21275 -0.38476,-0.47266 C 294.06259,154.00572 294,153.59239 294,153 v -10 c 0,-0.59239 0.0626,-1.00572 0.16016,-1.26562 0.0976,-0.25991 0.20135,-0.37147 0.38476,-0.47266 C 294.91088,141.05981 295.74147,141.01471 297,141 Z" style="solid-color:#e6e6fa;fill:#e6e6fa"/>
  <path d="m 297,143 v 1 c -0.54535,0 -1,0.45465 -1,1 h -1 v 1 h 1 v 1 h -1 v 1 h 1 v 1 h -1 v 1 h 1 v 1 h -1 v 1 h 1 c 0,0.54535 0.45465,1 1,1 v 1 h 1 v -1 h 1 v 1 h 1 v -1 h 1 v 1 h 1 v -1 c 0.54535,0 1,-0.45465 1,-1 h 1 v -1 h -1 v -1 h 1 v -1 h -1 v -1 h 1 v -1 h -1 v -1 h 1 v -1 h -1 c 0,-0.54535 -0.45465,-1 -1,-1 v -1.25 l -1,0.25 v 1 h -1 v -1.25 l -1,0.25 v 1 h -1 v -1.25 z m 0.5,2 h 4 c 0,0 0.5,0 0.5,0.5 v 6 c 0,0.5 -0.5,0.5 -0.5,0.5 h -4 c -0.5,0 -0.5,-0.5 -0.5,-0.5 v -6 c 0,0 0,-0.5 0.5,-0.5 z" style="fill:#e6e6fa"/>
 </g>
</svg>
