<svg xmlns="http://www.w3.org/2000/svg" width="16" height="16" version="1.1">
 <g transform="translate(-271.99997,-139.9999)">
  <path d="m 276.99414,140 c -1.2582,0.0145 -2.17889,-0.0306 -2.93164,0.38477 -0.37637,0.20766 -0.67323,0.55938 -0.83789,0.99804 C 273.05994,141.82148 273,142.34239 273,143 v 10 c 0,0.65761 0.0599,1.17853 0.22461,1.61719 0.16467,0.43866 0.46152,0.79039 0.83789,0.99804 0.75275,0.41532 1.67345,0.3702 2.93164,0.38477 h 0.004 5.0039 0.004 c 1.25819,-0.0145 2.17889,0.0306 2.93164,-0.38477 0.37637,-0.20766 0.67322,-0.55938 0.83789,-0.99804 C 285.94006,154.17852 286,153.65761 286,153 v -10 c 0,-0.65761 -0.0599,-1.17852 -0.22461,-1.61719 -0.16466,-0.43866 -0.46152,-0.79038 -0.83789,-0.99804 -0.75275,-0.41534 -1.67344,-0.37025 -2.93164,-0.38477 h -0.004 -5.0039 z m 0.006,1 h 5 c 1.25852,0.0147 2.08717,0.0598 2.45312,0.26172 0.18341,0.1012 0.28916,0.21274 0.38672,0.47266 C 284.93741,141.99429 285,142.40761 285,143 v 10 c 0,0.59239 -0.0626,1.00572 -0.16016,1.26562 -0.0976,0.25991 -0.20331,0.37147 -0.38672,0.47266 C 284.08717,154.94019 283.25852,154.98529 282,155 H 277.00586 277 c -1.25853,-0.0147 -2.08912,-0.0598 -2.45508,-0.26172 -0.18341,-0.10119 -0.2872,-0.21275 -0.38476,-0.47266 C 274.06259,154.00572 274,153.59239 274,153 v -10 c 0,-0.59239 0.0626,-1.00572 0.16016,-1.26562 0.0976,-0.25991 0.20135,-0.37147 0.38476,-0.47266 C 274.91088,141.05981 275.74147,141.01471 277,141 Z" style="solid-color:#e6e6fa;fill:#e6e6fa"/>
  <path d="m 279.79492,145.01172 c -1.05763,-0.0696 -2.13881,0.23169 -3.0332,0.91797 -1.7888,1.37257 -2.28751,3.86769 -1.16016,5.82031 1.12737,1.9526 3.53801,2.77104 5.6211,1.9082 2.08308,-0.86283 3.21055,-3.14633 2.62695,-5.32422 l -0.13086,-0.48242 -0.9668,0.25977 0.13086,0.48242 c 0.45568,1.7006 -0.41638,3.46491 -2.04297,4.13867 -1.62658,0.67373 -3.49078,0.0423 -4.37109,-1.48242 -0.88032,-1.52471 -0.4964,-3.45557 0.90039,-4.52734 1.2611,-0.96765 2.98151,-0.94707 4.2207,-0.0195 l -0.64453,0.64454 0.70703,0.70703 0.67578,-0.67578 h 0.002 l 0.35351,-0.35547 0.35352,-0.35156 -0.35352,-0.35352 c -0.79716,-0.79715 -1.83104,-1.23699 -2.88867,-1.30664 z" style="solid-color:#e6e6fa;fill:#e6e6fa"/>
  <path d="m 279.5,148 a 1.5,1.5 0 0 0 -1.5,1.5 1.5,1.5 0 0 0 1.5,1.5 1.5,1.5 0 0 0 1.5,-1.5 1.5,1.5 0 0 0 -1.5,-1.5 z m 0,1 a 0.5,0.5 0 0 1 0.5,0.5 0.5,0.5 0 0 1 -0.5,0.5 0.5,0.5 0 0 1 -0.5,-0.5 0.5,0.5 0 0 1 0.5,-0.5 z" style="fill:#e6e6fa"/>
 </g>
</svg>
