<svg xmlns="http://www.w3.org/2000/svg" width="16" height="16" version="1.1">
 <g transform="translate(-371.99997,-159.99994)">
  <path d="m 376.99414,161 c -1.2582,0.0145 -2.17889,-0.0306 -2.93164,0.38477 -0.37637,0.20766 -0.67323,0.55938 -0.83789,0.99804 C 373.05994,162.82148 373,163.34239 373,164 v 11 h 0.5 13.5 v -11 c 0,-0.65761 -0.0599,-1.17852 -0.22461,-1.61719 -0.16466,-0.43866 -0.46152,-0.79038 -0.83789,-0.99804 -0.75275,-0.41534 -1.67344,-0.37025 -2.93164,-0.38477 h -0.004 -6.0039 z m 0.006,1 h 6 c 1.25852,0.0147 2.08717,0.0598 2.45312,0.26172 0.18341,0.1012 0.28916,0.21274 0.38672,0.47266 C 385.93741,162.99429 386,163.40761 386,164 v 10 h -12 v -10 c 0,-0.59239 0.0626,-1.00572 0.16016,-1.26562 0.0976,-0.25991 0.20135,-0.37147 0.38476,-0.47266 C 374.91088,162.05981 375.74147,162.01471 377,162 Z" style="solid-color:#e6e6fa;fill:#e6e6fa"/>
  <rect style="fill:#e6e6fa" width="8" height="4" x="376" y="162"/>
 </g>
</svg>
