<svg xmlns="http://www.w3.org/2000/svg" width="16" height="16" version="1.1">
 <g transform="translate(-351.99997,-119.99994)">
  <path d="m 357.5,120 c -0.54167,1e-5 -0.98391,0.0636 -1.35938,0.23047 -0.37544,0.16687 -0.66816,0.45744 -0.83789,0.79687 -0.33943,0.67888 -0.30268,1.47267 -0.30273,2.47266 v 9 c 0,1 -0.0367,1.79572 0.30273,2.47461 0.16973,0.33944 0.46244,0.62805 0.83789,0.79492 C 356.51608,135.9364 356.95833,136 357.5,136 h 5 c 0.54164,4e-5 0.98392,-0.0636 1.35938,-0.23047 0.37545,-0.16686 0.66815,-0.45548 0.83789,-0.79492 0.33943,-0.67888 0.30268,-1.4746 0.30273,-2.47461 v -9 c 0,-1 0.0367,-1.79377 -0.30273,-2.47266 -0.16973,-0.33944 -0.46244,-0.63 -0.83789,-0.79687 C 363.48392,120.0636 363.04167,120 362.5,120 Z m -1.42969,2 h 7.85938 c 0.0509,0.37338 0.0703,0.8701 0.0703,1.5 v 9 c -3e-5,0.62989 -0.0194,1.12605 -0.0703,1.5 h -7.85938 c -0.0509,-0.37395 -0.0703,-0.8701 -0.0703,-1.5 v -9 c 3e-5,-0.6299 0.0194,-1.12663 0.0703,-1.5 z" style="solid-color:#e6e6fa;fill:#e6e6fa"/>
 </g>
</svg>
