<svg xmlns="http://www.w3.org/2000/svg" style="isolation:isolate" width="16" height="16" viewBox="0 0 16 16">
 <defs>
  <clipPath id="_clipPath_yGby73csIHZEeKTBV983wUdROh4Fn1pZ">
   <rect width="16" height="16"/>
  </clipPath>
 </defs>
 <g clip-path="url(#_clipPath_yGby73csIHZEeKTBV983wUdROh4Fn1pZ)">
  <rect style="fill:#000000" fill-opacity="0" width="16" height="16"/>
  <path fill="#e6e6fa" d="M 13.139 7.395 C 13.141 7.338 13.144 7.281 13.144 7.226 C 13.144 5.051 11.373 3.282 9.198 3.282 C 7.695 3.282 6.323 4.15 5.665 5.482 C 5.321 5.255 4.918 5.134 4.506 5.135 C 3.401 5.136 2.485 5.991 2.409 7.094 C 1.275 7.507 0.5 8.596 0.5 9.818 C 0.5 11.416 1.802 12.718 3.402 12.718 L 12.829 12.718 C 14.302 12.718 15.5 11.52 15.5 10.047 C 15.5 8.68 14.467 7.549 13.139 7.395 Z"/>
 </g>
</svg>
