<svg xmlns="http://www.w3.org/2000/svg" style="isolation:isolate" width="16" height="16" viewBox="0 0 16 16">
 <defs>
  <clipPath id="_clipPath_AAZiGJ5Ggo8alxjkpfrS82BRdCb99MHA">
   <rect width="16" height="16"/>
  </clipPath>
 </defs>
 <g clip-path="url(#_clipPath_AAZiGJ5Ggo8alxjkpfrS82BRdCb99MHA)">
  <rect style="fill:#000000" fill-opacity="0" width="16" height="16"/>
  <path fill="#e6e6fa" d="M 5.5 1.571 L 9.786 8.714 L 15.5 8.714 L 10.737 1.571 L 5.5 1.571 Z M 4.501 2.428 L 0.5 10.143 L 3.215 14.429 L 6.929 6.714 L 4.501 2.428 Z M 6.929 10.143 L 4.786 14.429 L 13.357 14.429 L 15.5 10.143 L 6.929 10.143 Z"/>
 </g>
</svg>
