<svg xmlns="http://www.w3.org/2000/svg" width="16" height="16">
 <g color="#000" transform="translate(-312 -80)">
  <path fill="#e6e6fa" d="M315.994 80c-1.258.015-2.179-.029-2.932.387a1.878 1.878 0 0 0-.84.996c-.164.438-.222.96-.222 1.617v7c0 .658.058 1.179.223 1.617.164.439.463.79.84.998.752.416 1.673.37 2.931.385H319v1h2v-1h3.006c1.258-.015 2.179.03 2.932-.385.376-.207.675-.56.84-.998.164-.438.222-.96.222-1.617v-5c0-.658-.058-1.179-.223-1.617-.02-.055-.048-.104-.074-.154l-.027-.057a1.838 1.838 0 0 0-.738-.787c-.753-.416-1.674-.37-2.932-.385H320.967l-2.022-2h-2.949zm.012 1h2.53l1.765 1.746L319.033 84H315.994c-1.258.015-2.179-.03-2.932.385-.022.012-.04.03-.062.043V83c0-.592.062-1.006.16-1.266s.203-.371.387-.472c.366-.203 1.195-.247 2.459-.262zm5.459 2h2.527c1.264.015 2.092.06 2.46.262.183.1.288.212.386.472.098.26.162.674.162 1.266v5c0 .592-.063 1.006-.16 1.266-.098.26-.203.371-.387.472-.366.202-1.193.247-2.453.262h-8c-1.26-.015-2.087-.06-2.453-.262-.184-.1-.29-.212-.387-.472-.097-.26-.16-.674-.16-1.266v-3c0-.592.064-1.006.162-1.266s.203-.371.387-.472c.367-.203 1.195-.247 2.459-.262h3.435zM313 95v1h14v-1z" font-family="sans-serif" font-weight="400" overflow="visible"/>
 </g>
</svg>
