<svg xmlns="http://www.w3.org/2000/svg" width="16" height="16">
 <g transform="translate(-512 -32)">
  <path fill="#e6e6fa" d="M526 37v-2h-2.002z" color="#000" overflow="visible"/>
  <path fill="#e6e6fa" d="M514 39v8h9v-1h-8v-7.667zm11.002-1L525 47h1v-8z" font-family="Ubuntu" font-size="15" font-weight="400" letter-spacing="0" text-anchor="middle" word-spacing="0"/>
  <path fill="#e6e6fa" d="M520 40.986a8.47 8.47 0 0 1 .607-.122c.253-.043.543-.064.872-.064.295 0 .54.043.735.129.195.08.35.197.465.35.119.147.202.326.25.535.047.21.071.44.071.693V46.2h-3z" font-family="Ubuntu" font-weight="400" letter-spacing="0" text-anchor="end" word-spacing="0"/>
  <path fill="#e6e6fa" fill-rule="evenodd" d="M520 32.293l-7.854 7.853.708.708L520 33.707l7.146 7.147.708-.708z" color="#000" font-family="sans-serif" font-weight="400" overflow="visible"/>
 </g>
</svg>
