<svg xmlns="http://www.w3.org/2000/svg" width="24" height="24" viewBox="0 0 24 24">
 <defs>
  <style id="current-color-scheme" type="text/css">
   .ColorScheme-Text { color:#e6e6fa; } .ColorScheme-Highlight { color:#5294e2; }
  </style>
 </defs>
 <path style="fill:currentColor" class="ColorScheme-Text" d="M 1 1.0039062 L 1 15.003906 L 15 15.003906 L 15 1.0039062 L 1 1.0039062 z M 3 3.0039062 L 13 3.0039062 L 13 13.003906 L 3 13.003906 L 3 3.0039062 z M 4 4.0039062 L 4 12.003906 L 7 12.003906 L 7 4.0039062 L 4 4.0039062 z M 9 4.0039062 L 9 12.003906 L 12 12.003906 L 12 4.0039062 L 9 4.0039062 z" transform="translate(4 4)"/>
</svg>
