<svg xmlns="http://www.w3.org/2000/svg" width="24" height="24" viewBox="0 0 24 24">
 <defs>
  <style id="current-color-scheme" type="text/css">
   .ColorScheme-Text { color:#e6e6fa; } .ColorScheme-Highlight { color:#5294e2; }
  </style>
 </defs>
 <path style="fill:currentColor" class="ColorScheme-Text" d="M 5 2.0039062 L 0 8.0039062 L 5 14.003906 L 16 14.003906 L 16 2.0039062 L 5 2.0039062 z M 7 5.0039062 L 8 5.0039062 C 8.277 5.0039062 8.5262813 5.116125 8.7070312 5.296875 L 10 6.5898438 L 11.292969 5.296875 C 11.462969 5.115875 11.712188 5.0039062 11.992188 5.0039062 L 12.992188 5.0039062 L 12.992188 6.0039062 C 12.992188 6.2809063 12.879969 6.5301875 12.699219 6.7109375 L 11.400391 8.0039062 L 12.693359 9.296875 C 12.874109 9.477625 12.986328 9.7269062 12.986328 10.003906 L 12.986328 11.003906 L 11.986328 11.003906 C 11.709328 11.003906 11.460047 10.891687 11.279297 10.710938 L 9.9863281 9.4179688 L 8.6933594 10.710938 C 8.5333594 10.891937 8.2839062 11.003906 8.0039062 11.003906 L 7.0039062 11.003906 L 7.0039062 10.003906 C 7.0039062 9.7269062 7.116125 9.477625 7.296875 9.296875 L 8.5957031 8.0039062 L 7.296875 6.7109375 C 7.116875 6.5299375 7.0058594 6.2809063 7.0058594 6.0039062 L 7 5.0039062 z" transform="translate(4 4)"/>
</svg>
