<svg xmlns="http://www.w3.org/2000/svg" width="24" height="24" viewBox="0 0 24 24">
 <defs>
  <style id="current-color-scheme" type="text/css">
   .ColorScheme-Text { color:#e6e6fa; } .ColorScheme-Highlight { color:#5294e2; }
  </style>
 </defs>
 <path style="fill:currentColor" class="ColorScheme-Text" d="M 3 2 L 3 14 L 7 14 L 7 6 L 9 6 L 9 14 L 13 14 L 13 2 L 3 2 z M 4 3 L 12 3 L 12 13 L 10 13 L 10 5 L 6 5 L 6 13 L 4 13 L 4 3 z" transform="translate(4 4)"/>
</svg>
