<svg xmlns="http://www.w3.org/2000/svg" width="24" height="24" viewBox="0 0 24 24">
 <defs>
  <style id="current-color-scheme" type="text/css">
   .ColorScheme-Text { color:#e6e6fa; } .ColorScheme-Highlight { color:#5294e2; }
  </style>
 </defs>
 <path style="fill:currentColor" class="ColorScheme-Text" d="M 5 1 L 5 5 L 13.246094 5 L 12.134766 10 L 15 10 L 15 1 L 5 1 z M 3 6 L 1 15 L 10 15 L 12 6 L 3 6 z" transform="translate(4 4)"/>
</svg>
